%!PS-Adobe-3.0
%%Creator: PCBNEW
%%CreationDate: Thu Oct  8 00:06:37 2020
%%Title: /home/cascadan/git_repos/openipmc-hw_debug-base/kicad_design/fabrication_files-v.2020.10-01/dimm_breakout-NPTH-drl_map.ps
%%Pages: 1
%%PageOrder: Ascend
%%BoundingBox: 0 0 596 842
%%DocumentMedia: A4 595 842 0 () ()
%%Orientation: Landscape
%%EndComments
%%BeginProlog
/line { newpath moveto lineto stroke } bind def
/cir0 { newpath 0 360 arc stroke } bind def
/cir1 { newpath 0 360 arc gsave fill grestore stroke } bind def
/cir2 { newpath 0 360 arc gsave fill grestore stroke } bind def
/arc0 { newpath arc stroke } bind def
/arc1 { newpath 4 index 4 index moveto arc closepath gsave fill
    grestore stroke } bind def
/arc2 { newpath 4 index 4 index moveto arc closepath gsave fill
    grestore stroke } bind def
/poly0 { stroke } bind def
/poly1 { closepath gsave fill grestore stroke } bind def
/poly2 { closepath gsave fill grestore stroke } bind def
/rect0 { rectstroke } bind def
/rect1 { rectfill } bind def
/rect2 { rectfill } bind def
/linemode0 { 0 setlinecap 0 setlinejoin 0 setlinewidth } bind def
/linemode1 { 1 setlinecap 1 setlinejoin } bind def
/dashedline { [200] 100 setdash } bind def
/solidline { [] 0 setdash } bind def
/phantomshow { moveto
    /KicadFont findfont 0.000001 scalefont setfont
    show } bind def
/textshow { gsave
    findfont exch scalefont setfont concat 1 scale 0 0 moveto show
    } bind def
/reencodefont {
  findfont dup length dict begin
  { 1 index /FID ne
    { def }
    { pop pop } ifelse
  } forall
  /Encoding ISOLatin1Encoding def
  currentdict
  end } bind def
/KicadFont /Helvetica reencodefont definefont pop
/KicadFont-Bold /Helvetica-Bold reencodefont definefont pop
/KicadFont-Oblique /Helvetica-Oblique reencodefont definefont pop
/KicadFont-BoldOblique /Helvetica-BoldOblique reencodefont definefont pop
%%EndProlog
%%Page: 1 1
%%BeginPageSetup
gsave
0.0072 0.0072 scale
linemode1
82680 0 translate 90 rotate
53.5105 setlinewidth
%%EndPageSetup
0 0 0 setrgbcolor
21.0671 setlinewidth
newpath
37608.5 37019.5 moveto
37608.5 78732.5 lineto
stroke
0 0 0 setrgbcolor
newpath
79321.5 37019.5 moveto
37608.5 37019.5 lineto
stroke
0 0 0 setrgbcolor
newpath
79321.5 78732.5 moveto
79321.5 37019.5 lineto
stroke
0 0 0 setrgbcolor
newpath
37608.5 78732.5 moveto
79321.5 78732.5 lineto
stroke
78.7401 setlinewidth
newpath
41779.8 58381.6 moveto
42369.7 57791.7 lineto
stroke
newpath
42369.7 58381.6 moveto
41779.8 57791.7 lineto
stroke
newpath
74644.6 58381.6 moveto
75234.4 57791.7 lineto
stroke
newpath
75234.4 58381.6 moveto
74644.6 57791.7 lineto
stroke
59518.4 58086.7 316.007 cir0
newpath
74834.2 70215 moveto
74834.2 68845.7 lineto
stroke
newpath
74149.5 69530.3 moveto
75518.8 69530.3 lineto
stroke
newpath
74834.2 65399.1 moveto
74834.2 64029.7 lineto
stroke
newpath
74149.5 64714.4 moveto
75518.8 64714.4 lineto
stroke
118.11 setlinewidth
0 0 0 setrgbcolor
0 0 0 setrgbcolor
newpath
38725.7 35175.5 moveto
38725.7 36356.6 lineto
39006.9 36356.6 lineto
39175.6 36300.3 lineto
39288.1 36187.9 lineto
39344.4 36075.4 lineto
39400.6 35850.4 lineto
39400.6 35681.7 lineto
39344.4 35456.7 lineto
39288.1 35344.2 lineto
39175.6 35231.7 lineto
39006.9 35175.5 lineto
38725.7 35175.5 lineto
stroke
newpath
39906.8 35175.5 moveto
39906.8 35962.9 lineto
stroke
newpath
39906.8 35737.9 moveto
39963 35850.4 lineto
40019.3 35906.6 lineto
40131.8 35962.9 lineto
40244.2 35962.9 lineto
stroke
newpath
40637.9 35175.5 moveto
40637.9 35962.9 lineto
stroke
newpath
40637.9 36356.6 moveto
40581.7 36300.3 lineto
40637.9 36244.1 lineto
40694.2 36300.3 lineto
40637.9 36356.6 lineto
40637.9 36244.1 lineto
stroke
newpath
41369.1 35175.5 moveto
41256.6 35231.7 lineto
41200.4 35344.2 lineto
41200.4 36356.6 lineto
stroke
newpath
41987.8 35175.5 moveto
41875.3 35231.7 lineto
41819 35344.2 lineto
41819 36356.6 lineto
stroke
newpath
43337.6 35175.5 moveto
43337.6 36356.6 lineto
43731.3 35512.9 lineto
44125 36356.6 lineto
44125 35175.5 lineto
stroke
newpath
45193.6 35175.5 moveto
45193.6 35794.2 lineto
45137.4 35906.6 lineto
45024.9 35962.9 lineto
44799.9 35962.9 lineto
44687.4 35906.6 lineto
stroke
newpath
45193.6 35231.7 moveto
45081.1 35175.5 lineto
44799.9 35175.5 lineto
44687.4 35231.7 lineto
44631.2 35344.2 lineto
44631.2 35456.7 lineto
44687.4 35569.2 lineto
44799.9 35625.4 lineto
45081.1 35625.4 lineto
45193.6 35681.7 lineto
stroke
newpath
45756.1 35962.9 moveto
45756.1 34781.8 lineto
stroke
newpath
45756.1 35906.6 moveto
45868.5 35962.9 lineto
46093.5 35962.9 lineto
46206 35906.6 lineto
46262.2 35850.4 lineto
46318.5 35737.9 lineto
46318.5 35400.5 lineto
46262.2 35288 lineto
46206 35231.7 lineto
46093.5 35175.5 lineto
45868.5 35175.5 lineto
45756.1 35231.7 lineto
stroke
newpath
46824.7 35288 moveto
46880.9 35231.7 lineto
46824.7 35175.5 lineto
46768.4 35231.7 lineto
46824.7 35288 lineto
46824.7 35175.5 lineto
stroke
newpath
46824.7 35906.6 moveto
46880.9 35850.4 lineto
46824.7 35794.2 lineto
46768.4 35850.4 lineto
46824.7 35906.6 lineto
46824.7 35794.2 lineto
stroke
newpath
37008.1 33524.4 moveto
37598 32934.5 lineto
stroke
newpath
37598 33524.4 moveto
37008.1 32934.5 lineto
stroke
0 0 0 setrgbcolor
0 0 0 setrgbcolor
newpath
39344.4 32695.2 moveto
38669.4 32695.2 lineto
stroke
newpath
39006.9 32695.2 moveto
39006.9 33876.3 lineto
38894.4 33707.5 lineto
38781.9 33595.1 lineto
38669.4 33538.8 lineto
stroke
newpath
39850.5 32807.7 moveto
39906.8 32751.4 lineto
39850.5 32695.2 lineto
39794.3 32751.4 lineto
39850.5 32807.7 lineto
39850.5 32695.2 lineto
stroke
newpath
40919.2 33482.6 moveto
40919.2 32695.2 lineto
stroke
newpath
40637.9 33932.5 moveto
40356.7 33088.9 lineto
41087.9 33088.9 lineto
stroke
newpath
41762.8 33876.3 moveto
41875.3 33876.3 lineto
41987.8 33820 lineto
42044 33763.8 lineto
42100.3 33651.3 lineto
42156.5 33426.3 lineto
42156.5 33145.1 lineto
42100.3 32920.1 lineto
42044 32807.7 lineto
41987.8 32751.4 lineto
41875.3 32695.2 lineto
41762.8 32695.2 lineto
41650.3 32751.4 lineto
41594.1 32807.7 lineto
41537.8 32920.1 lineto
41481.6 33145.1 lineto
41481.6 33426.3 lineto
41537.8 33651.3 lineto
41594.1 33763.8 lineto
41650.3 33820 lineto
41762.8 33876.3 lineto
stroke
newpath
42662.7 32695.2 moveto
42662.7 33482.6 lineto
stroke
newpath
42662.7 33370.1 moveto
42718.9 33426.3 lineto
42831.4 33482.6 lineto
43000.1 33482.6 lineto
43112.6 33426.3 lineto
43168.9 33313.8 lineto
43168.9 32695.2 lineto
stroke
newpath
43168.9 33313.8 moveto
43225.1 33426.3 lineto
43337.6 33482.6 lineto
43506.3 33482.6 lineto
43618.8 33426.3 lineto
43675.1 33313.8 lineto
43675.1 32695.2 lineto
stroke
newpath
44237.5 32695.2 moveto
44237.5 33482.6 lineto
stroke
newpath
44237.5 33370.1 moveto
44293.7 33426.3 lineto
44406.2 33482.6 lineto
44574.9 33482.6 lineto
44687.4 33426.3 lineto
44743.7 33313.8 lineto
44743.7 32695.2 lineto
stroke
newpath
44743.7 33313.8 moveto
44799.9 33426.3 lineto
44912.4 33482.6 lineto
45081.1 33482.6 lineto
45193.6 33426.3 lineto
45249.9 33313.8 lineto
45249.9 32695.2 lineto
stroke
newpath
47555.8 33932.5 moveto
46543.5 32414 lineto
stroke
newpath
49074.4 33876.3 moveto
49186.9 33876.3 lineto
49299.4 33820 lineto
49355.6 33763.8 lineto
49411.8 33651.3 lineto
49468.1 33426.3 lineto
49468.1 33145.1 lineto
49411.8 32920.1 lineto
49355.6 32807.7 lineto
49299.4 32751.4 lineto
49186.9 32695.2 lineto
49074.4 32695.2 lineto
48961.9 32751.4 lineto
48905.7 32807.7 lineto
48849.4 32920.1 lineto
48793.2 33145.1 lineto
48793.2 33426.3 lineto
48849.4 33651.3 lineto
48905.7 33763.8 lineto
48961.9 33820 lineto
49074.4 33876.3 lineto
stroke
newpath
49974.3 32807.7 moveto
50030.5 32751.4 lineto
49974.3 32695.2 lineto
49918 32751.4 lineto
49974.3 32807.7 lineto
49974.3 32695.2 lineto
stroke
newpath
50761.7 33876.3 moveto
50874.2 33876.3 lineto
50986.6 33820 lineto
51042.9 33763.8 lineto
51099.1 33651.3 lineto
51155.4 33426.3 lineto
51155.4 33145.1 lineto
51099.1 32920.1 lineto
51042.9 32807.7 lineto
50986.6 32751.4 lineto
50874.2 32695.2 lineto
50761.7 32695.2 lineto
50649.2 32751.4 lineto
50592.9 32807.7 lineto
50536.7 32920.1 lineto
50480.5 33145.1 lineto
50480.5 33426.3 lineto
50536.7 33651.3 lineto
50592.9 33763.8 lineto
50649.2 33820 lineto
50761.7 33876.3 lineto
stroke
newpath
52224 33876.3 moveto
51661.6 33876.3 lineto
51605.3 33313.8 lineto
51661.6 33370.1 lineto
51774 33426.3 lineto
52055.3 33426.3 lineto
52167.8 33370.1 lineto
52224 33313.8 lineto
52280.2 33201.4 lineto
52280.2 32920.1 lineto
52224 32807.7 lineto
52167.8 32751.4 lineto
52055.3 32695.2 lineto
51774 32695.2 lineto
51661.6 32751.4 lineto
51605.3 32807.7 lineto
stroke
newpath
53348.9 33876.3 moveto
52786.4 33876.3 lineto
52730.2 33313.8 lineto
52786.4 33370.1 lineto
52898.9 33426.3 lineto
53180.1 33426.3 lineto
53292.6 33370.1 lineto
53348.9 33313.8 lineto
53405.1 33201.4 lineto
53405.1 32920.1 lineto
53348.9 32807.7 lineto
53292.6 32751.4 lineto
53180.1 32695.2 lineto
52898.9 32695.2 lineto
52786.4 32751.4 lineto
52730.2 32807.7 lineto
stroke
newpath
53855 33876.3 moveto
53855 33651.3 lineto
stroke
newpath
54305 33876.3 moveto
54305 33651.3 lineto
stroke
newpath
56048.5 32245.2 moveto
55992.3 32301.5 lineto
55879.8 32470.2 lineto
55823.5 32582.7 lineto
55767.3 32751.4 lineto
55711.1 33032.6 lineto
55711.1 33257.6 lineto
55767.3 33538.8 lineto
55823.5 33707.5 lineto
55879.8 33820 lineto
55992.3 33988.8 lineto
56048.5 34045 lineto
stroke
newpath
56442.2 33763.8 moveto
56498.5 33820 lineto
56610.9 33876.3 lineto
56892.2 33876.3 lineto
57004.6 33820 lineto
57060.9 33763.8 lineto
57117.1 33651.3 lineto
57117.1 33538.8 lineto
57060.9 33370.1 lineto
56386 32695.2 lineto
57117.1 32695.2 lineto
stroke
newpath
58523.2 32695.2 moveto
58523.2 33876.3 lineto
stroke
newpath
59029.4 32695.2 moveto
59029.4 33313.8 lineto
58973.2 33426.3 lineto
58860.7 33482.6 lineto
58691.9 33482.6 lineto
58579.4 33426.3 lineto
58523.2 33370.1 lineto
stroke
newpath
59760.6 32695.2 moveto
59648.1 32751.4 lineto
59591.8 32807.7 lineto
59535.6 32920.1 lineto
59535.6 33257.6 lineto
59591.8 33370.1 lineto
59648.1 33426.3 lineto
59760.6 33482.6 lineto
59929.3 33482.6 lineto
60041.8 33426.3 lineto
60098 33370.1 lineto
60154.3 33257.6 lineto
60154.3 32920.1 lineto
60098 32807.7 lineto
60041.8 32751.4 lineto
59929.3 32695.2 lineto
59760.6 32695.2 lineto
stroke
newpath
60829.2 32695.2 moveto
60716.7 32751.4 lineto
60660.4 32863.9 lineto
60660.4 33876.3 lineto
stroke
newpath
61729.1 32751.4 moveto
61616.6 32695.2 lineto
61391.6 32695.2 lineto
61279.1 32751.4 lineto
61222.9 32863.9 lineto
61222.9 33313.8 lineto
61279.1 33426.3 lineto
61391.6 33482.6 lineto
61616.6 33482.6 lineto
61729.1 33426.3 lineto
61785.3 33313.8 lineto
61785.3 33201.4 lineto
61222.9 33088.9 lineto
stroke
newpath
62235.2 32751.4 moveto
62347.7 32695.2 lineto
62572.7 32695.2 lineto
62685.2 32751.4 lineto
62741.4 32863.9 lineto
62741.4 32920.1 lineto
62685.2 33032.6 lineto
62572.7 33088.9 lineto
62404 33088.9 lineto
62291.5 33145.1 lineto
62235.2 33257.6 lineto
62235.2 33313.8 lineto
62291.5 33426.3 lineto
62404 33482.6 lineto
62572.7 33482.6 lineto
62685.2 33426.3 lineto
stroke
newpath
63135.1 32245.2 moveto
63191.4 32301.5 lineto
63303.9 32470.2 lineto
63360.1 32582.7 lineto
63416.3 32751.4 lineto
63472.6 33032.6 lineto
63472.6 33257.6 lineto
63416.3 33538.8 lineto
63360.1 33707.5 lineto
63303.9 33820 lineto
63191.4 33988.8 lineto
63135.1 34045 lineto
stroke
newpath
65272.4 32245.2 moveto
65216.1 32301.5 lineto
65103.6 32470.2 lineto
65047.4 32582.7 lineto
64991.1 32751.4 lineto
64934.9 33032.6 lineto
64934.9 33257.6 lineto
64991.1 33538.8 lineto
65047.4 33707.5 lineto
65103.6 33820 lineto
65216.1 33988.8 lineto
65272.4 34045 lineto
stroke
newpath
65722.3 33482.6 moveto
65722.3 32695.2 lineto
stroke
newpath
65722.3 33370.1 moveto
65778.6 33426.3 lineto
65891 33482.6 lineto
66059.8 33482.6 lineto
66172.3 33426.3 lineto
66228.5 33313.8 lineto
66228.5 32695.2 lineto
stroke
newpath
66959.7 32695.2 moveto
66847.2 32751.4 lineto
66790.9 32807.7 lineto
66734.7 32920.1 lineto
66734.7 33257.6 lineto
66790.9 33370.1 lineto
66847.2 33426.3 lineto
66959.7 33482.6 lineto
67128.4 33482.6 lineto
67240.9 33426.3 lineto
67297.1 33370.1 lineto
67353.4 33257.6 lineto
67353.4 32920.1 lineto
67297.1 32807.7 lineto
67240.9 32751.4 lineto
67128.4 32695.2 lineto
66959.7 32695.2 lineto
stroke
newpath
67690.8 33482.6 moveto
68140.8 33482.6 lineto
stroke
newpath
67859.5 33876.3 moveto
67859.5 32863.9 lineto
67915.8 32751.4 lineto
68028.3 32695.2 lineto
68140.8 32695.2 lineto
stroke
newpath
69434.3 33482.6 moveto
69434.3 32301.5 lineto
stroke
newpath
69434.3 33426.3 moveto
69546.8 33482.6 lineto
69771.8 33482.6 lineto
69884.3 33426.3 lineto
69940.5 33370.1 lineto
69996.8 33257.6 lineto
69996.8 32920.1 lineto
69940.5 32807.7 lineto
69884.3 32751.4 lineto
69771.8 32695.2 lineto
69546.8 32695.2 lineto
69434.3 32751.4 lineto
stroke
newpath
70671.7 32695.2 moveto
70559.2 32751.4 lineto
70503 32863.9 lineto
70503 33876.3 lineto
stroke
newpath
71627.8 32695.2 moveto
71627.8 33313.8 lineto
71571.6 33426.3 lineto
71459.1 33482.6 lineto
71234.1 33482.6 lineto
71121.6 33426.3 lineto
stroke
newpath
71627.8 32751.4 moveto
71515.3 32695.2 lineto
71234.1 32695.2 lineto
71121.6 32751.4 lineto
71065.4 32863.9 lineto
71065.4 32976.4 lineto
71121.6 33088.9 lineto
71234.1 33145.1 lineto
71515.3 33145.1 lineto
71627.8 33201.4 lineto
stroke
newpath
72021.5 33482.6 moveto
72471.5 33482.6 lineto
stroke
newpath
72190.2 33876.3 moveto
72190.2 32863.9 lineto
72246.5 32751.4 lineto
72359 32695.2 lineto
72471.5 32695.2 lineto
stroke
newpath
73315.1 32751.4 moveto
73202.6 32695.2 lineto
72977.7 32695.2 lineto
72865.2 32751.4 lineto
72808.9 32863.9 lineto
72808.9 33313.8 lineto
72865.2 33426.3 lineto
72977.7 33482.6 lineto
73202.6 33482.6 lineto
73315.1 33426.3 lineto
73371.4 33313.8 lineto
73371.4 33201.4 lineto
72808.9 33088.9 lineto
stroke
newpath
74383.7 32695.2 moveto
74383.7 33876.3 lineto
stroke
newpath
74383.7 32751.4 moveto
74271.2 32695.2 lineto
74046.3 32695.2 lineto
73933.8 32751.4 lineto
73877.5 32807.7 lineto
73821.3 32920.1 lineto
73821.3 33257.6 lineto
73877.5 33370.1 lineto
73933.8 33426.3 lineto
74046.3 33482.6 lineto
74271.2 33482.6 lineto
74383.7 33426.3 lineto
stroke
newpath
74833.7 32245.2 moveto
74889.9 32301.5 lineto
75002.4 32470.2 lineto
75058.6 32582.7 lineto
75114.9 32751.4 lineto
75171.1 33032.6 lineto
75171.1 33257.6 lineto
75114.9 33538.8 lineto
75058.6 33707.5 lineto
75002.4 33820 lineto
74889.9 33988.8 lineto
74833.7 34045 lineto
stroke
37282 31670.4 316.007 cir0
0 0 0 setrgbcolor
0 0 0 setrgbcolor
newpath
39344.4 31136.1 moveto
38669.4 31136.1 lineto
stroke
newpath
39006.9 31136.1 moveto
39006.9 32317.2 lineto
38894.4 32148.5 lineto
38781.9 32036 lineto
38669.4 31979.8 lineto
stroke
newpath
39850.5 31248.6 moveto
39906.8 31192.4 lineto
39850.5 31136.1 lineto
39794.3 31192.4 lineto
39850.5 31248.6 lineto
39850.5 31136.1 lineto
stroke
newpath
40975.4 32317.2 moveto
40413 32317.2 lineto
40356.7 31754.8 lineto
40413 31811 lineto
40525.5 31867.3 lineto
40806.7 31867.3 lineto
40919.2 31811 lineto
40975.4 31754.8 lineto
41031.6 31642.3 lineto
41031.6 31361.1 lineto
40975.4 31248.6 lineto
40919.2 31192.4 lineto
40806.7 31136.1 lineto
40525.5 31136.1 lineto
40413 31192.4 lineto
40356.7 31248.6 lineto
stroke
newpath
41762.8 32317.2 moveto
41875.3 32317.2 lineto
41987.8 32261 lineto
42044 32204.7 lineto
42100.3 32092.2 lineto
42156.5 31867.3 lineto
42156.5 31586.1 lineto
42100.3 31361.1 lineto
42044 31248.6 lineto
41987.8 31192.4 lineto
41875.3 31136.1 lineto
41762.8 31136.1 lineto
41650.3 31192.4 lineto
41594.1 31248.6 lineto
41537.8 31361.1 lineto
41481.6 31586.1 lineto
41481.6 31867.3 lineto
41537.8 32092.2 lineto
41594.1 32204.7 lineto
41650.3 32261 lineto
41762.8 32317.2 lineto
stroke
newpath
42662.7 31136.1 moveto
42662.7 31923.5 lineto
stroke
newpath
42662.7 31811 moveto
42718.9 31867.3 lineto
42831.4 31923.5 lineto
43000.1 31923.5 lineto
43112.6 31867.3 lineto
43168.9 31754.8 lineto
43168.9 31136.1 lineto
stroke
newpath
43168.9 31754.8 moveto
43225.1 31867.3 lineto
43337.6 31923.5 lineto
43506.3 31923.5 lineto
43618.8 31867.3 lineto
43675.1 31754.8 lineto
43675.1 31136.1 lineto
stroke
newpath
44237.5 31136.1 moveto
44237.5 31923.5 lineto
stroke
newpath
44237.5 31811 moveto
44293.7 31867.3 lineto
44406.2 31923.5 lineto
44574.9 31923.5 lineto
44687.4 31867.3 lineto
44743.7 31754.8 lineto
44743.7 31136.1 lineto
stroke
newpath
44743.7 31754.8 moveto
44799.9 31867.3 lineto
44912.4 31923.5 lineto
45081.1 31923.5 lineto
45193.6 31867.3 lineto
45249.9 31754.8 lineto
45249.9 31136.1 lineto
stroke
newpath
47555.8 32373.5 moveto
46543.5 30854.9 lineto
stroke
newpath
49074.4 32317.2 moveto
49186.9 32317.2 lineto
49299.4 32261 lineto
49355.6 32204.7 lineto
49411.8 32092.2 lineto
49468.1 31867.3 lineto
49468.1 31586.1 lineto
49411.8 31361.1 lineto
49355.6 31248.6 lineto
49299.4 31192.4 lineto
49186.9 31136.1 lineto
49074.4 31136.1 lineto
48961.9 31192.4 lineto
48905.7 31248.6 lineto
48849.4 31361.1 lineto
48793.2 31586.1 lineto
48793.2 31867.3 lineto
48849.4 32092.2 lineto
48905.7 32204.7 lineto
48961.9 32261 lineto
49074.4 32317.2 lineto
stroke
newpath
49974.3 31248.6 moveto
50030.5 31192.4 lineto
49974.3 31136.1 lineto
49918 31192.4 lineto
49974.3 31248.6 lineto
49974.3 31136.1 lineto
stroke
newpath
50761.7 32317.2 moveto
50874.2 32317.2 lineto
50986.6 32261 lineto
51042.9 32204.7 lineto
51099.1 32092.2 lineto
51155.4 31867.3 lineto
51155.4 31586.1 lineto
51099.1 31361.1 lineto
51042.9 31248.6 lineto
50986.6 31192.4 lineto
50874.2 31136.1 lineto
50761.7 31136.1 lineto
50649.2 31192.4 lineto
50592.9 31248.6 lineto
50536.7 31361.1 lineto
50480.5 31586.1 lineto
50480.5 31867.3 lineto
50536.7 32092.2 lineto
50592.9 32204.7 lineto
50649.2 32261 lineto
50761.7 32317.2 lineto
stroke
newpath
52224 32317.2 moveto
51661.6 32317.2 lineto
51605.3 31754.8 lineto
51661.6 31811 lineto
51774 31867.3 lineto
52055.3 31867.3 lineto
52167.8 31811 lineto
52224 31754.8 lineto
52280.2 31642.3 lineto
52280.2 31361.1 lineto
52224 31248.6 lineto
52167.8 31192.4 lineto
52055.3 31136.1 lineto
51774 31136.1 lineto
51661.6 31192.4 lineto
51605.3 31248.6 lineto
stroke
newpath
52842.7 31136.1 moveto
53067.6 31136.1 lineto
53180.1 31192.4 lineto
53236.4 31248.6 lineto
53348.9 31417.3 lineto
53405.1 31642.3 lineto
53405.1 32092.2 lineto
53348.9 32204.7 lineto
53292.6 32261 lineto
53180.1 32317.2 lineto
52955.2 32317.2 lineto
52842.7 32261 lineto
52786.4 32204.7 lineto
52730.2 32092.2 lineto
52730.2 31811 lineto
52786.4 31698.5 lineto
52842.7 31642.3 lineto
52955.2 31586.1 lineto
53180.1 31586.1 lineto
53292.6 31642.3 lineto
53348.9 31698.5 lineto
53405.1 31811 lineto
stroke
newpath
53855 32317.2 moveto
53855 32092.2 lineto
stroke
newpath
54305 32317.2 moveto
54305 32092.2 lineto
stroke
newpath
56048.5 30686.2 moveto
55992.3 30742.4 lineto
55879.8 30911.1 lineto
55823.5 31023.6 lineto
55767.3 31192.4 lineto
55711.1 31473.6 lineto
55711.1 31698.5 lineto
55767.3 31979.8 lineto
55823.5 32148.5 lineto
55879.8 32261 lineto
55992.3 32429.7 lineto
56048.5 32485.9 lineto
stroke
newpath
57117.1 31136.1 moveto
56442.2 31136.1 lineto
stroke
newpath
56779.7 31136.1 moveto
56779.7 32317.2 lineto
56667.2 32148.5 lineto
56554.7 32036 lineto
56442.2 31979.8 lineto
stroke
newpath
58523.2 31136.1 moveto
58523.2 32317.2 lineto
stroke
newpath
59029.4 31136.1 moveto
59029.4 31754.8 lineto
58973.2 31867.3 lineto
58860.7 31923.5 lineto
58691.9 31923.5 lineto
58579.4 31867.3 lineto
58523.2 31811 lineto
stroke
newpath
59760.6 31136.1 moveto
59648.1 31192.4 lineto
59591.8 31248.6 lineto
59535.6 31361.1 lineto
59535.6 31698.5 lineto
59591.8 31811 lineto
59648.1 31867.3 lineto
59760.6 31923.5 lineto
59929.3 31923.5 lineto
60041.8 31867.3 lineto
60098 31811 lineto
60154.3 31698.5 lineto
60154.3 31361.1 lineto
60098 31248.6 lineto
60041.8 31192.4 lineto
59929.3 31136.1 lineto
59760.6 31136.1 lineto
stroke
newpath
60829.2 31136.1 moveto
60716.7 31192.4 lineto
60660.4 31304.8 lineto
60660.4 32317.2 lineto
stroke
newpath
61729.1 31192.4 moveto
61616.6 31136.1 lineto
61391.6 31136.1 lineto
61279.1 31192.4 lineto
61222.9 31304.8 lineto
61222.9 31754.8 lineto
61279.1 31867.3 lineto
61391.6 31923.5 lineto
61616.6 31923.5 lineto
61729.1 31867.3 lineto
61785.3 31754.8 lineto
61785.3 31642.3 lineto
61222.9 31529.8 lineto
stroke
newpath
62179 30686.2 moveto
62235.2 30742.4 lineto
62347.7 30911.1 lineto
62404 31023.6 lineto
62460.2 31192.4 lineto
62516.5 31473.6 lineto
62516.5 31698.5 lineto
62460.2 31979.8 lineto
62404 32148.5 lineto
62347.7 32261 lineto
62235.2 32429.7 lineto
62179 32485.9 lineto
stroke
newpath
64316.2 30686.2 moveto
64260 30742.4 lineto
64147.5 30911.1 lineto
64091.3 31023.6 lineto
64035 31192.4 lineto
63978.8 31473.6 lineto
63978.8 31698.5 lineto
64035 31979.8 lineto
64091.3 32148.5 lineto
64147.5 32261 lineto
64260 32429.7 lineto
64316.2 32485.9 lineto
stroke
newpath
64766.2 31923.5 moveto
64766.2 31136.1 lineto
stroke
newpath
64766.2 31811 moveto
64822.4 31867.3 lineto
64934.9 31923.5 lineto
65103.6 31923.5 lineto
65216.1 31867.3 lineto
65272.4 31754.8 lineto
65272.4 31136.1 lineto
stroke
newpath
66003.5 31136.1 moveto
65891 31192.4 lineto
65834.8 31248.6 lineto
65778.6 31361.1 lineto
65778.6 31698.5 lineto
65834.8 31811 lineto
65891 31867.3 lineto
66003.5 31923.5 lineto
66172.3 31923.5 lineto
66284.7 31867.3 lineto
66341 31811 lineto
66397.2 31698.5 lineto
66397.2 31361.1 lineto
66341 31248.6 lineto
66284.7 31192.4 lineto
66172.3 31136.1 lineto
66003.5 31136.1 lineto
stroke
newpath
66734.7 31923.5 moveto
67184.6 31923.5 lineto
stroke
newpath
66903.4 32317.2 moveto
66903.4 31304.8 lineto
66959.7 31192.4 lineto
67072.1 31136.1 lineto
67184.6 31136.1 lineto
stroke
newpath
68478.2 31923.5 moveto
68478.2 30742.4 lineto
stroke
newpath
68478.2 31867.3 moveto
68590.7 31923.5 lineto
68815.7 31923.5 lineto
68928.2 31867.3 lineto
68984.4 31811 lineto
69040.6 31698.5 lineto
69040.6 31361.1 lineto
68984.4 31248.6 lineto
68928.2 31192.4 lineto
68815.7 31136.1 lineto
68590.7 31136.1 lineto
68478.2 31192.4 lineto
stroke
newpath
69715.6 31136.1 moveto
69603.1 31192.4 lineto
69546.8 31304.8 lineto
69546.8 32317.2 lineto
stroke
newpath
70671.7 31136.1 moveto
70671.7 31754.8 lineto
70615.4 31867.3 lineto
70503 31923.5 lineto
70278 31923.5 lineto
70165.5 31867.3 lineto
stroke
newpath
70671.7 31192.4 moveto
70559.2 31136.1 lineto
70278 31136.1 lineto
70165.5 31192.4 lineto
70109.3 31304.8 lineto
70109.3 31417.3 lineto
70165.5 31529.8 lineto
70278 31586.1 lineto
70559.2 31586.1 lineto
70671.7 31642.3 lineto
stroke
newpath
71065.4 31923.5 moveto
71515.3 31923.5 lineto
stroke
newpath
71234.1 32317.2 moveto
71234.1 31304.8 lineto
71290.4 31192.4 lineto
71402.8 31136.1 lineto
71515.3 31136.1 lineto
stroke
newpath
72359 31192.4 moveto
72246.5 31136.1 lineto
72021.5 31136.1 lineto
71909 31192.4 lineto
71852.8 31304.8 lineto
71852.8 31754.8 lineto
71909 31867.3 lineto
72021.5 31923.5 lineto
72246.5 31923.5 lineto
72359 31867.3 lineto
72415.2 31754.8 lineto
72415.2 31642.3 lineto
71852.8 31529.8 lineto
stroke
newpath
73427.6 31136.1 moveto
73427.6 32317.2 lineto
stroke
newpath
73427.6 31192.4 moveto
73315.1 31136.1 lineto
73090.1 31136.1 lineto
72977.7 31192.4 lineto
72921.4 31248.6 lineto
72865.2 31361.1 lineto
72865.2 31698.5 lineto
72921.4 31811 lineto
72977.7 31867.3 lineto
73090.1 31923.5 lineto
73315.1 31923.5 lineto
73427.6 31867.3 lineto
stroke
newpath
73877.5 30686.2 moveto
73933.8 30742.4 lineto
74046.3 30911.1 lineto
74102.5 31023.6 lineto
74158.8 31192.4 lineto
74215 31473.6 lineto
74215 31698.5 lineto
74158.8 31979.8 lineto
74102.5 32148.5 lineto
74046.3 32261 lineto
73933.8 32429.7 lineto
73877.5 32485.9 lineto
stroke
newpath
36913.3 30796.1 moveto
36913.3 29426.7 lineto
stroke
newpath
36228.6 30111.4 moveto
37598 30111.4 lineto
stroke
0 0 0 setrgbcolor
0 0 0 setrgbcolor
newpath
38613.2 30758.2 moveto
39344.4 30758.2 lineto
38950.7 30308.2 lineto
39119.4 30308.2 lineto
39231.9 30252 lineto
39288.1 30195.7 lineto
39344.4 30083.2 lineto
39344.4 29802 lineto
39288.1 29689.5 lineto
39231.9 29633.3 lineto
39119.4 29577.1 lineto
38781.9 29577.1 lineto
38669.4 29633.3 lineto
38613.2 29689.5 lineto
stroke
newpath
39850.5 29689.5 moveto
39906.8 29633.3 lineto
39850.5 29577.1 lineto
39794.3 29633.3 lineto
39850.5 29689.5 lineto
39850.5 29577.1 lineto
stroke
newpath
40356.7 30645.7 moveto
40413 30701.9 lineto
40525.5 30758.2 lineto
40806.7 30758.2 lineto
40919.2 30701.9 lineto
40975.4 30645.7 lineto
41031.6 30533.2 lineto
41031.6 30420.7 lineto
40975.4 30252 lineto
40300.5 29577.1 lineto
41031.6 29577.1 lineto
stroke
newpath
42100.3 30758.2 moveto
41537.8 30758.2 lineto
41481.6 30195.7 lineto
41537.8 30252 lineto
41650.3 30308.2 lineto
41931.5 30308.2 lineto
42044 30252 lineto
42100.3 30195.7 lineto
42156.5 30083.2 lineto
42156.5 29802 lineto
42100.3 29689.5 lineto
42044 29633.3 lineto
41931.5 29577.1 lineto
41650.3 29577.1 lineto
41537.8 29633.3 lineto
41481.6 29689.5 lineto
stroke
newpath
42662.7 29577.1 moveto
42662.7 30364.5 lineto
stroke
newpath
42662.7 30252 moveto
42718.9 30308.2 lineto
42831.4 30364.5 lineto
43000.1 30364.5 lineto
43112.6 30308.2 lineto
43168.9 30195.7 lineto
43168.9 29577.1 lineto
stroke
newpath
43168.9 30195.7 moveto
43225.1 30308.2 lineto
43337.6 30364.5 lineto
43506.3 30364.5 lineto
43618.8 30308.2 lineto
43675.1 30195.7 lineto
43675.1 29577.1 lineto
stroke
newpath
44237.5 29577.1 moveto
44237.5 30364.5 lineto
stroke
newpath
44237.5 30252 moveto
44293.7 30308.2 lineto
44406.2 30364.5 lineto
44574.9 30364.5 lineto
44687.4 30308.2 lineto
44743.7 30195.7 lineto
44743.7 29577.1 lineto
stroke
newpath
44743.7 30195.7 moveto
44799.9 30308.2 lineto
44912.4 30364.5 lineto
45081.1 30364.5 lineto
45193.6 30308.2 lineto
45249.9 30195.7 lineto
45249.9 29577.1 lineto
stroke
newpath
47555.8 30814.4 moveto
46543.5 29295.8 lineto
stroke
newpath
49074.4 30758.2 moveto
49186.9 30758.2 lineto
49299.4 30701.9 lineto
49355.6 30645.7 lineto
49411.8 30533.2 lineto
49468.1 30308.2 lineto
49468.1 30027 lineto
49411.8 29802 lineto
49355.6 29689.5 lineto
49299.4 29633.3 lineto
49186.9 29577.1 lineto
49074.4 29577.1 lineto
48961.9 29633.3 lineto
48905.7 29689.5 lineto
48849.4 29802 lineto
48793.2 30027 lineto
48793.2 30308.2 lineto
48849.4 30533.2 lineto
48905.7 30645.7 lineto
48961.9 30701.9 lineto
49074.4 30758.2 lineto
stroke
newpath
49974.3 29689.5 moveto
50030.5 29633.3 lineto
49974.3 29577.1 lineto
49918 29633.3 lineto
49974.3 29689.5 lineto
49974.3 29577.1 lineto
stroke
newpath
51155.4 29577.1 moveto
50480.5 29577.1 lineto
stroke
newpath
50817.9 29577.1 moveto
50817.9 30758.2 lineto
50705.4 30589.4 lineto
50592.9 30476.9 lineto
50480.5 30420.7 lineto
stroke
newpath
51605.3 30645.7 moveto
51661.6 30701.9 lineto
51774 30758.2 lineto
52055.3 30758.2 lineto
52167.8 30701.9 lineto
52224 30645.7 lineto
52280.2 30533.2 lineto
52280.2 30420.7 lineto
52224 30252 lineto
51549.1 29577.1 lineto
52280.2 29577.1 lineto
stroke
newpath
52955.2 30252 moveto
52842.7 30308.2 lineto
52786.4 30364.5 lineto
52730.2 30476.9 lineto
52730.2 30533.2 lineto
52786.4 30645.7 lineto
52842.7 30701.9 lineto
52955.2 30758.2 lineto
53180.1 30758.2 lineto
53292.6 30701.9 lineto
53348.9 30645.7 lineto
53405.1 30533.2 lineto
53405.1 30476.9 lineto
53348.9 30364.5 lineto
53292.6 30308.2 lineto
53180.1 30252 lineto
52955.2 30252 lineto
52842.7 30195.7 lineto
52786.4 30139.5 lineto
52730.2 30027 lineto
52730.2 29802 lineto
52786.4 29689.5 lineto
52842.7 29633.3 lineto
52955.2 29577.1 lineto
53180.1 29577.1 lineto
53292.6 29633.3 lineto
53348.9 29689.5 lineto
53405.1 29802 lineto
53405.1 30027 lineto
53348.9 30139.5 lineto
53292.6 30195.7 lineto
53180.1 30252 lineto
stroke
newpath
53855 30758.2 moveto
53855 30533.2 lineto
stroke
newpath
54305 30758.2 moveto
54305 30533.2 lineto
stroke
newpath
56048.5 29127.1 moveto
55992.3 29183.4 lineto
55879.8 29352.1 lineto
55823.5 29464.6 lineto
55767.3 29633.3 lineto
55711.1 29914.5 lineto
55711.1 30139.5 lineto
55767.3 30420.7 lineto
55823.5 30589.4 lineto
55879.8 30701.9 lineto
55992.3 30870.6 lineto
56048.5 30926.9 lineto
stroke
newpath
56442.2 30645.7 moveto
56498.5 30701.9 lineto
56610.9 30758.2 lineto
56892.2 30758.2 lineto
57004.6 30701.9 lineto
57060.9 30645.7 lineto
57117.1 30533.2 lineto
57117.1 30420.7 lineto
57060.9 30252 lineto
56386 29577.1 lineto
57117.1 29577.1 lineto
stroke
newpath
58523.2 29577.1 moveto
58523.2 30758.2 lineto
stroke
newpath
59029.4 29577.1 moveto
59029.4 30195.7 lineto
58973.2 30308.2 lineto
58860.7 30364.5 lineto
58691.9 30364.5 lineto
58579.4 30308.2 lineto
58523.2 30252 lineto
stroke
newpath
59760.6 29577.1 moveto
59648.1 29633.3 lineto
59591.8 29689.5 lineto
59535.6 29802 lineto
59535.6 30139.5 lineto
59591.8 30252 lineto
59648.1 30308.2 lineto
59760.6 30364.5 lineto
59929.3 30364.5 lineto
60041.8 30308.2 lineto
60098 30252 lineto
60154.3 30139.5 lineto
60154.3 29802 lineto
60098 29689.5 lineto
60041.8 29633.3 lineto
59929.3 29577.1 lineto
59760.6 29577.1 lineto
stroke
newpath
60829.2 29577.1 moveto
60716.7 29633.3 lineto
60660.4 29745.8 lineto
60660.4 30758.2 lineto
stroke
newpath
61729.1 29633.3 moveto
61616.6 29577.1 lineto
61391.6 29577.1 lineto
61279.1 29633.3 lineto
61222.9 29745.8 lineto
61222.9 30195.7 lineto
61279.1 30308.2 lineto
61391.6 30364.5 lineto
61616.6 30364.5 lineto
61729.1 30308.2 lineto
61785.3 30195.7 lineto
61785.3 30083.2 lineto
61222.9 29970.8 lineto
stroke
newpath
62235.2 29633.3 moveto
62347.7 29577.1 lineto
62572.7 29577.1 lineto
62685.2 29633.3 lineto
62741.4 29745.8 lineto
62741.4 29802 lineto
62685.2 29914.5 lineto
62572.7 29970.8 lineto
62404 29970.8 lineto
62291.5 30027 lineto
62235.2 30139.5 lineto
62235.2 30195.7 lineto
62291.5 30308.2 lineto
62404 30364.5 lineto
62572.7 30364.5 lineto
62685.2 30308.2 lineto
stroke
newpath
63135.1 29127.1 moveto
63191.4 29183.4 lineto
63303.9 29352.1 lineto
63360.1 29464.6 lineto
63416.3 29633.3 lineto
63472.6 29914.5 lineto
63472.6 30139.5 lineto
63416.3 30420.7 lineto
63360.1 30589.4 lineto
63303.9 30701.9 lineto
63191.4 30870.6 lineto
63135.1 30926.9 lineto
stroke
newpath
65272.4 29127.1 moveto
65216.1 29183.4 lineto
65103.6 29352.1 lineto
65047.4 29464.6 lineto
64991.1 29633.3 lineto
64934.9 29914.5 lineto
64934.9 30139.5 lineto
64991.1 30420.7 lineto
65047.4 30589.4 lineto
65103.6 30701.9 lineto
65216.1 30870.6 lineto
65272.4 30926.9 lineto
stroke
newpath
65722.3 30364.5 moveto
65722.3 29577.1 lineto
stroke
newpath
65722.3 30252 moveto
65778.6 30308.2 lineto
65891 30364.5 lineto
66059.8 30364.5 lineto
66172.3 30308.2 lineto
66228.5 30195.7 lineto
66228.5 29577.1 lineto
stroke
newpath
66959.7 29577.1 moveto
66847.2 29633.3 lineto
66790.9 29689.5 lineto
66734.7 29802 lineto
66734.7 30139.5 lineto
66790.9 30252 lineto
66847.2 30308.2 lineto
66959.7 30364.5 lineto
67128.4 30364.5 lineto
67240.9 30308.2 lineto
67297.1 30252 lineto
67353.4 30139.5 lineto
67353.4 29802 lineto
67297.1 29689.5 lineto
67240.9 29633.3 lineto
67128.4 29577.1 lineto
66959.7 29577.1 lineto
stroke
newpath
67690.8 30364.5 moveto
68140.8 30364.5 lineto
stroke
newpath
67859.5 30758.2 moveto
67859.5 29745.8 lineto
67915.8 29633.3 lineto
68028.3 29577.1 lineto
68140.8 29577.1 lineto
stroke
newpath
69434.3 30364.5 moveto
69434.3 29183.4 lineto
stroke
newpath
69434.3 30308.2 moveto
69546.8 30364.5 lineto
69771.8 30364.5 lineto
69884.3 30308.2 lineto
69940.5 30252 lineto
69996.8 30139.5 lineto
69996.8 29802 lineto
69940.5 29689.5 lineto
69884.3 29633.3 lineto
69771.8 29577.1 lineto
69546.8 29577.1 lineto
69434.3 29633.3 lineto
stroke
newpath
70671.7 29577.1 moveto
70559.2 29633.3 lineto
70503 29745.8 lineto
70503 30758.2 lineto
stroke
newpath
71627.8 29577.1 moveto
71627.8 30195.7 lineto
71571.6 30308.2 lineto
71459.1 30364.5 lineto
71234.1 30364.5 lineto
71121.6 30308.2 lineto
stroke
newpath
71627.8 29633.3 moveto
71515.3 29577.1 lineto
71234.1 29577.1 lineto
71121.6 29633.3 lineto
71065.4 29745.8 lineto
71065.4 29858.3 lineto
71121.6 29970.8 lineto
71234.1 30027 lineto
71515.3 30027 lineto
71627.8 30083.2 lineto
stroke
newpath
72021.5 30364.5 moveto
72471.5 30364.5 lineto
stroke
newpath
72190.2 30758.2 moveto
72190.2 29745.8 lineto
72246.5 29633.3 lineto
72359 29577.1 lineto
72471.5 29577.1 lineto
stroke
newpath
73315.1 29633.3 moveto
73202.6 29577.1 lineto
72977.7 29577.1 lineto
72865.2 29633.3 lineto
72808.9 29745.8 lineto
72808.9 30195.7 lineto
72865.2 30308.2 lineto
72977.7 30364.5 lineto
73202.6 30364.5 lineto
73315.1 30308.2 lineto
73371.4 30195.7 lineto
73371.4 30083.2 lineto
72808.9 29970.8 lineto
stroke
newpath
74383.7 29577.1 moveto
74383.7 30758.2 lineto
stroke
newpath
74383.7 29633.3 moveto
74271.2 29577.1 lineto
74046.3 29577.1 lineto
73933.8 29633.3 lineto
73877.5 29689.5 lineto
73821.3 29802 lineto
73821.3 30139.5 lineto
73877.5 30252 lineto
73933.8 30308.2 lineto
74046.3 30364.5 lineto
74271.2 30364.5 lineto
74383.7 30308.2 lineto
stroke
newpath
74833.7 29127.1 moveto
74889.9 29183.4 lineto
75002.4 29352.1 lineto
75058.6 29464.6 lineto
75114.9 29633.3 lineto
75171.1 29914.5 lineto
75171.1 30139.5 lineto
75114.9 30420.7 lineto
75058.6 30589.4 lineto
75002.4 30701.9 lineto
74889.9 30870.6 lineto
74833.7 30926.9 lineto
stroke
showpage
grestore
%%EOF
