%TF.GenerationSoftware,KiCad,Pcbnew,5.1.6-c6e7f7d~87~ubuntu18.04.1*%
%TF.CreationDate,2020-10-08T00:32:37-03:00*%
%TF.ProjectId,dimm_breakout,64696d6d-5f62-4726-9561-6b6f75742e6b,2020.10-01*%
%TF.SameCoordinates,Original*%
%TF.FileFunction,Soldermask,Bot*%
%TF.FilePolarity,Negative*%
%FSLAX46Y46*%
G04 Gerber Fmt 4.6, Leading zero omitted, Abs format (unit mm)*
G04 Created by KiCad (PCBNEW 5.1.6-c6e7f7d~87~ubuntu18.04.1) date 2020-10-08 00:32:37*
%MOMM*%
%LPD*%
G01*
G04 APERTURE LIST*
%ADD10R,1.600000X1.600000*%
%ADD11C,1.600000*%
%ADD12C,1.500000*%
%ADD13R,1.100000X1.100000*%
%ADD14O,1.100000X1.100000*%
%ADD15C,1.700000*%
%ADD16C,2.300000*%
%ADD17C,3.350000*%
%ADD18O,4.100000X1.900000*%
%ADD19O,1.900000X4.100000*%
%ADD20R,1.900000X4.500000*%
%ADD21O,1.800000X1.800000*%
%ADD22R,1.800000X1.800000*%
G04 APERTURE END LIST*
D10*
%TO.C,SW1*%
X174400000Y-117800000D03*
D11*
X174400000Y-120340000D03*
X174400000Y-122880000D03*
X179480000Y-117800000D03*
X179480000Y-120340000D03*
X179480000Y-122880000D03*
%TD*%
D12*
%TO.C,J12*%
X110600000Y-82000000D03*
D11*
X152000000Y-82000000D03*
D12*
X188600000Y-82000000D03*
%TD*%
D13*
%TO.C,J18*%
X196100000Y-110100000D03*
D14*
X194830000Y-110100000D03*
X196100000Y-108830000D03*
X194830000Y-108830000D03*
X196100000Y-107560000D03*
X194830000Y-107560000D03*
X196100000Y-106290000D03*
X194830000Y-106290000D03*
X196100000Y-105020000D03*
X194830000Y-105020000D03*
X196100000Y-103750000D03*
X194830000Y-103750000D03*
X196100000Y-102480000D03*
X194830000Y-102480000D03*
%TD*%
D15*
%TO.C,J15*%
X193250000Y-67180000D03*
X193250000Y-64640000D03*
X193250000Y-56460000D03*
D10*
X182000000Y-65000000D03*
D11*
X182000000Y-62460000D03*
X182000000Y-59920000D03*
X182000000Y-57380000D03*
X179460000Y-63730000D03*
X179460000Y-61190000D03*
X179460000Y-58650000D03*
X179460000Y-56110000D03*
D16*
X185300000Y-68300000D03*
D17*
X188350000Y-66270000D03*
X188350000Y-54840000D03*
D16*
X185300000Y-52810000D03*
D15*
X193250000Y-53920000D03*
%TD*%
D18*
%TO.C,J13*%
X187000000Y-35200000D03*
D19*
X189800000Y-40000000D03*
D20*
X184000000Y-40000000D03*
%TD*%
D21*
%TO.C,J23*%
X151220000Y-42400000D03*
X148680000Y-42400000D03*
X146140000Y-42400000D03*
D22*
X143600000Y-42400000D03*
%TD*%
D21*
%TO.C,J22*%
X160120000Y-102670000D03*
X160120000Y-100130000D03*
X160120000Y-97590000D03*
D22*
X160120000Y-95050000D03*
%TD*%
D21*
%TO.C,J21*%
X155470000Y-102670000D03*
X155470000Y-100130000D03*
X155470000Y-97590000D03*
D22*
X155470000Y-95050000D03*
%TD*%
D21*
%TO.C,J20*%
X151220000Y-36600000D03*
X148680000Y-36600000D03*
X146140000Y-36600000D03*
X143600000Y-36600000D03*
X141060000Y-36600000D03*
D22*
X138520000Y-36600000D03*
%TD*%
D21*
%TO.C,JP1*%
X158860000Y-36200000D03*
D22*
X161400000Y-36200000D03*
%TD*%
D21*
%TO.C,J10*%
X141940000Y-115320000D03*
X139400000Y-115320000D03*
X141940000Y-112780000D03*
X139400000Y-112780000D03*
X141940000Y-110240000D03*
X139400000Y-110240000D03*
X141940000Y-107700000D03*
X139400000Y-107700000D03*
X141940000Y-105160000D03*
X139400000Y-105160000D03*
X141940000Y-102620000D03*
X139400000Y-102620000D03*
X141940000Y-100080000D03*
X139400000Y-100080000D03*
X141940000Y-97540000D03*
X139400000Y-97540000D03*
X141940000Y-95000000D03*
D22*
X139400000Y-95000000D03*
%TD*%
D21*
%TO.C,J11*%
X147180000Y-125460000D03*
X147180000Y-128000000D03*
X144640000Y-125460000D03*
X144640000Y-128000000D03*
X142100000Y-125460000D03*
X142100000Y-128000000D03*
X139560000Y-125460000D03*
X139560000Y-128000000D03*
X137020000Y-125460000D03*
X137020000Y-128000000D03*
X134480000Y-125460000D03*
X134480000Y-128000000D03*
X131940000Y-125460000D03*
X131940000Y-128000000D03*
X129400000Y-125460000D03*
X129400000Y-128000000D03*
X126860000Y-125460000D03*
X126860000Y-128000000D03*
X124320000Y-125460000D03*
X124320000Y-128000000D03*
X121780000Y-125460000D03*
X121780000Y-128000000D03*
X119240000Y-125460000D03*
X119240000Y-128000000D03*
X116700000Y-125460000D03*
X116700000Y-128000000D03*
X114160000Y-125460000D03*
X114160000Y-128000000D03*
X111620000Y-125460000D03*
X111620000Y-128000000D03*
X109080000Y-125460000D03*
X109080000Y-128000000D03*
X106540000Y-125460000D03*
X106540000Y-128000000D03*
X104000000Y-125460000D03*
D22*
X104000000Y-128000000D03*
%TD*%
D21*
%TO.C,J9*%
X128540000Y-51700000D03*
X126000000Y-51700000D03*
X128540000Y-49160000D03*
X126000000Y-49160000D03*
X128540000Y-46620000D03*
X126000000Y-46620000D03*
X128540000Y-44080000D03*
X126000000Y-44080000D03*
X128540000Y-41540000D03*
X126000000Y-41540000D03*
X128540000Y-39000000D03*
D22*
X126000000Y-39000000D03*
%TD*%
D21*
%TO.C,J8*%
X128540000Y-72700000D03*
X126000000Y-72700000D03*
X128540000Y-70160000D03*
X126000000Y-70160000D03*
X128540000Y-67620000D03*
X126000000Y-67620000D03*
X128540000Y-65080000D03*
X126000000Y-65080000D03*
X128540000Y-62540000D03*
X126000000Y-62540000D03*
X128540000Y-60000000D03*
D22*
X126000000Y-60000000D03*
%TD*%
D21*
%TO.C,J7*%
X128540000Y-107700000D03*
X126000000Y-107700000D03*
X128540000Y-105160000D03*
X126000000Y-105160000D03*
X128540000Y-102620000D03*
X126000000Y-102620000D03*
X128540000Y-100080000D03*
X126000000Y-100080000D03*
X128540000Y-97540000D03*
X126000000Y-97540000D03*
X128540000Y-95000000D03*
D22*
X126000000Y-95000000D03*
%TD*%
D21*
%TO.C,J6*%
X119540000Y-51700000D03*
X117000000Y-51700000D03*
X119540000Y-49160000D03*
X117000000Y-49160000D03*
X119540000Y-46620000D03*
X117000000Y-46620000D03*
X119540000Y-44080000D03*
X117000000Y-44080000D03*
X119540000Y-41540000D03*
X117000000Y-41540000D03*
X119540000Y-39000000D03*
D22*
X117000000Y-39000000D03*
%TD*%
D21*
%TO.C,J5*%
X119540000Y-72600000D03*
X117000000Y-72600000D03*
X119540000Y-70060000D03*
X117000000Y-70060000D03*
X119540000Y-67520000D03*
X117000000Y-67520000D03*
X119540000Y-64980000D03*
X117000000Y-64980000D03*
X119540000Y-62440000D03*
X117000000Y-62440000D03*
X119540000Y-59900000D03*
D22*
X117000000Y-59900000D03*
%TD*%
D21*
%TO.C,J4*%
X119540000Y-107700000D03*
X117000000Y-107700000D03*
X119540000Y-105160000D03*
X117000000Y-105160000D03*
X119540000Y-102620000D03*
X117000000Y-102620000D03*
X119540000Y-100080000D03*
X117000000Y-100080000D03*
X119540000Y-97540000D03*
X117000000Y-97540000D03*
X119540000Y-95000000D03*
D22*
X117000000Y-95000000D03*
%TD*%
D21*
%TO.C,J3*%
X110540000Y-51700000D03*
X108000000Y-51700000D03*
X110540000Y-49160000D03*
X108000000Y-49160000D03*
X110540000Y-46620000D03*
X108000000Y-46620000D03*
X110540000Y-44080000D03*
X108000000Y-44080000D03*
X110540000Y-41540000D03*
X108000000Y-41540000D03*
X110540000Y-39000000D03*
D22*
X108000000Y-39000000D03*
%TD*%
D21*
%TO.C,J2*%
X110540000Y-72700000D03*
X108000000Y-72700000D03*
X110540000Y-70160000D03*
X108000000Y-70160000D03*
X110540000Y-67620000D03*
X108000000Y-67620000D03*
X110540000Y-65080000D03*
X108000000Y-65080000D03*
X110540000Y-62540000D03*
X108000000Y-62540000D03*
X110540000Y-60000000D03*
D22*
X108000000Y-60000000D03*
%TD*%
D21*
%TO.C,J1*%
X110540000Y-107700000D03*
X108000000Y-107700000D03*
X110540000Y-105160000D03*
X108000000Y-105160000D03*
X110540000Y-102620000D03*
X108000000Y-102620000D03*
X110540000Y-100080000D03*
X108000000Y-100080000D03*
X110540000Y-97540000D03*
X108000000Y-97540000D03*
X110540000Y-95000000D03*
D22*
X108000000Y-95000000D03*
%TD*%
D21*
%TO.C,J24*%
X161380000Y-64060000D03*
X161380000Y-66600000D03*
X158840000Y-64060000D03*
X158840000Y-66600000D03*
X156300000Y-64060000D03*
X156300000Y-66600000D03*
X153760000Y-64060000D03*
X153760000Y-66600000D03*
X151220000Y-64060000D03*
X151220000Y-66600000D03*
X148680000Y-64060000D03*
X148680000Y-66600000D03*
X146140000Y-64060000D03*
X146140000Y-66600000D03*
X143600000Y-64060000D03*
D22*
X143600000Y-66600000D03*
%TD*%
D21*
%TO.C,J19*%
X196900000Y-129900000D03*
X196900000Y-127360000D03*
X196900000Y-124820000D03*
X196900000Y-122280000D03*
X196900000Y-119740000D03*
D22*
X196900000Y-117200000D03*
%TD*%
D21*
%TO.C,J17*%
X150000000Y-54500000D03*
X147460000Y-54500000D03*
X144920000Y-54500000D03*
X142380000Y-54500000D03*
X139840000Y-54500000D03*
D22*
X137300000Y-54500000D03*
%TD*%
D21*
%TO.C,J16*%
X160100000Y-122600000D03*
X160100000Y-120060000D03*
X160100000Y-117520000D03*
X160100000Y-114980000D03*
X160100000Y-112440000D03*
D22*
X160100000Y-109900000D03*
%TD*%
M02*
