EESchema Schematic File Version 4
EELAYER 30 0
EELAYER END
$Descr A3 11693 16535 portrait
encoding utf-8
Sheet 3 4
Title "mini-DIMM Breakout Board"
Date "2020-10-06"
Rev "2020.10-01"
Comp ""
Comment1 "This project is a hardware support for OpenIPMC-HW development"
Comment2 ""
Comment3 ""
Comment4 ""
$EndDescr
$Comp
L dimm_breakout:CERN_IPMC_CONN J12
U 1 1 5F6A06FA
P 4850 1800
F 0 "J12" H 6000 2090 60  0000 C CNN
F 1 "CERN_IPMC_CONN" H 6000 1984 60  0000 C CNN
F 2 "dimm_breakout:Molex_87782-3003" H 5050 1850 60  0001 L CNN
F 3 "" H 5050 1650 60  0001 L CNN
F 4 "Molex" H 4850 1800 50  0001 C CNN "manf"
F 5 "87782-3003" H 4850 1800 50  0001 C CNN "manf#"
	1    4850 1800
	1    0    0    -1  
$EndComp
Wire Wire Line
	4850 1900 4000 1900
Wire Wire Line
	4000 2000 4850 2000
Wire Wire Line
	4000 2100 4850 2100
Wire Wire Line
	4000 2200 4850 2200
Wire Wire Line
	4000 2300 4850 2300
Wire Wire Line
	4000 2400 4850 2400
Wire Wire Line
	4000 2500 4850 2500
Wire Wire Line
	4000 2600 4850 2600
Wire Wire Line
	4000 2700 4850 2700
Wire Wire Line
	4000 2800 4850 2800
Wire Wire Line
	4000 3000 4850 3000
Wire Wire Line
	4000 3100 4850 3100
Wire Wire Line
	4000 3200 4850 3200
Wire Wire Line
	4000 3300 4850 3300
Wire Wire Line
	4000 3400 4850 3400
Wire Wire Line
	4000 3500 4850 3500
Wire Wire Line
	4000 3600 4850 3600
Wire Wire Line
	4000 3700 4850 3700
Wire Wire Line
	4000 3800 4850 3800
Wire Wire Line
	4000 3900 4850 3900
Wire Wire Line
	4000 5200 4850 5200
Wire Wire Line
	4000 5300 4850 5300
Wire Wire Line
	4000 5400 4850 5400
Wire Wire Line
	4000 5500 4850 5500
Wire Wire Line
	4000 5600 4850 5600
Wire Wire Line
	4000 5700 4850 5700
Wire Wire Line
	4000 5800 4850 5800
Wire Wire Line
	4000 5900 4850 5900
Wire Wire Line
	4000 6000 4850 6000
Wire Wire Line
	4000 6100 4850 6100
Wire Wire Line
	4000 6300 4850 6300
Wire Wire Line
	4000 6400 4850 6400
Wire Wire Line
	4000 6500 4850 6500
Wire Wire Line
	4000 6600 4850 6600
Wire Wire Line
	4000 6700 4850 6700
Wire Wire Line
	4000 6800 4850 6800
Wire Wire Line
	4000 6900 4850 6900
Wire Wire Line
	4000 7000 4850 7000
Wire Wire Line
	4000 7100 4850 7100
Wire Wire Line
	4000 7200 4850 7200
Text Label 4000 1900 0    50   ~ 0
AMC0_IO_0
Text Label 4000 2000 0    50   ~ 0
AMC0_IO_1
Text Label 4000 2100 0    50   ~ 0
AMC0_IO_2
Text Label 4000 2200 0    50   ~ 0
AMC0_IO_3
Text Label 4000 2300 0    50   ~ 0
AMC0_IO_4
Text Label 4000 2400 0    50   ~ 0
AMC0_IO_5
Text Label 4000 2500 0    50   ~ 0
AMC0_IO_6
Text Label 4000 2600 0    50   ~ 0
AMC0_IO_7
Text Label 4000 2700 0    50   ~ 0
AMC0_IO_8
Text Label 4000 2800 0    50   ~ 0
AMC0_IO_9
Text Label 4000 3000 0    50   ~ 0
AMC2_IO_0
Text Label 4000 3100 0    50   ~ 0
AMC2_IO_1
Text Label 4000 3200 0    50   ~ 0
AMC2_IO_2
Text Label 4000 3300 0    50   ~ 0
AMC2_IO_3
Text Label 4000 3400 0    50   ~ 0
AMC2_IO_4
Text Label 4000 3500 0    50   ~ 0
AMC2_IO_5
Text Label 4000 3600 0    50   ~ 0
AMC2_IO_6
Text Label 4000 3700 0    50   ~ 0
AMC2_IO_7
Text Label 4000 3800 0    50   ~ 0
AMC2_IO_8
Text Label 4000 3900 0    50   ~ 0
AMC2_IO_9
Text Label 4000 5200 0    50   ~ 0
AMC6_IO_0
Text Label 4000 5300 0    50   ~ 0
AMC6_IO_1
Text Label 4000 5400 0    50   ~ 0
AMC6_IO_2
Text Label 4000 5500 0    50   ~ 0
AMC6_IO_3
Text Label 4000 5600 0    50   ~ 0
AMC6_IO_4
Text Label 4000 5700 0    50   ~ 0
AMC6_IO_5
Text Label 4000 5800 0    50   ~ 0
AMC6_IO_6
Text Label 4000 5900 0    50   ~ 0
AMC6_IO_7
Text Label 4000 6000 0    50   ~ 0
AMC6_IO_8
Text Label 4000 6100 0    50   ~ 0
AMC6_IO_9
Text Label 4000 6300 0    50   ~ 0
AMC8_IO_0
Text Label 4000 6400 0    50   ~ 0
AMC8_IO_1
Text Label 4000 6500 0    50   ~ 0
AMC8_IO_2
Text Label 4000 6600 0    50   ~ 0
AMC8_IO_3
Text Label 4000 6700 0    50   ~ 0
AMC8_IO_4
Text Label 4000 6800 0    50   ~ 0
AMC8_IO_5
Text Label 4000 6900 0    50   ~ 0
AMC8_IO_6
Text Label 4000 7000 0    50   ~ 0
AMC8_IO_7
Text Label 4000 7100 0    50   ~ 0
AMC8_IO_8
Text Label 4000 7200 0    50   ~ 0
AMC8_IO_9
Text Label 4000 4100 0    50   ~ 0
AMC4_IO_0
Text Label 4000 4200 0    50   ~ 0
AMC4_IO_1
Text Label 4000 4300 0    50   ~ 0
AMC4_IO_2
Text Label 4000 4400 0    50   ~ 0
AMC4_IO_3
Text Label 4000 4500 0    50   ~ 0
AMC4_IO_4
Text Label 4000 4600 0    50   ~ 0
AMC4_IO_5
Text Label 4000 4700 0    50   ~ 0
AMC4_IO_6
Text Label 4000 4800 0    50   ~ 0
AMC4_IO_7
Text Label 4000 4900 0    50   ~ 0
AMC4_IO_8
Text Label 4000 5000 0    50   ~ 0
AMC4_IO_9
Wire Wire Line
	4000 4100 4850 4100
Wire Wire Line
	4000 4200 4850 4200
Wire Wire Line
	4000 4300 4850 4300
Wire Wire Line
	4000 4400 4850 4400
Wire Wire Line
	4000 4500 4850 4500
Wire Wire Line
	4000 4600 4850 4600
Wire Wire Line
	4000 4700 4850 4700
Wire Wire Line
	4000 4800 4850 4800
Wire Wire Line
	4000 4900 4850 4900
Wire Wire Line
	4000 5000 4850 5000
Text HLabel 3480 1900 0    50   BiDi ~ 0
AMC0_IO_[0..9]
Wire Bus Line
	3480 1900 3930 1900
Text HLabel 3480 3000 0    50   BiDi ~ 0
AMC2_IO_[0..9]
Wire Bus Line
	3480 3000 3930 3000
Text HLabel 3480 4100 0    50   BiDi ~ 0
AMC4_IO_[0..9]
Wire Bus Line
	3480 4100 3930 4100
Text HLabel 3480 5200 0    50   BiDi ~ 0
AMC6_IO_[0..9]
Wire Bus Line
	3480 5200 3930 5200
Text Label 4000 8000 0    50   ~ 0
IPM_0
Text Label 4000 8100 0    50   ~ 0
IPM_1
Text Label 4000 8300 0    50   ~ 0
IPM_4
Text Label 4000 8400 0    50   ~ 0
IPM_5
Text Label 4000 8600 0    50   ~ 0
IPM_8
Text Label 4000 8700 0    50   ~ 0
IPM_9
Text Label 4000 8900 0    50   ~ 0
IPM_12
Text Label 4000 9000 0    50   ~ 0
IPM_13
Wire Wire Line
	4000 8000 4850 8000
Wire Wire Line
	4850 8100 4000 8100
Wire Wire Line
	4850 8300 4000 8300
Wire Wire Line
	4850 8400 4000 8400
Wire Wire Line
	4850 8600 4000 8600
Wire Wire Line
	4850 8700 4000 8700
Wire Wire Line
	4850 8900 4000 8900
Wire Wire Line
	4850 9000 4000 9000
Text Label 4000 9500 0    50   ~ 0
USR_IO_4
Text Label 4000 9600 0    50   ~ 0
USR_IO_5
Text Label 4000 9800 0    50   ~ 0
USR_IO_8
Text Label 4000 9900 0    50   ~ 0
USR_IO_9
Text Label 4000 10100 0    50   ~ 0
USR_IO_12
Text Label 4000 10200 0    50   ~ 0
USR_IO_13
Text Label 4000 10400 0    50   ~ 0
USR_IO_16
Text Label 4000 10500 0    50   ~ 0
USR_IO_17
Text Label 4000 10700 0    50   ~ 0
USR_IO_20
Text Label 4000 10800 0    50   ~ 0
USR_IO_22
Text Label 4000 10900 0    50   ~ 0
USR_IO_24
Text Label 4000 11000 0    50   ~ 0
USR_IO_26
Text Label 4000 11100 0    50   ~ 0
USR_IO_28
Text Label 4000 11200 0    50   ~ 0
USR_IO_30
Text Label 4000 11300 0    50   ~ 0
USR_IO_32
Text Label 4000 11500 0    50   ~ 0
USR_IO_34
Wire Wire Line
	4000 9200 4850 9200
Wire Wire Line
	4000 9300 4850 9300
Wire Wire Line
	4000 9500 4850 9500
Wire Wire Line
	4000 9600 4850 9600
Wire Wire Line
	4000 9800 4850 9800
Wire Wire Line
	4000 9900 4850 9900
Wire Wire Line
	4000 10100 4850 10100
Wire Wire Line
	4000 10200 4850 10200
Wire Wire Line
	4000 10400 4850 10400
Wire Wire Line
	4000 10500 4850 10500
Wire Wire Line
	4000 10700 4850 10700
Wire Wire Line
	4000 10800 4850 10800
Wire Wire Line
	4000 10900 4850 10900
Wire Wire Line
	4000 11000 4850 11000
Wire Wire Line
	4000 11100 4850 11100
Wire Wire Line
	4000 11200 4850 11200
Wire Wire Line
	4000 11300 4850 11300
Wire Wire Line
	4000 11500 4850 11500
Text Label 4000 9200 0    50   ~ 0
USR_IO_0
Text Label 4000 9300 0    50   ~ 0
USR_IO_1
Text HLabel 4000 13700 0    50   BiDi ~ 0
ATCA_Z1_IPMB_A_SCL
Text HLabel 4000 13800 0    50   BiDi ~ 0
ATCA_Z1_IPMB_A_SDA
Wire Wire Line
	4000 13700 4850 13700
Wire Wire Line
	4000 13800 4850 13800
Text Label 4000 11500 0    50   ~ 0
USR_IO_34
Wire Wire Line
	4850 12000 4000 12000
Wire Wire Line
	4850 12100 4000 12100
Wire Wire Line
	4850 12200 4000 12200
Wire Wire Line
	4850 12300 4000 12300
Wire Wire Line
	4850 12500 4000 12500
Wire Wire Line
	4850 12600 4000 12600
Wire Wire Line
	4850 12700 4000 12700
Wire Wire Line
	4850 12900 4000 12900
Wire Wire Line
	4850 13000 4000 13000
Wire Wire Line
	4850 13200 4000 13200
Wire Wire Line
	4850 13300 4000 13300
Wire Wire Line
	4850 13400 4000 13400
Wire Wire Line
	4850 13500 4000 13500
Text Label 4000 13200 0    50   ~ 0
ATCA_Z1_HA_0
Text Label 4000 13300 0    50   ~ 0
ATCA_Z1_HA_2
Text Label 4000 13400 0    50   ~ 0
ATCA_Z1_HA_4
Text Label 4000 13500 0    50   ~ 0
ATCA_Z1_HA_6
Text Label 4000 12200 0    50   ~ 0
FP_LED_1
Text Label 4000 12300 0    50   ~ 0
FP_LED_2
Text HLabel 4000 12000 0    50   Output ~ 0
FP_BLUE_LED
Text Label 4000 12100 0    50   ~ 0
FP_LED_0
Wire Wire Line
	4850 11600 4000 11600
Wire Wire Line
	4850 11700 4000 11700
Wire Wire Line
	4850 11800 4000 11800
Text HLabel 4000 11600 0    50   Input ~ 0
USB_VBUS
Text HLabel 4000 11700 0    50   BiDi ~ 0
USB_DP
Text HLabel 4000 11800 0    50   BiDi ~ 0
USB_DN
Text HLabel 4000 12500 0    50   Output ~ 0
PYLD_TRST
Text HLabel 4000 12600 0    50   Input ~ 0
PYLD_TDO
Text HLabel 4000 12700 0    50   Output ~ 0
PYLD_TMS
Text HLabel 4000 12900 0    50   Output ~ 0
MCU_JTDO-SWO
Text HLabel 4000 13000 0    50   Input ~ 0
MCU_JTMS-SWDIO
$Comp
L power:GND #PWR073
U 1 1 5F72718B
P 4850 13900
F 0 "#PWR073" H 4850 13650 50  0001 C CNN
F 1 "GND" V 4855 13772 50  0000 R CNN
F 2 "" H 4850 13900 50  0001 C CNN
F 3 "" H 4850 13900 50  0001 C CNN
	1    4850 13900
	0    1    1    0   
$EndComp
$Comp
L power:GND #PWR071
U 1 1 5F72969C
P 4850 13600
F 0 "#PWR071" H 4850 13350 50  0001 C CNN
F 1 "GND" V 4855 13472 50  0000 R CNN
F 2 "" H 4850 13600 50  0001 C CNN
F 3 "" H 4850 13600 50  0001 C CNN
	1    4850 13600
	0    1    1    0   
$EndComp
$Comp
L power:GND #PWR069
U 1 1 5F72B0D8
P 4850 13100
F 0 "#PWR069" H 4850 12850 50  0001 C CNN
F 1 "GND" V 4855 12972 50  0000 R CNN
F 2 "" H 4850 13100 50  0001 C CNN
F 3 "" H 4850 13100 50  0001 C CNN
	1    4850 13100
	0    1    1    0   
$EndComp
$Comp
L power:GND #PWR067
U 1 1 5F72B54D
P 4850 12800
F 0 "#PWR067" H 4850 12550 50  0001 C CNN
F 1 "GND" V 4855 12672 50  0000 R CNN
F 2 "" H 4850 12800 50  0001 C CNN
F 3 "" H 4850 12800 50  0001 C CNN
	1    4850 12800
	0    1    1    0   
$EndComp
$Comp
L power:GND #PWR065
U 1 1 5F72E07A
P 4850 12400
F 0 "#PWR065" H 4850 12150 50  0001 C CNN
F 1 "GND" V 4855 12272 50  0000 R CNN
F 2 "" H 4850 12400 50  0001 C CNN
F 3 "" H 4850 12400 50  0001 C CNN
	1    4850 12400
	0    1    1    0   
$EndComp
$Comp
L power:GND #PWR064
U 1 1 5F72E6FD
P 4850 11900
F 0 "#PWR064" H 4850 11650 50  0001 C CNN
F 1 "GND" V 4855 11772 50  0000 R CNN
F 2 "" H 4850 11900 50  0001 C CNN
F 3 "" H 4850 11900 50  0001 C CNN
	1    4850 11900
	0    1    1    0   
$EndComp
$Comp
L power:GND #PWR061
U 1 1 5F72FF43
P 4850 11400
F 0 "#PWR061" H 4850 11150 50  0001 C CNN
F 1 "GND" V 4855 11272 50  0000 R CNN
F 2 "" H 4850 11400 50  0001 C CNN
F 3 "" H 4850 11400 50  0001 C CNN
	1    4850 11400
	0    1    1    0   
$EndComp
$Comp
L power:GND #PWR059
U 1 1 5F7318B6
P 4850 10600
F 0 "#PWR059" H 4850 10350 50  0001 C CNN
F 1 "GND" V 4855 10472 50  0000 R CNN
F 2 "" H 4850 10600 50  0001 C CNN
F 3 "" H 4850 10600 50  0001 C CNN
	1    4850 10600
	0    1    1    0   
$EndComp
$Comp
L power:GND #PWR020
U 1 1 5F732FD3
P 4850 7900
F 0 "#PWR020" H 4850 7650 50  0001 C CNN
F 1 "GND" V 4855 7772 50  0000 R CNN
F 2 "" H 4850 7900 50  0001 C CNN
F 3 "" H 4850 7900 50  0001 C CNN
	1    4850 7900
	0    1    1    0   
$EndComp
$Comp
L power:GND #PWR018
U 1 1 5F736A59
P 4850 7600
F 0 "#PWR018" H 4850 7350 50  0001 C CNN
F 1 "GND" V 4855 7472 50  0000 R CNN
F 2 "" H 4850 7600 50  0001 C CNN
F 3 "" H 4850 7600 50  0001 C CNN
	1    4850 7600
	0    1    1    0   
$EndComp
$Comp
L power:GND #PWR016
U 1 1 5F736EE1
P 4850 7300
F 0 "#PWR016" H 4850 7050 50  0001 C CNN
F 1 "GND" V 4855 7172 50  0000 R CNN
F 2 "" H 4850 7300 50  0001 C CNN
F 3 "" H 4850 7300 50  0001 C CNN
	1    4850 7300
	0    1    1    0   
$EndComp
$Comp
L power:GND #PWR011
U 1 1 5F737BD8
P 4850 6200
F 0 "#PWR011" H 4850 5950 50  0001 C CNN
F 1 "GND" V 4855 6072 50  0000 R CNN
F 2 "" H 4850 6200 50  0001 C CNN
F 3 "" H 4850 6200 50  0001 C CNN
	1    4850 6200
	0    1    1    0   
$EndComp
$Comp
L power:GND #PWR08
U 1 1 5F738CD4
P 4850 5100
F 0 "#PWR08" H 4850 4850 50  0001 C CNN
F 1 "GND" V 4855 4972 50  0000 R CNN
F 2 "" H 4850 5100 50  0001 C CNN
F 3 "" H 4850 5100 50  0001 C CNN
	1    4850 5100
	0    1    1    0   
$EndComp
$Comp
L power:GND #PWR06
U 1 1 5F7391B0
P 4850 4000
F 0 "#PWR06" H 4850 3750 50  0001 C CNN
F 1 "GND" V 4855 3872 50  0000 R CNN
F 2 "" H 4850 4000 50  0001 C CNN
F 3 "" H 4850 4000 50  0001 C CNN
	1    4850 4000
	0    1    1    0   
$EndComp
$Comp
L power:GND #PWR04
U 1 1 5F73AB94
P 4850 2900
F 0 "#PWR04" H 4850 2650 50  0001 C CNN
F 1 "GND" V 4855 2772 50  0000 R CNN
F 2 "" H 4850 2900 50  0001 C CNN
F 3 "" H 4850 2900 50  0001 C CNN
	1    4850 2900
	0    1    1    0   
$EndComp
$Comp
L power:GND #PWR02
U 1 1 5F73C294
P 4850 1800
F 0 "#PWR02" H 4850 1550 50  0001 C CNN
F 1 "GND" V 4855 1672 50  0000 R CNN
F 2 "" H 4850 1800 50  0001 C CNN
F 3 "" H 4850 1800 50  0001 C CNN
	1    4850 1800
	0    1    1    0   
$EndComp
Wire Wire Line
	8000 1900 7150 1900
Wire Wire Line
	7150 2000 8000 2000
Wire Wire Line
	7150 2100 8000 2100
Wire Wire Line
	7150 2200 8000 2200
Wire Wire Line
	7150 2300 8000 2300
Wire Wire Line
	7150 2400 8000 2400
Wire Wire Line
	7150 2500 8000 2500
Wire Wire Line
	7150 2600 8000 2600
Wire Wire Line
	7150 2700 8000 2700
Wire Wire Line
	7150 2800 8000 2800
Wire Wire Line
	7150 3000 8000 3000
Wire Wire Line
	7150 3100 8000 3100
Wire Wire Line
	7150 3200 8000 3200
Wire Wire Line
	7150 3300 8000 3300
Wire Wire Line
	7150 3400 8000 3400
Wire Wire Line
	7150 3500 8000 3500
Wire Wire Line
	7150 3600 8000 3600
Wire Wire Line
	7150 3700 8000 3700
Wire Wire Line
	7150 3800 8000 3800
Wire Wire Line
	7150 3900 8000 3900
Wire Wire Line
	7150 4100 8000 4100
Wire Wire Line
	7150 4200 8000 4200
Wire Wire Line
	7150 4300 8000 4300
Wire Wire Line
	7150 4400 8000 4400
Wire Wire Line
	7150 4500 8000 4500
Wire Wire Line
	7150 4600 8000 4600
Wire Wire Line
	7150 4700 8000 4700
Wire Wire Line
	7150 4800 8000 4800
Wire Wire Line
	7150 4900 8000 4900
Wire Wire Line
	7150 5000 8000 5000
Wire Wire Line
	7150 5200 8000 5200
Wire Wire Line
	7150 5300 8000 5300
Wire Wire Line
	7150 5400 8000 5400
Wire Wire Line
	7150 5500 8000 5500
Wire Wire Line
	7150 5600 8000 5600
Wire Wire Line
	7150 5700 8000 5700
Wire Wire Line
	7150 5800 8000 5800
Wire Wire Line
	7150 5900 8000 5900
Wire Wire Line
	7150 6000 8000 6000
Wire Wire Line
	7150 6100 8000 6100
Text Label 8000 1900 2    50   ~ 0
AMC1_IO_0
Text Label 8000 2000 2    50   ~ 0
AMC1_IO_1
Text Label 8000 2100 2    50   ~ 0
AMC1_IO_2
Text Label 8000 2200 2    50   ~ 0
AMC1_IO_3
Text Label 8000 2300 2    50   ~ 0
AMC1_IO_4
Text Label 8000 2400 2    50   ~ 0
AMC1_IO_5
Text Label 8000 2500 2    50   ~ 0
AMC1_IO_6
Text Label 8000 2600 2    50   ~ 0
AMC1_IO_7
Text Label 8000 2700 2    50   ~ 0
AMC1_IO_8
Text Label 8000 2800 2    50   ~ 0
AMC1_IO_9
Text Label 8000 3000 2    50   ~ 0
AMC3_IO_0
Text Label 8000 3100 2    50   ~ 0
AMC3_IO_1
Text Label 8000 3200 2    50   ~ 0
AMC3_IO_2
Text Label 8000 3300 2    50   ~ 0
AMC3_IO_3
Text Label 8000 3400 2    50   ~ 0
AMC3_IO_4
Text Label 8000 3500 2    50   ~ 0
AMC3_IO_5
Text Label 8000 3600 2    50   ~ 0
AMC3_IO_6
Text Label 8000 3700 2    50   ~ 0
AMC3_IO_7
Text Label 8000 3800 2    50   ~ 0
AMC3_IO_8
Text Label 8000 3900 2    50   ~ 0
AMC3_IO_9
Text Label 8000 4100 2    50   ~ 0
AMC5_IO_0
Text Label 8000 4200 2    50   ~ 0
AMC5_IO_1
Text Label 8000 4300 2    50   ~ 0
AMC5_IO_2
Text Label 8000 4400 2    50   ~ 0
AMC5_IO_3
Text Label 8000 4500 2    50   ~ 0
AMC5_IO_4
Text Label 8000 4600 2    50   ~ 0
AMC5_IO_5
Text Label 8000 4700 2    50   ~ 0
AMC5_IO_6
Text Label 8000 4800 2    50   ~ 0
AMC5_IO_7
Text Label 8000 4900 2    50   ~ 0
AMC5_IO_8
Text Label 8000 5000 2    50   ~ 0
AMC5_IO_9
Text Label 8000 5200 2    50   ~ 0
AMC7_IO_0
Text Label 8000 5300 2    50   ~ 0
AMC7_IO_1
Text Label 8000 5400 2    50   ~ 0
AMC7_IO_2
Text Label 8000 5500 2    50   ~ 0
AMC7_IO_3
Text Label 8000 5600 2    50   ~ 0
AMC7_IO_4
Text Label 8000 5700 2    50   ~ 0
AMC7_IO_5
Text Label 8000 5800 2    50   ~ 0
AMC7_IO_6
Text Label 8000 5900 2    50   ~ 0
AMC7_IO_7
Text Label 8000 6000 2    50   ~ 0
AMC7_IO_8
Text Label 8000 6100 2    50   ~ 0
AMC7_IO_9
Text HLabel 8000 13700 2    50   BiDi ~ 0
ATCA_Z1_IPMB_B_SCL
Text HLabel 8000 13800 2    50   BiDi ~ 0
ATCA_Z1_IPMB_B_SDA
Wire Wire Line
	7150 13700 8000 13700
Wire Wire Line
	7150 13800 8000 13800
Text Label 8000 8100 2    50   ~ 0
IPM_2
Text Label 8000 8200 2    50   ~ 0
IPM_3
Text Label 8000 8300 2    50   ~ 0
IPM_6
Text Label 8000 8400 2    50   ~ 0
IPM_7
Text Label 8000 8600 2    50   ~ 0
IPM_10
Text Label 8000 8700 2    50   ~ 0
IPM_11
Text Label 8000 8900 2    50   ~ 0
IPM_14
Text Label 8000 9000 2    50   ~ 0
IPM_15
Wire Wire Line
	8000 8100 7150 8100
Wire Wire Line
	8000 8200 7150 8200
Wire Wire Line
	8000 8300 7150 8300
Wire Wire Line
	8000 8400 7150 8400
Wire Wire Line
	7150 8600 8000 8600
Wire Wire Line
	7150 8700 8000 8700
Wire Wire Line
	7150 8900 8000 8900
Wire Wire Line
	7150 9000 8000 9000
Text Label 8000 9200 2    50   ~ 0
USR_IO_2
Text Label 8000 9300 2    50   ~ 0
USR_IO_3
Text Label 8000 9500 2    50   ~ 0
USR_IO_6
Text Label 8000 9600 2    50   ~ 0
USR_IO_7
Text Label 8000 9800 2    50   ~ 0
USR_IO_10
Text Label 8000 9900 2    50   ~ 0
USR_IO_11
Text Label 8000 10100 2    50   ~ 0
USR_IO_14
Text Label 8000 10200 2    50   ~ 0
USR_IO_15
Text Label 8000 10400 2    50   ~ 0
USR_IO_18
Text Label 8000 10500 2    50   ~ 0
USR_IO_19
Text Label 8000 10700 2    50   ~ 0
USR_IO_21
Text Label 8000 10800 2    50   ~ 0
USR_IO_23
Text Label 8000 10900 2    50   ~ 0
USR_IO_25
Text Label 8000 11000 2    50   ~ 0
USR_IO_27
Text Label 8000 11100 2    50   ~ 0
USR_IO_29
Text Label 8000 11200 2    50   ~ 0
USR_IO_31
Text Label 8000 11300 2    50   ~ 0
USR_IO_33
Wire Wire Line
	8000 9200 7150 9200
Wire Wire Line
	8000 9300 7150 9300
Wire Wire Line
	8000 9500 7150 9500
Wire Wire Line
	8000 9600 7150 9600
Wire Wire Line
	8000 9800 7150 9800
Wire Wire Line
	8000 9900 7150 9900
Wire Wire Line
	8000 10100 7150 10100
Wire Wire Line
	8000 10200 7150 10200
Wire Wire Line
	8000 10400 7150 10400
Wire Wire Line
	8000 10500 7150 10500
Wire Wire Line
	8000 10700 7150 10700
Wire Wire Line
	8000 10800 7150 10800
Wire Wire Line
	8000 10900 7150 10900
Wire Wire Line
	8000 11000 7150 11000
Wire Wire Line
	8000 11100 7150 11100
Wire Wire Line
	8000 11200 7150 11200
Wire Wire Line
	8000 11300 7150 11300
Wire Wire Line
	8000 11500 7150 11500
Wire Wire Line
	8000 11600 7150 11600
Wire Wire Line
	8000 11900 7150 11900
Wire Wire Line
	8000 12100 7150 12100
Wire Wire Line
	8000 12200 7150 12200
Wire Wire Line
	8000 12300 7150 12300
Wire Wire Line
	8000 12400 7150 12400
Wire Wire Line
	8000 12600 7150 12600
Wire Wire Line
	8000 12700 7150 12700
Wire Wire Line
	8000 12900 7150 12900
Wire Wire Line
	8000 13000 7150 13000
Wire Wire Line
	8000 13200 7150 13200
Wire Wire Line
	8000 13300 7150 13300
Wire Wire Line
	8000 13400 7150 13400
Wire Wire Line
	8000 13500 7150 13500
Text HLabel 8000 11500 2    50   BiDi ~ 0
MGM_SCL
Text HLabel 8000 11600 2    50   BiDi ~ 0
MGM_SDA
Text Label 8000 13200 2    50   ~ 0
ATCA_Z1_HA_1
Text Label 8000 13300 2    50   ~ 0
ATCA_Z1_HA_3
Text Label 8000 13400 2    50   ~ 0
ATCA_Z1_HA_5
Text Label 8000 13500 2    50   ~ 0
ATCA_Z1_HA_7
Wire Wire Line
	8000 6600 7150 6600
Wire Wire Line
	8000 6700 7150 6700
Wire Wire Line
	8000 6900 7150 6900
Wire Wire Line
	8000 7000 7150 7000
Wire Wire Line
	8000 7800 7150 7800
Wire Wire Line
	8000 7900 7150 7900
Text HLabel 8000 7800 2    50   BiDi ~ 0
SENSE_SCL
Text HLabel 8000 7900 2    50   BiDi ~ 0
SENSE_SDA
Text HLabel 8000 6600 2    50   Output ~ 0
ETH_TX_P
Text HLabel 8000 6700 2    50   Output ~ 0
ETH_TX_N
Text HLabel 8000 6900 2    50   Input ~ 0
ETH_RX_P
Text HLabel 8000 7000 2    50   Input ~ 0
ETH_RX_N
Wire Wire Line
	7150 6300 8000 6300
Wire Wire Line
	7150 6400 8000 6400
Text HLabel 8000 11900 2    50   Input ~ 0
FP_HANDLE
Text HLabel 8000 12100 2    50   Input ~ 0
MGM_ALARM_A
Text HLabel 8000 12200 2    50   Input ~ 0
MGM_ALARM_B
Text HLabel 8000 12300 2    50   Input ~ 0
MGM_PWR_GOOD_A
Text HLabel 8000 12400 2    50   Input ~ 0
MGM_PWR_GOOD_B
Text HLabel 8000 12600 2    50   Output ~ 0
PYLD_TCK
Text HLabel 8000 12700 2    50   Output ~ 0
PYLD_TDI
Text HLabel 8000 12900 2    50   Input ~ 0
MCU_JTCK-SWCLK
Text HLabel 8000 13000 2    50   Input ~ 0
MCU_JTDI
Text HLabel 8000 6300 2    50   BiDi ~ 0
IPMB-L_SCL
Text HLabel 8000 6400 2    50   BiDi ~ 0
IPMB-L_SDA
Wire Wire Line
	7150 11800 8000 11800
Wire Wire Line
	8000 12000 7150 12000
Text HLabel 8000 12000 2    50   Output ~ 0
PYLD_12V_EN
Text HLabel 8000 11800 2    50   Output ~ 0
PYLD_RST
Text HLabel 8520 1900 2    50   BiDi ~ 0
AMC1_IO_[0..9]
Wire Bus Line
	8070 1900 8520 1900
Text HLabel 8520 3000 2    50   BiDi ~ 0
AMC3_IO_[0..9]
Wire Bus Line
	8070 3000 8520 3000
Text HLabel 8520 4100 2    50   BiDi ~ 0
AMC5_IO_[0..9]
Wire Bus Line
	8070 4100 8520 4100
Text HLabel 8520 5200 2    50   BiDi ~ 0
AMC7_IO_[0..9]
Wire Bus Line
	8070 5200 8520 5200
$Comp
L power:GND #PWR03
U 1 1 5F8536EC
P 7150 1800
F 0 "#PWR03" H 7150 1550 50  0001 C CNN
F 1 "GND" V 7155 1672 50  0000 R CNN
F 2 "" H 7150 1800 50  0001 C CNN
F 3 "" H 7150 1800 50  0001 C CNN
	1    7150 1800
	0    -1   -1   0   
$EndComp
$Comp
L power:GND #PWR05
U 1 1 5F8565D0
P 7150 2900
F 0 "#PWR05" H 7150 2650 50  0001 C CNN
F 1 "GND" V 7155 2772 50  0000 R CNN
F 2 "" H 7150 2900 50  0001 C CNN
F 3 "" H 7150 2900 50  0001 C CNN
	1    7150 2900
	0    -1   -1   0   
$EndComp
$Comp
L power:GND #PWR07
U 1 1 5F858966
P 7150 4000
F 0 "#PWR07" H 7150 3750 50  0001 C CNN
F 1 "GND" V 7155 3872 50  0000 R CNN
F 2 "" H 7150 4000 50  0001 C CNN
F 3 "" H 7150 4000 50  0001 C CNN
	1    7150 4000
	0    -1   -1   0   
$EndComp
$Comp
L power:GND #PWR010
U 1 1 5F85B4F4
P 7150 5100
F 0 "#PWR010" H 7150 4850 50  0001 C CNN
F 1 "GND" V 7155 4972 50  0000 R CNN
F 2 "" H 7150 5100 50  0001 C CNN
F 3 "" H 7150 5100 50  0001 C CNN
	1    7150 5100
	0    -1   -1   0   
$EndComp
$Comp
L power:GND #PWR012
U 1 1 5F85BA9F
P 7150 6200
F 0 "#PWR012" H 7150 5950 50  0001 C CNN
F 1 "GND" V 7155 6072 50  0000 R CNN
F 2 "" H 7150 6200 50  0001 C CNN
F 3 "" H 7150 6200 50  0001 C CNN
	1    7150 6200
	0    -1   -1   0   
$EndComp
$Comp
L power:GND #PWR013
U 1 1 5F85DCA3
P 7150 6500
F 0 "#PWR013" H 7150 6250 50  0001 C CNN
F 1 "GND" V 7155 6372 50  0000 R CNN
F 2 "" H 7150 6500 50  0001 C CNN
F 3 "" H 7150 6500 50  0001 C CNN
	1    7150 6500
	0    -1   -1   0   
$EndComp
$Comp
L power:GND #PWR014
U 1 1 5F85E148
P 7150 6800
F 0 "#PWR014" H 7150 6550 50  0001 C CNN
F 1 "GND" V 7155 6672 50  0000 R CNN
F 2 "" H 7150 6800 50  0001 C CNN
F 3 "" H 7150 6800 50  0001 C CNN
	1    7150 6800
	0    -1   -1   0   
$EndComp
$Comp
L power:GND #PWR015
U 1 1 5F85E6D9
P 7150 7100
F 0 "#PWR015" H 7150 6850 50  0001 C CNN
F 1 "GND" V 7155 6972 50  0000 R CNN
F 2 "" H 7150 7100 50  0001 C CNN
F 3 "" H 7150 7100 50  0001 C CNN
	1    7150 7100
	0    -1   -1   0   
$EndComp
$Comp
L power:GND #PWR017
U 1 1 5F85FCE7
P 7150 7400
F 0 "#PWR017" H 7150 7150 50  0001 C CNN
F 1 "GND" V 7155 7272 50  0000 R CNN
F 2 "" H 7150 7400 50  0001 C CNN
F 3 "" H 7150 7400 50  0001 C CNN
	1    7150 7400
	0    -1   -1   0   
$EndComp
$Comp
L power:GND #PWR019
U 1 1 5F860330
P 7150 7700
F 0 "#PWR019" H 7150 7450 50  0001 C CNN
F 1 "GND" V 7155 7572 50  0000 R CNN
F 2 "" H 7150 7700 50  0001 C CNN
F 3 "" H 7150 7700 50  0001 C CNN
	1    7150 7700
	0    -1   -1   0   
$EndComp
$Comp
L power:GND #PWR021
U 1 1 5F863B6C
P 7150 8000
F 0 "#PWR021" H 7150 7750 50  0001 C CNN
F 1 "GND" V 7155 7872 50  0000 R CNN
F 2 "" H 7150 8000 50  0001 C CNN
F 3 "" H 7150 8000 50  0001 C CNN
	1    7150 8000
	0    -1   -1   0   
$EndComp
$Comp
L power:GND #PWR025
U 1 1 5F86401C
P 7150 8500
F 0 "#PWR025" H 7150 8250 50  0001 C CNN
F 1 "GND" V 7155 8372 50  0000 R CNN
F 2 "" H 7150 8500 50  0001 C CNN
F 3 "" H 7150 8500 50  0001 C CNN
	1    7150 8500
	0    -1   -1   0   
$EndComp
$Comp
L power:GND #PWR048
U 1 1 5F8644ED
P 7150 8800
F 0 "#PWR048" H 7150 8550 50  0001 C CNN
F 1 "GND" V 7155 8672 50  0000 R CNN
F 2 "" H 7150 8800 50  0001 C CNN
F 3 "" H 7150 8800 50  0001 C CNN
	1    7150 8800
	0    -1   -1   0   
$EndComp
$Comp
L power:GND #PWR050
U 1 1 5F866068
P 7150 9100
F 0 "#PWR050" H 7150 8850 50  0001 C CNN
F 1 "GND" V 7155 8972 50  0000 R CNN
F 2 "" H 7150 9100 50  0001 C CNN
F 3 "" H 7150 9100 50  0001 C CNN
	1    7150 9100
	0    -1   -1   0   
$EndComp
$Comp
L power:GND #PWR052
U 1 1 5F8666B9
P 7150 9400
F 0 "#PWR052" H 7150 9150 50  0001 C CNN
F 1 "GND" V 7155 9272 50  0000 R CNN
F 2 "" H 7150 9400 50  0001 C CNN
F 3 "" H 7150 9400 50  0001 C CNN
	1    7150 9400
	0    -1   -1   0   
$EndComp
$Comp
L power:GND #PWR054
U 1 1 5F867D8C
P 7150 9700
F 0 "#PWR054" H 7150 9450 50  0001 C CNN
F 1 "GND" V 7155 9572 50  0000 R CNN
F 2 "" H 7150 9700 50  0001 C CNN
F 3 "" H 7150 9700 50  0001 C CNN
	1    7150 9700
	0    -1   -1   0   
$EndComp
$Comp
L power:GND #PWR056
U 1 1 5F86905E
P 7150 10000
F 0 "#PWR056" H 7150 9750 50  0001 C CNN
F 1 "GND" V 7155 9872 50  0000 R CNN
F 2 "" H 7150 10000 50  0001 C CNN
F 3 "" H 7150 10000 50  0001 C CNN
	1    7150 10000
	0    -1   -1   0   
$EndComp
$Comp
L power:GND #PWR058
U 1 1 5F869E43
P 7150 10300
F 0 "#PWR058" H 7150 10050 50  0001 C CNN
F 1 "GND" V 7155 10172 50  0000 R CNN
F 2 "" H 7150 10300 50  0001 C CNN
F 3 "" H 7150 10300 50  0001 C CNN
	1    7150 10300
	0    -1   -1   0   
$EndComp
$Comp
L power:GND #PWR060
U 1 1 5F86A271
P 7150 10600
F 0 "#PWR060" H 7150 10350 50  0001 C CNN
F 1 "GND" V 7155 10472 50  0000 R CNN
F 2 "" H 7150 10600 50  0001 C CNN
F 3 "" H 7150 10600 50  0001 C CNN
	1    7150 10600
	0    -1   -1   0   
$EndComp
$Comp
L power:GND #PWR062
U 1 1 5F86A736
P 7150 11400
F 0 "#PWR062" H 7150 11150 50  0001 C CNN
F 1 "GND" V 7155 11272 50  0000 R CNN
F 2 "" H 7150 11400 50  0001 C CNN
F 3 "" H 7150 11400 50  0001 C CNN
	1    7150 11400
	0    -1   -1   0   
$EndComp
$Comp
L power:GND #PWR066
U 1 1 5F86C073
P 7150 12500
F 0 "#PWR066" H 7150 12250 50  0001 C CNN
F 1 "GND" V 7155 12372 50  0000 R CNN
F 2 "" H 7150 12500 50  0001 C CNN
F 3 "" H 7150 12500 50  0001 C CNN
	1    7150 12500
	0    -1   -1   0   
$EndComp
$Comp
L power:GND #PWR063
U 1 1 5F872925
P 7150 11700
F 0 "#PWR063" H 7150 11450 50  0001 C CNN
F 1 "GND" V 7155 11572 50  0000 R CNN
F 2 "" H 7150 11700 50  0001 C CNN
F 3 "" H 7150 11700 50  0001 C CNN
	1    7150 11700
	0    -1   -1   0   
$EndComp
$Comp
L power:GND #PWR068
U 1 1 5F872EE5
P 7150 12800
F 0 "#PWR068" H 7150 12550 50  0001 C CNN
F 1 "GND" V 7155 12672 50  0000 R CNN
F 2 "" H 7150 12800 50  0001 C CNN
F 3 "" H 7150 12800 50  0001 C CNN
	1    7150 12800
	0    -1   -1   0   
$EndComp
$Comp
L power:GND #PWR070
U 1 1 5F874732
P 7150 13100
F 0 "#PWR070" H 7150 12850 50  0001 C CNN
F 1 "GND" V 7155 12972 50  0000 R CNN
F 2 "" H 7150 13100 50  0001 C CNN
F 3 "" H 7150 13100 50  0001 C CNN
	1    7150 13100
	0    -1   -1   0   
$EndComp
$Comp
L power:GND #PWR072
U 1 1 5F874BB7
P 7150 13600
F 0 "#PWR072" H 7150 13350 50  0001 C CNN
F 1 "GND" V 7155 13472 50  0000 R CNN
F 2 "" H 7150 13600 50  0001 C CNN
F 3 "" H 7150 13600 50  0001 C CNN
	1    7150 13600
	0    -1   -1   0   
$EndComp
$Comp
L power:GND #PWR074
U 1 1 5F876228
P 7150 13900
F 0 "#PWR074" H 7150 13650 50  0001 C CNN
F 1 "GND" V 7155 13772 50  0000 R CNN
F 2 "" H 7150 13900 50  0001 C CNN
F 3 "" H 7150 13900 50  0001 C CNN
	1    7150 13900
	0    -1   -1   0   
$EndComp
$Comp
L power:+3V3 #PWR024
U 1 1 5F888265
P 4850 8500
F 0 "#PWR024" H 4850 8350 50  0001 C CNN
F 1 "+3V3" V 4865 8628 50  0000 L CNN
F 2 "" H 4850 8500 50  0001 C CNN
F 3 "" H 4850 8500 50  0001 C CNN
	1    4850 8500
	0    -1   -1   0   
$EndComp
$Comp
L power:+3V3 #PWR047
U 1 1 5F88B21E
P 4850 8800
F 0 "#PWR047" H 4850 8650 50  0001 C CNN
F 1 "+3V3" V 4865 8928 50  0000 L CNN
F 2 "" H 4850 8800 50  0001 C CNN
F 3 "" H 4850 8800 50  0001 C CNN
	1    4850 8800
	0    -1   -1   0   
$EndComp
$Comp
L power:+3V3 #PWR049
U 1 1 5F88BFB1
P 4850 9100
F 0 "#PWR049" H 4850 8950 50  0001 C CNN
F 1 "+3V3" V 4865 9228 50  0000 L CNN
F 2 "" H 4850 9100 50  0001 C CNN
F 3 "" H 4850 9100 50  0001 C CNN
	1    4850 9100
	0    -1   -1   0   
$EndComp
$Comp
L power:+3V3 #PWR051
U 1 1 5F88C46F
P 4850 9400
F 0 "#PWR051" H 4850 9250 50  0001 C CNN
F 1 "+3V3" V 4865 9528 50  0000 L CNN
F 2 "" H 4850 9400 50  0001 C CNN
F 3 "" H 4850 9400 50  0001 C CNN
	1    4850 9400
	0    -1   -1   0   
$EndComp
$Comp
L power:+3V3 #PWR053
U 1 1 5F88D7F0
P 4850 9700
F 0 "#PWR053" H 4850 9550 50  0001 C CNN
F 1 "+3V3" V 4865 9828 50  0000 L CNN
F 2 "" H 4850 9700 50  0001 C CNN
F 3 "" H 4850 9700 50  0001 C CNN
	1    4850 9700
	0    -1   -1   0   
$EndComp
$Comp
L power:+3V3 #PWR055
U 1 1 5F88DE3F
P 4850 10000
F 0 "#PWR055" H 4850 9850 50  0001 C CNN
F 1 "+3V3" V 4865 10128 50  0000 L CNN
F 2 "" H 4850 10000 50  0001 C CNN
F 3 "" H 4850 10000 50  0001 C CNN
	1    4850 10000
	0    -1   -1   0   
$EndComp
$Comp
L power:+3V3 #PWR057
U 1 1 5F88EC5E
P 4850 10300
F 0 "#PWR057" H 4850 10150 50  0001 C CNN
F 1 "+3V3" V 4865 10428 50  0000 L CNN
F 2 "" H 4850 10300 50  0001 C CNN
F 3 "" H 4850 10300 50  0001 C CNN
	1    4850 10300
	0    -1   -1   0   
$EndComp
NoConn ~ 7150 7200
NoConn ~ 7150 7300
NoConn ~ 7150 7500
NoConn ~ 7150 7600
Wire Bus Line
	3480 6300 3930 6300
Text HLabel 3480 6300 0    50   BiDi ~ 0
AMC8_IO_[0..9]
Wire Bus Line
	3480 8000 3930 8000
Text HLabel 3480 8000 0    50   BiDi ~ 0
IPM_[0..15]
Wire Bus Line
	3480 9200 3930 9200
Text HLabel 3480 9200 0    50   BiDi ~ 0
USR_IO_[0..34]
Wire Bus Line
	3480 12100 3930 12100
Text HLabel 3480 12100 0    50   Output ~ 0
FP_LED_[0..2]
Wire Bus Line
	3480 13200 3930 13200
Text HLabel 3480 13200 0    50   Input ~ 0
ATCA_Z1_HA_[0..7]
Text HLabel 4220 7400 0    50   Output ~ 0
UART0_TX
Text HLabel 4220 7500 0    50   Output ~ 0
UART1_TX
Text HLabel 4220 7700 0    50   Input ~ 0
UART0_RX
Text HLabel 4220 7800 0    50   Input ~ 0
UART1_RX
Wire Wire Line
	4850 7400 4220 7400
Wire Wire Line
	4220 7500 4850 7500
Wire Wire Line
	4850 7700 4220 7700
Wire Wire Line
	4850 7800 4220 7800
$Comp
L power:+3V3 #PWR023
U 1 1 5F96BBC3
P 4850 8200
F 0 "#PWR023" H 4850 8050 50  0001 C CNN
F 1 "+3V3" V 4865 8328 50  0000 L CNN
F 2 "" H 4850 8200 50  0001 C CNN
F 3 "" H 4850 8200 50  0001 C CNN
	1    4850 8200
	0    -1   -1   0   
$EndComp
$EndSCHEMATC
