EESchema Schematic File Version 4
EELAYER 30 0
EELAYER END
$Descr A4 11693 8268
encoding utf-8
Sheet 4 4
Title "mini-DIMM Breakout Board"
Date "2020-10-06"
Rev "2020.10-01"
Comp ""
Comment1 "This project is a hardware support for OpenIPMC-HW development"
Comment2 ""
Comment3 ""
Comment4 ""
$EndDescr
$Comp
L dimm_breakout:Wurth_74990111211 J15
U 1 1 5F662C9D
P 9850 1850
F 0 "J15" H 10350 2430 50  0000 R CNN
F 1 "Wurth_74990111211" H 10230 2580 50  0000 R CNN
F 2 "dimm_breakout:RJ45_Wurth_74990111211_Horizontal" H 9850 1100 50  0001 C CNN
F 3 "" H 9435 1615 50  0001 L TNN
F 4 "Wurth Elektronik" H 9850 1850 50  0001 C CNN "manf"
F 5 "74990111211" H 9850 1850 50  0001 C CNN "manf#"
	1    9850 1850
	-1   0    0    -1  
$EndComp
$Comp
L power:GND #PWR082
U 1 1 5F689441
P 8900 2600
F 0 "#PWR082" H 8900 2350 50  0001 C CNN
F 1 "GND" H 8905 2427 50  0000 C CNN
F 2 "" H 8900 2600 50  0001 C CNN
F 3 "" H 8900 2600 50  0001 C CNN
	1    8900 2600
	1    0    0    -1  
$EndComp
$Comp
L Connector:Jack-DC J13
U 1 1 5F68E5D3
P 1300 1250
F 0 "J13" H 1300 1450 50  0000 C CNN
F 1 "Jack-DC" H 1357 1484 50  0001 C CNN
F 2 "dimm_breakout:BarrelJack_Wuerth_6941xx301002" H 1350 1210 50  0001 C CNN
F 3 "~" H 1350 1210 50  0001 C CNN
F 4 "Wurth Elektronik" H 1300 1250 50  0001 C CNN "manf"
F 5 "694106301002" H 1300 1250 50  0001 C CNN "manf#"
	1    1300 1250
	1    0    0    -1  
$EndComp
$Comp
L power:GND #PWR075
U 1 1 5F691A8D
P 1700 1550
F 0 "#PWR075" H 1700 1300 50  0001 C CNN
F 1 "GND" H 1705 1377 50  0000 C CNN
F 2 "" H 1700 1550 50  0001 C CNN
F 3 "" H 1700 1550 50  0001 C CNN
	1    1700 1550
	1    0    0    -1  
$EndComp
Wire Wire Line
	1600 1350 1700 1350
Wire Wire Line
	1700 1350 1700 1550
$Comp
L Connector:USB_B_Micro J14
U 1 1 5F696383
P 7000 1450
F 0 "J14" H 7200 1800 50  0000 R CNN
F 1 "USB_B_Micro" H 7050 1800 50  0000 R CNN
F 2 "Connector_USB:USB_Micro-B_Molex_47346-0001" H 7150 1400 50  0001 C CNN
F 3 "~" H 7150 1400 50  0001 C CNN
F 4 "Molex" H 7000 1450 50  0001 C CNN "manf"
F 5 " ‎0473460001" H 7000 1450 50  0001 C CNN "manf#"
	1    7000 1450
	-1   0    0    -1  
$EndComp
$Comp
L power:GND #PWR079
U 1 1 5F6A3B55
P 7000 1950
F 0 "#PWR079" H 7000 1700 50  0001 C CNN
F 1 "GND" H 7005 1777 50  0000 C CNN
F 2 "" H 7000 1950 50  0001 C CNN
F 3 "" H 7000 1950 50  0001 C CNN
	1    7000 1950
	1    0    0    -1  
$EndComp
Wire Wire Line
	7000 1950 7000 1850
Wire Wire Line
	7100 1850 7000 1850
Connection ~ 7000 1850
NoConn ~ 9650 1250
NoConn ~ 9750 1250
NoConn ~ 9950 1250
NoConn ~ 10050 1250
Wire Wire Line
	6700 1650 6700 1850
Wire Wire Line
	6700 1850 7000 1850
Text Notes 9500 950  0    59   ~ 0
ETHERNET - RJ45
Text Notes 10050 2550 0    50   ~ 0
Compatible with HR911105A\n(Except LEDs)
Text HLabel 7100 4450 2    50   Output ~ 0
MCU_JTCK-SWCLK
Text HLabel 7100 4650 2    50   Output ~ 0
MCU_JTDI
Text HLabel 7100 4550 2    50   Input ~ 0
MCU_JTDO-SWO
Text HLabel 7100 4350 2    50   Output ~ 0
MCU_JTMS-SWDIO
Text Notes 6150 3950 0    59   ~ 0
(JTAG/SWD + UART)
Wire Wire Line
	9850 2600 9250 2600
Wire Wire Line
	9850 2450 9850 2600
$Comp
L Switch:SW_SPDT SW1
U 1 1 5F723431
P 1200 6750
F 0 "SW1" H 1200 6943 50  0000 C CNN
F 1 "SW_SPDT" H 1200 6944 50  0001 C CNN
F 2 "dimm_breakout:Switch_Push_DPDT_2.54mm_TL2201" H 1200 6750 50  0001 C CNN
F 3 "~" H 1200 6750 50  0001 C CNN
F 4 "E-Switch" H 1200 6750 50  0001 C CNN "manf"
F 5 "TL2201EEYA" H 1200 6750 50  0001 C CNN "manf#"
	1    1200 6750
	1    0    0    -1  
$EndComp
$Comp
L Device:R R9
U 1 1 5F7283BD
P 2300 6450
F 0 "R9" H 2370 6496 50  0000 L CNN
F 1 "10k" H 2370 6405 50  0000 L CNN
F 2 "Resistor_SMD:R_0402_1005Metric" V 2230 6450 50  0001 C CNN
F 3 "~" H 2300 6450 50  0001 C CNN
	1    2300 6450
	1    0    0    -1  
$EndComp
$Comp
L power:+3V3 #PWR?
U 1 1 5F729CF3
P 2300 6300
AR Path="/5F68D36E/5F729CF3" Ref="#PWR?"  Part="1" 
AR Path="/5F644FE7/5F729CF3" Ref="#PWR022"  Part="1" 
F 0 "#PWR022" H 2300 6150 50  0001 C CNN
F 1 "+3V3" H 2315 6428 50  0000 L CNN
F 2 "" H 2300 6300 50  0001 C CNN
F 3 "" H 2300 6300 50  0001 C CNN
	1    2300 6300
	1    0    0    -1  
$EndComp
$Comp
L Device:R R10
U 1 1 5F72B63E
P 1700 6650
F 0 "R10" V 1800 6650 50  0000 C CNN
F 1 "0R" V 1600 6800 50  0000 C CNN
F 2 "Resistor_SMD:R_0402_1005Metric" V 1630 6650 50  0001 C CNN
F 3 "~" H 1700 6650 50  0001 C CNN
F 4 "DNP" V 1700 6650 50  0000 C CNN "DNP"
	1    1700 6650
	0    1    -1   0   
$EndComp
$Comp
L Device:R R11
U 1 1 5F72C885
P 1700 6850
F 0 "R11" V 1800 6850 50  0000 C CNN
F 1 "0R" V 1600 7000 50  0000 C CNN
F 2 "Resistor_SMD:R_0402_1005Metric" V 1630 6850 50  0001 C CNN
F 3 "~" H 1700 6850 50  0001 C CNN
	1    1700 6850
	0    1    -1   0   
$EndComp
$Comp
L power:GND #PWR096
U 1 1 5F72D7AA
P 800 6850
F 0 "#PWR096" H 800 6600 50  0001 C CNN
F 1 "GND" H 805 6677 50  0000 C CNN
F 2 "" H 800 6850 50  0001 C CNN
F 3 "" H 800 6850 50  0001 C CNN
	1    800  6850
	-1   0    0    -1  
$EndComp
Wire Wire Line
	1000 6750 800  6750
Wire Wire Line
	800  6750 800  6850
Wire Wire Line
	1550 6650 1400 6650
Wire Wire Line
	1550 6850 1400 6850
Wire Wire Line
	1950 6850 1850 6850
Wire Wire Line
	1850 6650 1950 6650
Wire Wire Line
	1950 6650 1950 6750
Text HLabel 2600 6750 2    50   Output ~ 0
FP_HANDLE
Wire Wire Line
	2600 6750 2300 6750
Text Notes 900  6250 0    59   ~ 0
HANDLE SWITCH
Text Notes 1050 7250 0    50   ~ 0
Choose polarity
$Comp
L Device:C C5
U 1 1 5F77C8ED
P 2300 7100
F 0 "C5" H 2415 7146 50  0000 L CNN
F 1 "0.1uF" H 2415 7055 50  0000 L CNN
F 2 "Capacitor_SMD:C_0402_1005Metric" H 2338 6950 50  0001 C CNN
F 3 "~" H 2300 7100 50  0001 C CNN
	1    2300 7100
	1    0    0    -1  
$EndComp
$Comp
L power:GND #PWR097
U 1 1 5F7819C7
P 2300 7250
F 0 "#PWR097" H 2300 7000 50  0001 C CNN
F 1 "GND" H 2305 7077 50  0000 C CNN
F 2 "" H 2300 7250 50  0001 C CNN
F 3 "" H 2300 7250 50  0001 C CNN
	1    2300 7250
	-1   0    0    -1  
$EndComp
Wire Wire Line
	2300 6950 2300 6750
Connection ~ 2300 6750
Wire Wire Line
	2300 6600 2300 6750
Wire Wire Line
	2300 6750 1950 6750
Connection ~ 1950 6750
Wire Wire Line
	1950 6750 1950 6850
$Comp
L power:GND #PWR076
U 1 1 5F65FD07
P 2150 1550
F 0 "#PWR076" H 2150 1300 50  0001 C CNN
F 1 "GND" H 2155 1377 50  0000 C CNN
F 2 "" H 2150 1550 50  0001 C CNN
F 3 "" H 2150 1550 50  0001 C CNN
	1    2150 1550
	1    0    0    -1  
$EndComp
$Comp
L power:GND #PWR077
U 1 1 5F65FF91
P 2800 1550
F 0 "#PWR077" H 2800 1300 50  0001 C CNN
F 1 "GND" H 2805 1377 50  0000 C CNN
F 2 "" H 2800 1550 50  0001 C CNN
F 3 "" H 2800 1550 50  0001 C CNN
	1    2800 1550
	1    0    0    -1  
$EndComp
$Comp
L power:GND #PWR078
U 1 1 5F660164
P 3350 1550
F 0 "#PWR078" H 3350 1300 50  0001 C CNN
F 1 "GND" H 3355 1377 50  0000 C CNN
F 2 "" H 3350 1550 50  0001 C CNN
F 3 "" H 3350 1550 50  0001 C CNN
	1    3350 1550
	1    0    0    -1  
$EndComp
Wire Wire Line
	1600 1150 2150 1150
Wire Wire Line
	2150 1250 2150 1150
Wire Wire Line
	3350 1150 3350 1250
Text Notes 1050 1350 2    59   ~ 0
INPUT PWR\n3.5~~5V\n1A\n
$Comp
L Device:R R1
U 1 1 5F69DA95
P 3950 1450
F 0 "R1" H 4020 1496 50  0000 L CNN
F 1 "220" H 4020 1405 50  0000 L CNN
F 2 "Resistor_SMD:R_0402_1005Metric" V 3880 1450 50  0001 C CNN
F 3 "~" H 3950 1450 50  0001 C CNN
	1    3950 1450
	1    0    0    -1  
$EndComp
$Comp
L Device:LED D1
U 1 1 5F69E967
P 3950 1850
F 0 "D1" V 3989 1732 50  0000 R CNN
F 1 "Red" V 3898 1732 50  0000 R CNN
F 2 "LED_SMD:LED_0603_1608Metric_Castellated" H 3950 1850 50  0001 C CNN
F 3 "~" H 3950 1850 50  0001 C CNN
	1    3950 1850
	0    -1   -1   0   
$EndComp
$Comp
L power:+3V3 #PWR?
U 1 1 5F69F985
P 4850 1150
AR Path="/5F68D36E/5F69F985" Ref="#PWR?"  Part="1" 
AR Path="/5F644FE7/5F69F985" Ref="#PWR01"  Part="1" 
F 0 "#PWR01" H 4850 1000 50  0001 C CNN
F 1 "+3V3" H 4865 1278 50  0000 L CNN
F 2 "" H 4850 1150 50  0001 C CNN
F 3 "" H 4850 1150 50  0001 C CNN
	1    4850 1150
	1    0    0    -1  
$EndComp
$Comp
L power:GND #PWR080
U 1 1 5F69FDE5
P 3950 2100
F 0 "#PWR080" H 3950 1850 50  0001 C CNN
F 1 "GND" H 3955 1927 50  0000 C CNN
F 2 "" H 3950 2100 50  0001 C CNN
F 3 "" H 3950 2100 50  0001 C CNN
	1    3950 2100
	1    0    0    -1  
$EndComp
Wire Wire Line
	3950 1600 3950 1700
Wire Wire Line
	3950 2000 3950 2100
Text Notes 4000 1750 0    59   ~ 0
PWR ON
Wire Notes Line style solid
	1700 6950 1650 7050
Wire Notes Line style solid
	1650 7050 1750 7050
Wire Notes Line style solid
	1750 7050 1700 6950
Wire Notes Line style solid
	1700 7050 1700 7250
Text Notes 950  7500 0    50   ~ 0
Default: FP_HANDLE is LOW\nwhen Handle is locked
Wire Wire Line
	1750 4550 1750 4650
Wire Wire Line
	1750 4150 1750 4250
$Comp
L power:GND #PWR085
U 1 1 5F726041
P 1750 4650
F 0 "#PWR085" H 1750 4400 50  0001 C CNN
F 1 "GND" H 1755 4477 50  0000 C CNN
F 2 "" H 1750 4650 50  0001 C CNN
F 3 "" H 1750 4650 50  0001 C CNN
	1    1750 4650
	1    0    0    -1  
$EndComp
$Comp
L Device:LED D2
U 1 1 5F72602D
P 1750 4400
F 0 "D2" V 1789 4282 50  0000 R CNN
F 1 "Blue" V 1698 4282 50  0000 R CNN
F 2 "LED_SMD:LED_0603_1608Metric_Castellated" H 1750 4400 50  0001 C CNN
F 3 "~" H 1750 4400 50  0001 C CNN
	1    1750 4400
	0    -1   -1   0   
$EndComp
$Comp
L Device:R R2
U 1 1 5F726023
P 1750 4000
F 0 "R2" H 1820 4046 50  0000 L CNN
F 1 "47" H 1820 3955 50  0000 L CNN
F 2 "Resistor_SMD:R_0402_1005Metric" V 1680 4000 50  0001 C CNN
F 3 "~" H 1750 4000 50  0001 C CNN
	1    1750 4000
	1    0    0    -1  
$EndComp
Text HLabel 1450 3700 0    50   Input ~ 0
FP_BLUE_LED
Text HLabel 1350 3450 0    50   Input ~ 0
FP_LED_[0..2]
Wire Wire Line
	1450 3700 1750 3700
Wire Wire Line
	1750 3700 1750 3850
Wire Wire Line
	2750 4550 2750 4650
Wire Wire Line
	2750 4150 2750 4250
$Comp
L power:GND #PWR087
U 1 1 5F76E3B7
P 2750 4650
F 0 "#PWR087" H 2750 4400 50  0001 C CNN
F 1 "GND" H 2755 4477 50  0000 C CNN
F 2 "" H 2750 4650 50  0001 C CNN
F 3 "" H 2750 4650 50  0001 C CNN
	1    2750 4650
	1    0    0    -1  
$EndComp
$Comp
L Device:LED D4
U 1 1 5F76E3CB
P 2750 4400
F 0 "D4" V 2789 4282 50  0000 R CNN
F 1 "Red" V 2698 4282 50  0000 R CNN
F 2 "LED_SMD:LED_0603_1608Metric_Castellated" H 2750 4400 50  0001 C CNN
F 3 "~" H 2750 4400 50  0001 C CNN
	1    2750 4400
	0    -1   -1   0   
$EndComp
$Comp
L Device:R R4
U 1 1 5F76E3D5
P 2750 4000
F 0 "R4" H 2820 4046 50  0000 L CNN
F 1 "220" H 2820 3955 50  0000 L CNN
F 2 "Resistor_SMD:R_0402_1005Metric" V 2680 4000 50  0001 C CNN
F 3 "~" H 2750 4000 50  0001 C CNN
	1    2750 4000
	1    0    0    -1  
$EndComp
Wire Wire Line
	3250 4550 3250 4650
Wire Wire Line
	3250 4150 3250 4250
$Comp
L power:GND #PWR088
U 1 1 5F771FE2
P 3250 4650
F 0 "#PWR088" H 3250 4400 50  0001 C CNN
F 1 "GND" H 3255 4477 50  0000 C CNN
F 2 "" H 3250 4650 50  0001 C CNN
F 3 "" H 3250 4650 50  0001 C CNN
	1    3250 4650
	1    0    0    -1  
$EndComp
$Comp
L Device:LED D5
U 1 1 5F771FF6
P 3250 4400
F 0 "D5" V 3289 4282 50  0000 R CNN
F 1 "Red" V 3198 4282 50  0000 R CNN
F 2 "LED_SMD:LED_0603_1608Metric_Castellated" H 3250 4400 50  0001 C CNN
F 3 "~" H 3250 4400 50  0001 C CNN
	1    3250 4400
	0    -1   -1   0   
$EndComp
$Comp
L Device:R R5
U 1 1 5F772000
P 3250 4000
F 0 "R5" H 3320 4046 50  0000 L CNN
F 1 "220" H 3320 3955 50  0000 L CNN
F 2 "Resistor_SMD:R_0402_1005Metric" V 3180 4000 50  0001 C CNN
F 3 "~" H 3250 4000 50  0001 C CNN
	1    3250 4000
	1    0    0    -1  
$EndComp
Entry Wire Line
	2150 3450 2250 3550
Wire Wire Line
	2250 3550 2250 3850
Entry Wire Line
	2650 3450 2750 3550
Wire Wire Line
	2750 3550 2750 3850
Wire Wire Line
	3250 3550 3250 3850
Entry Wire Line
	3150 3450 3250 3550
Text Label 2250 3750 0    50   ~ 0
FP_LED_0
Text Label 2750 3750 0    50   ~ 0
FP_LED_1
Text Label 3250 3750 0    50   ~ 0
FP_LED_2
$Comp
L Connector_Generic:Conn_02x08_Odd_Even J24
U 1 1 5F7AEB99
P 4100 6750
F 0 "J24" H 4150 7175 50  0000 C CNN
F 1 "Conn_02x08_Odd_Even" H 4150 7176 50  0001 C CNN
F 2 "Connector_PinHeader_2.54mm:PinHeader_2x08_P2.54mm_Vertical" H 4100 6750 50  0001 C CNN
F 3 "~" H 4100 6750 50  0001 C CNN
	1    4100 6750
	1    0    0    -1  
$EndComp
Text Notes 1900 3250 0    59   ~ 0
FRONT PANEL LEDs
Wire Wire Line
	3900 6450 3900 6550
Wire Wire Line
	3900 6550 3900 6650
Connection ~ 3900 6550
Wire Wire Line
	3900 6650 3900 6750
Connection ~ 3900 6650
Wire Wire Line
	3900 6750 3900 6850
Connection ~ 3900 6750
Wire Wire Line
	3900 6850 3900 6950
Connection ~ 3900 6850
Wire Wire Line
	3900 6950 3900 7050
Connection ~ 3900 6950
Wire Wire Line
	3900 7050 3900 7150
Connection ~ 3900 7050
Wire Wire Line
	3900 7150 3900 7250
Connection ~ 3900 7150
$Comp
L power:GND #PWR098
U 1 1 5F7C62EE
P 3900 7250
F 0 "#PWR098" H 3900 7000 50  0001 C CNN
F 1 "GND" H 3905 7077 50  0000 C CNN
F 2 "" H 3900 7250 50  0001 C CNN
F 3 "" H 3900 7250 50  0001 C CNN
	1    3900 7250
	-1   0    0    -1  
$EndComp
Text HLabel 5400 6200 2    50   Output ~ 0
ATCA_Z1_HA_[0..7]
Wire Wire Line
	4400 6450 5050 6450
Text Label 4450 6450 0    50   ~ 0
ATCA_Z1_HA_7
Wire Wire Line
	4400 7150 5050 7150
Wire Wire Line
	4400 7050 5050 7050
Wire Wire Line
	4400 6950 5050 6950
Wire Wire Line
	4400 6850 5050 6850
Wire Wire Line
	4400 6750 5050 6750
Wire Wire Line
	4400 6650 5050 6650
Wire Wire Line
	4400 6550 5050 6550
Text Label 4450 7150 0    50   ~ 0
ATCA_Z1_HA_0
Text Label 4450 7050 0    50   ~ 0
ATCA_Z1_HA_1
Text Label 4450 6950 0    50   ~ 0
ATCA_Z1_HA_2
Text Label 4450 6850 0    50   ~ 0
ATCA_Z1_HA_3
Text Label 4450 6750 0    50   ~ 0
ATCA_Z1_HA_4
Text Label 4450 6650 0    50   ~ 0
ATCA_Z1_HA_5
Text Label 4450 6550 0    50   ~ 0
ATCA_Z1_HA_6
Entry Wire Line
	5150 6350 5050 6450
Entry Wire Line
	5150 6450 5050 6550
Entry Wire Line
	5150 6550 5050 6650
Entry Wire Line
	5150 6650 5050 6750
Entry Wire Line
	5150 6750 5050 6850
Entry Wire Line
	5150 6850 5050 6950
Entry Wire Line
	5150 6950 5050 7050
Entry Wire Line
	5150 7050 5050 7150
Wire Bus Line
	5150 6200 5400 6200
Text Notes 4000 5950 0    59   ~ 0
ATCA ZONE 1 HARDWARE ADDRESS
Text HLabel 10350 3550 0    50   Input ~ 0
UART0_TX
Text HLabel 10350 3850 0    50   Input ~ 0
UART1_TX
Text HLabel 10350 3650 0    50   Output ~ 0
UART0_RX
Text HLabel 10350 3950 0    50   Output ~ 0
UART1_RX
$Comp
L Connector_Generic:Conn_01x06 J17
U 1 1 5F82EDAA
P 10750 3750
F 0 "J17" H 10750 4050 50  0000 L CNN
F 1 "Conn_01x06" H 10830 3651 50  0001 L CNN
F 2 "Connector_PinHeader_2.54mm:PinHeader_1x06_P2.54mm_Vertical" H 10750 3750 50  0001 C CNN
F 3 "~" H 10750 3750 50  0001 C CNN
	1    10750 3750
	1    0    0    -1  
$EndComp
Wire Wire Line
	10350 3550 10550 3550
Wire Wire Line
	10350 3650 10550 3650
Wire Wire Line
	10350 3850 10550 3850
Wire Wire Line
	10350 3950 10550 3950
Wire Wire Line
	10550 3750 10500 3750
Wire Wire Line
	10500 3750 10500 4050
Wire Wire Line
	10500 4050 10550 4050
$Comp
L power:GND #PWR084
U 1 1 5F84B07E
P 10500 4100
F 0 "#PWR084" H 10500 3850 50  0001 C CNN
F 1 "GND" H 10505 3927 50  0000 C CNN
F 2 "" H 10500 4100 50  0001 C CNN
F 3 "" H 10500 4100 50  0001 C CNN
	1    10500 4100
	1    0    0    -1  
$EndComp
Wire Wire Line
	10500 4100 10500 4050
Connection ~ 10500 4050
Text Notes 10200 3400 0    59   ~ 0
UART
Text HLabel 8800 5250 0    50   Input ~ 0
PYLD_TCK
Text HLabel 8800 4950 0    50   Input ~ 0
PYLD_TDI
Text HLabel 8800 4850 0    50   Input ~ 0
PYLD_TRST
Text HLabel 8800 5050 0    50   Output ~ 0
PYLD_TDO
Text HLabel 8800 5150 0    50   Input ~ 0
PYLD_TMS
$Comp
L Connector_Generic:Conn_01x06 J19
U 1 1 5F9199AE
P 9200 5050
F 0 "J19" H 9200 5350 50  0000 L CNN
F 1 "Conn_01x06" H 9280 4951 50  0001 L CNN
F 2 "Connector_PinHeader_2.54mm:PinHeader_1x06_P2.54mm_Vertical" H 9200 5050 50  0001 C CNN
F 3 "~" H 9200 5050 50  0001 C CNN
	1    9200 5050
	1    0    0    -1  
$EndComp
Wire Wire Line
	8800 4850 9000 4850
Wire Wire Line
	8800 4950 9000 4950
Wire Wire Line
	8800 5050 9000 5050
Wire Wire Line
	8800 5150 9000 5150
Wire Wire Line
	8800 5250 9000 5250
$Comp
L power:GND #PWR091
U 1 1 5F939610
P 8950 5400
F 0 "#PWR091" H 8950 5150 50  0001 C CNN
F 1 "GND" H 8955 5227 50  0000 C CNN
F 2 "" H 8950 5400 50  0001 C CNN
F 3 "" H 8950 5400 50  0001 C CNN
	1    8950 5400
	1    0    0    -1  
$EndComp
Wire Wire Line
	8950 5400 8950 5350
Wire Wire Line
	8950 5350 9000 5350
Text Notes 8350 4650 0    59   ~ 0
IPMC MASTER JTAG
Text HLabel 8800 5950 0    50   BiDi ~ 0
MGM_SCL
Text HLabel 8800 6050 0    50   BiDi ~ 0
MGM_SDA
Text HLabel 7250 5950 0    50   BiDi ~ 0
SENSE_SCL
Text HLabel 7250 6050 0    50   BiDi ~ 0
SENSE_SDA
Text HLabel 10350 5950 0    50   BiDi ~ 0
IPMB-L_SCL
Text HLabel 10350 6050 0    50   BiDi ~ 0
IPMB-L_SDA
$Comp
L Device:C C4
U 1 1 5F704472
P 8900 2450
F 0 "C4" H 9015 2496 50  0000 L CNN
F 1 "0.1uF" H 9015 2405 50  0000 L CNN
F 2 "Capacitor_SMD:C_0402_1005Metric" H 8938 2300 50  0001 C CNN
F 3 "~" H 8900 2450 50  0001 C CNN
	1    8900 2450
	1    0    0    -1  
$EndComp
Wire Wire Line
	9250 2250 9250 2600
Connection ~ 9250 2600
Wire Wire Line
	3950 1150 3950 1300
Wire Wire Line
	3350 1150 3950 1150
$Comp
L Device:Jumper JP1
U 1 1 60759979
P 4400 1150
F 0 "JP1" H 4400 1414 50  0000 C CNN
F 1 "Current Probe" H 4400 1323 50  0000 C CNN
F 2 "Connector_PinHeader_2.54mm:PinHeader_1x02_P2.54mm_Vertical" H 4400 1150 50  0001 C CNN
F 3 "~" H 4400 1150 50  0001 C CNN
	1    4400 1150
	1    0    0    -1  
$EndComp
Wire Wire Line
	4700 1150 4850 1150
Wire Wire Line
	4100 1150 3950 1150
Connection ~ 3950 1150
$Comp
L Device:C C3
U 1 1 607922C4
P 8450 2450
F 0 "C3" H 8565 2496 50  0000 L CNN
F 1 "0.1uF" H 8565 2405 50  0000 L CNN
F 2 "Capacitor_SMD:C_0402_1005Metric" H 8488 2300 50  0001 C CNN
F 3 "~" H 8450 2450 50  0001 C CNN
	1    8450 2450
	1    0    0    -1  
$EndComp
Wire Wire Line
	8900 2600 9250 2600
Connection ~ 8900 2600
Wire Wire Line
	8450 2600 8900 2600
Wire Wire Line
	8900 2300 8900 2050
Wire Wire Line
	8450 1650 9250 1650
Wire Wire Line
	8900 2050 9250 2050
Wire Wire Line
	8450 1650 8450 2300
Wire Wire Line
	9250 1550 8200 1550
Wire Wire Line
	9250 2150 8200 2150
Wire Wire Line
	9250 1950 8200 1950
Wire Wire Line
	9250 1750 8200 1750
Text HLabel 8200 1750 0    50   Input ~ 0
ETH_TX_N
Text HLabel 8200 1950 0    50   Output ~ 0
ETH_RX_P
Text HLabel 8200 2150 0    50   Output ~ 0
ETH_RX_N
Text HLabel 8200 1550 0    50   Input ~ 0
ETH_TX_P
Text HLabel 10300 4850 0    50   BiDi ~ 0
ATCA_Z1_IPMB_A_SCL
Text HLabel 10300 4950 0    50   BiDi ~ 0
ATCA_Z1_IPMB_A_SDA
Text HLabel 10300 5150 0    50   BiDi ~ 0
ATCA_Z1_IPMB_B_SCL
Text HLabel 10300 5250 0    50   BiDi ~ 0
ATCA_Z1_IPMB_B_SDA
Wire Wire Line
	10300 4850 10500 4850
Wire Wire Line
	10300 4950 10500 4950
Wire Wire Line
	10300 5150 10500 5150
Wire Wire Line
	10300 5250 10500 5250
Text Notes 10150 4700 0    59   ~ 0
IPMB-A/B
Wire Wire Line
	10550 6050 10350 6050
Wire Wire Line
	10550 5950 10350 5950
Wire Wire Line
	7450 6050 7250 6050
Wire Wire Line
	7450 5950 7250 5950
Wire Wire Line
	9000 6050 8800 6050
Wire Wire Line
	9000 5950 8800 5950
$Comp
L power:GND #PWR095
U 1 1 608AED65
P 10500 6300
F 0 "#PWR095" H 10500 6050 50  0001 C CNN
F 1 "GND" H 10505 6127 50  0000 C CNN
F 2 "" H 10500 6300 50  0001 C CNN
F 3 "" H 10500 6300 50  0001 C CNN
	1    10500 6300
	1    0    0    -1  
$EndComp
Wire Wire Line
	10500 6300 10500 6250
Wire Wire Line
	10500 6250 10550 6250
$Comp
L power:GND #PWR094
U 1 1 608B969D
P 8950 6300
F 0 "#PWR094" H 8950 6050 50  0001 C CNN
F 1 "GND" H 8955 6127 50  0000 C CNN
F 2 "" H 8950 6300 50  0001 C CNN
F 3 "" H 8950 6300 50  0001 C CNN
	1    8950 6300
	1    0    0    -1  
$EndComp
Wire Wire Line
	8950 6300 8950 6250
Wire Wire Line
	8950 6250 9000 6250
$Comp
L power:GND #PWR093
U 1 1 608BD48E
P 7400 6300
F 0 "#PWR093" H 7400 6050 50  0001 C CNN
F 1 "GND" H 7405 6127 50  0000 C CNN
F 2 "" H 7400 6300 50  0001 C CNN
F 3 "" H 7400 6300 50  0001 C CNN
	1    7400 6300
	1    0    0    -1  
$EndComp
Wire Wire Line
	7400 6300 7400 6250
Wire Wire Line
	7400 6250 7450 6250
Wire Wire Line
	4550 4550 4550 4650
Wire Wire Line
	4550 4150 4550 4250
$Comp
L power:GND #PWR089
U 1 1 60977EEC
P 4550 4650
F 0 "#PWR089" H 4550 4400 50  0001 C CNN
F 1 "GND" H 4555 4477 50  0000 C CNN
F 2 "" H 4550 4650 50  0001 C CNN
F 3 "" H 4550 4650 50  0001 C CNN
	1    4550 4650
	1    0    0    -1  
$EndComp
$Comp
L Device:LED D6
U 1 1 60977EF2
P 4550 4400
F 0 "D6" V 4589 4282 50  0000 R CNN
F 1 "Red" V 4498 4282 50  0000 R CNN
F 2 "LED_SMD:LED_0603_1608Metric_Castellated" H 4550 4400 50  0001 C CNN
F 3 "~" H 4550 4400 50  0001 C CNN
	1    4550 4400
	0    -1   -1   0   
$EndComp
$Comp
L Device:R R6
U 1 1 60977EF8
P 4550 4000
F 0 "R6" H 4620 4046 50  0000 L CNN
F 1 "220" H 4620 3955 50  0000 L CNN
F 2 "Resistor_SMD:R_0402_1005Metric" V 4480 4000 50  0001 C CNN
F 3 "~" H 4550 4000 50  0001 C CNN
	1    4550 4000
	1    0    0    -1  
$EndComp
$Comp
L Device:R R3
U 1 1 5F7432D0
P 2250 4000
F 0 "R3" H 2320 4046 50  0000 L CNN
F 1 "220" H 2320 3955 50  0000 L CNN
F 2 "Resistor_SMD:R_0402_1005Metric" V 2180 4000 50  0001 C CNN
F 3 "~" H 2250 4000 50  0001 C CNN
	1    2250 4000
	1    0    0    -1  
$EndComp
$Comp
L Device:LED D3
U 1 1 5F7432CA
P 2250 4400
F 0 "D3" V 2289 4282 50  0000 R CNN
F 1 "Red" V 2198 4282 50  0000 R CNN
F 2 "LED_SMD:LED_0603_1608Metric_Castellated" H 2250 4400 50  0001 C CNN
F 3 "~" H 2250 4400 50  0001 C CNN
	1    2250 4400
	0    -1   -1   0   
$EndComp
$Comp
L power:GND #PWR086
U 1 1 5F7432BE
P 2250 4650
F 0 "#PWR086" H 2250 4400 50  0001 C CNN
F 1 "GND" H 2255 4477 50  0000 C CNN
F 2 "" H 2250 4650 50  0001 C CNN
F 3 "" H 2250 4650 50  0001 C CNN
	1    2250 4650
	1    0    0    -1  
$EndComp
Wire Wire Line
	2250 4150 2250 4250
Wire Wire Line
	2250 4550 2250 4650
Text HLabel 4450 3450 0    50   Input ~ 0
PYLD_12V_EN
Wire Wire Line
	4450 3450 4550 3450
Wire Wire Line
	4550 3450 4550 3850
Text HLabel 8800 3650 0    50   Output ~ 0
MGM_ALARM_A
Text HLabel 8800 3750 0    50   Output ~ 0
MGM_ALARM_B
Text HLabel 8800 3850 0    50   Output ~ 0
MGM_PWR_GOOD_A
Wire Wire Line
	8950 4050 9000 4050
Wire Wire Line
	8800 3550 9000 3550
Wire Wire Line
	8800 3750 9000 3750
Wire Wire Line
	8800 3850 9000 3850
Wire Wire Line
	8800 3950 9000 3950
Text Notes 8700 3400 0    59   ~ 0
OTHERS
Wire Wire Line
	8950 4100 8950 4050
$Comp
L power:GND #PWR083
U 1 1 60A56439
P 8950 4100
F 0 "#PWR083" H 8950 3850 50  0001 C CNN
F 1 "GND" H 8955 3927 50  0000 C CNN
F 2 "" H 8950 4100 50  0001 C CNN
F 3 "" H 8950 4100 50  0001 C CNN
	1    8950 4100
	1    0    0    -1  
$EndComp
Text HLabel 8800 3550 0    50   Input ~ 0
PYLD_RST
$Comp
L Connector_Generic:Conn_01x06 J16
U 1 1 60A5F133
P 9200 3750
F 0 "J16" H 9200 4050 50  0000 L CNN
F 1 "Conn_01x06" H 9280 3651 50  0001 L CNN
F 2 "Connector_PinHeader_2.54mm:PinHeader_1x06_P2.54mm_Vertical" H 9200 3750 50  0001 C CNN
F 3 "~" H 9200 3750 50  0001 C CNN
	1    9200 3750
	1    0    0    -1  
$EndComp
Wire Wire Line
	9000 3650 8800 3650
Text HLabel 8800 3950 0    50   Output ~ 0
MGM_PWR_GOOD_B
Text Notes 4050 3350 0    59   ~ 0
12V Enable
$Comp
L Connector_Generic:Conn_02x07_Odd_Even J18
U 1 1 5F71BB35
P 6550 4550
F 0 "J18" H 6600 4975 50  0000 C CNN
F 1 "Conn_02x07_Odd_Even" H 6600 4976 50  0001 C CNN
F 2 "dimm_breakout:IDC-Header_2x07_P1.27mm_Vertical" H 6550 4550 50  0001 C CNN
F 3 "~" H 6550 4550 50  0001 C CNN
F 4 "CNC Tech" H 6550 4550 50  0001 C CNN "manf"
F 5 "3220-14-0100-00" H 6550 4550 50  0001 C CNN "manf#"
	1    6550 4550
	1    0    0    -1  
$EndComp
NoConn ~ 6850 4250
NoConn ~ 6350 4250
Wire Wire Line
	6850 4350 7100 4350
Wire Wire Line
	6850 4450 7100 4450
Wire Wire Line
	6850 4550 7100 4550
Wire Wire Line
	6850 4650 7100 4650
NoConn ~ 6850 4750
$Comp
L power:GND #PWR090
U 1 1 5F76401B
P 6250 4900
F 0 "#PWR090" H 6250 4650 50  0001 C CNN
F 1 "GND" H 6255 4727 50  0000 C CNN
F 2 "" H 6250 4900 50  0001 C CNN
F 3 "" H 6250 4900 50  0001 C CNN
	1    6250 4900
	1    0    0    -1  
$EndComp
Wire Wire Line
	6350 4450 6250 4450
Wire Wire Line
	6250 4450 6250 4550
Wire Wire Line
	6350 4550 6250 4550
Connection ~ 6250 4550
Wire Wire Line
	6250 4550 6250 4750
Wire Wire Line
	6350 4750 6250 4750
Connection ~ 6250 4750
Wire Wire Line
	6250 4750 6250 4900
$Comp
L Device:R R7
U 1 1 5F788BE8
P 5950 4350
F 0 "R7" V 6050 4350 50  0000 C CNN
F 1 "0R" V 5850 4350 50  0000 C CNN
F 2 "Resistor_SMD:R_0402_1005Metric" V 5880 4350 50  0001 C CNN
F 3 "~" H 5950 4350 50  0001 C CNN
F 4 "DNP" V 5950 4350 50  0000 C CNN "DNP"
	1    5950 4350
	0    1    -1   0   
$EndComp
$Comp
L power:+3V3 #PWR?
U 1 1 5F78DB3E
P 5700 4250
AR Path="/5F68D36E/5F78DB3E" Ref="#PWR?"  Part="1" 
AR Path="/5F644FE7/5F78DB3E" Ref="#PWR09"  Part="1" 
F 0 "#PWR09" H 5700 4100 50  0001 C CNN
F 1 "+3V3" H 5715 4378 50  0000 L CNN
F 2 "" H 5700 4250 50  0001 C CNN
F 3 "" H 5700 4250 50  0001 C CNN
	1    5700 4250
	1    0    0    -1  
$EndComp
Wire Wire Line
	6100 4350 6350 4350
Wire Wire Line
	5800 4350 5700 4350
Wire Wire Line
	5700 4350 5700 4250
Text HLabel 7100 4850 2    50   Input ~ 0
UART0_TX
Text HLabel 5700 4850 0    50   Output ~ 0
UART0_RX
Wire Wire Line
	6100 4850 6350 4850
Wire Wire Line
	6850 4850 7100 4850
NoConn ~ 6350 4650
$Comp
L Device:R R8
U 1 1 5F7E707F
P 5950 4850
F 0 "R8" V 6050 4800 50  0000 L CNN
F 1 "1k" V 5850 4800 50  0000 L CNN
F 2 "Resistor_SMD:R_0402_1005Metric" V 5880 4850 50  0001 C CNN
F 3 "~" H 5950 4850 50  0001 C CNN
	1    5950 4850
	0    -1   -1   0   
$EndComp
Text Notes 6400 3800 0    59   ~ 0
STDC14
Wire Wire Line
	5700 4850 5800 4850
Wire Wire Line
	6500 1550 6700 1550
Wire Wire Line
	6700 1250 6100 1250
Wire Wire Line
	5550 1250 6100 1250
Connection ~ 6100 1250
Wire Wire Line
	5700 1450 6700 1450
Wire Wire Line
	5550 2300 5550 1250
Wire Wire Line
	5250 2300 5550 2300
Text HLabel 5250 2300 0    50   Output ~ 0
USB_VBUS
Wire Wire Line
	6100 1250 6100 1500
$Comp
L power:GND #PWR081
U 1 1 5F771398
P 6100 2300
F 0 "#PWR081" H 6100 2050 50  0001 C CNN
F 1 "GND" H 6200 2200 50  0000 C CNN
F 2 "" H 6100 2300 50  0001 C CNN
F 3 "" H 6100 2300 50  0001 C CNN
	1    6100 2300
	1    0    0    -1  
$EndComp
Wire Wire Line
	5700 2400 5250 2400
Wire Wire Line
	5700 2000 5700 2400
Wire Wire Line
	5700 1450 5700 1800
Wire Wire Line
	6500 2500 5250 2500
Wire Wire Line
	6500 2000 6500 2500
Wire Wire Line
	6500 1800 6500 1550
$Comp
L Power_Protection:USBLC6-2P6 U2
U 1 1 5F744010
P 6100 1900
F 0 "U2" H 6350 2250 50  0000 C CNN
F 1 "USBLC6-2P6" H 6400 1550 50  0000 C CNN
F 2 "Package_TO_SOT_SMD:SOT-666" H 6100 1400 50  0001 C CNN
F 3 "https://www.st.com/resource/en/datasheet/usblc6-2.pdf" H 6300 2250 50  0001 C CNN
F 4 "STMicroelectronics" H 6100 1900 50  0001 C CNN "manf"
F 5 "USBLC6-2P6" H 6100 1900 50  0001 C CNN "manf#"
	1    6100 1900
	1    0    0    -1  
$EndComp
Text HLabel 5250 2400 0    50   BiDi ~ 0
USB_DP
Text HLabel 5250 2500 0    50   BiDi ~ 0
USB_DN
$Comp
L Connector_Generic:Conn_01x04 J21
U 1 1 5F748BFB
P 7650 6050
F 0 "J21" H 7650 6250 50  0000 L CNN
F 1 "Conn_01x04" H 7730 5951 50  0001 L CNN
F 2 "Connector_PinHeader_2.54mm:PinHeader_1x04_P2.54mm_Vertical" H 7650 6050 50  0001 C CNN
F 3 "~" H 7650 6050 50  0001 C CNN
	1    7650 6050
	1    0    0    -1  
$EndComp
$Comp
L Connector_Generic:Conn_01x04 J22
U 1 1 5F74B172
P 9200 6050
F 0 "J22" H 9200 6250 50  0000 L CNN
F 1 "Conn_01x04" H 9280 5951 50  0001 L CNN
F 2 "Connector_PinHeader_2.54mm:PinHeader_1x04_P2.54mm_Vertical" H 9200 6050 50  0001 C CNN
F 3 "~" H 9200 6050 50  0001 C CNN
	1    9200 6050
	1    0    0    -1  
$EndComp
$Comp
L Connector_Generic:Conn_01x04 J23
U 1 1 5F74B7E6
P 10750 6050
F 0 "J23" H 10750 6250 50  0000 L CNN
F 1 "Conn_01x04" H 10830 5951 50  0001 L CNN
F 2 "Connector_PinHeader_2.54mm:PinHeader_1x04_P2.54mm_Vertical" H 10750 6050 50  0001 C CNN
F 3 "~" H 10750 6050 50  0001 C CNN
	1    10750 6050
	1    0    0    -1  
$EndComp
$Comp
L power:+3V3 #PWR?
U 1 1 5F77511B
P 7450 6150
AR Path="/5F68D36E/5F77511B" Ref="#PWR?"  Part="1" 
AR Path="/5F644FE7/5F77511B" Ref="#PWR0104"  Part="1" 
F 0 "#PWR0104" H 7450 6000 50  0001 C CNN
F 1 "+3V3" V 7450 6300 50  0000 L CNN
F 2 "" H 7450 6150 50  0001 C CNN
F 3 "" H 7450 6150 50  0001 C CNN
	1    7450 6150
	0    -1   -1   0   
$EndComp
$Comp
L power:+3V3 #PWR?
U 1 1 5F77619D
P 9000 6150
AR Path="/5F68D36E/5F77619D" Ref="#PWR?"  Part="1" 
AR Path="/5F644FE7/5F77619D" Ref="#PWR0105"  Part="1" 
F 0 "#PWR0105" H 9000 6000 50  0001 C CNN
F 1 "+3V3" V 9000 6300 50  0000 L CNN
F 2 "" H 9000 6150 50  0001 C CNN
F 3 "" H 9000 6150 50  0001 C CNN
	1    9000 6150
	0    -1   -1   0   
$EndComp
$Comp
L power:+3V3 #PWR?
U 1 1 5F7766E7
P 10550 6150
AR Path="/5F68D36E/5F7766E7" Ref="#PWR?"  Part="1" 
AR Path="/5F644FE7/5F7766E7" Ref="#PWR0106"  Part="1" 
F 0 "#PWR0106" H 10550 6000 50  0001 C CNN
F 1 "+3V3" V 10550 6300 50  0000 L CNN
F 2 "" H 10550 6150 50  0001 C CNN
F 3 "" H 10550 6150 50  0001 C CNN
	1    10550 6150
	0    -1   -1   0   
$EndComp
$Comp
L dimm_breakout:AZ1117CH-3.3TRG1 U1
U 1 1 5F7DBD43
P 2800 1050
F 0 "U1" H 2800 1192 50  0000 C CNN
F 1 "AZ1117CH-3.3" H 2800 1101 50  0000 C CNN
F 2 "Package_TO_SOT_SMD:SOT-223-3_TabPin2" H 2750 850 50  0001 C CNN
F 3 "" H 2750 850 50  0001 C CNN
F 4 "Diodes Incorporated‎" H 2800 1050 50  0001 C CNN "manf"
F 5 "AZ1117CH-3.3" H 2800 1050 50  0001 C CNN "manf#"
F 6 "STMicroelectronics" H 2800 1050 50  0001 C CNN "manf2"
F 7 "LDL1117S33R" H 2800 1050 50  0001 C CNN "manf2#"
	1    2800 1050
	1    0    0    -1  
$EndComp
Wire Wire Line
	2450 1150 2150 1150
Connection ~ 2150 1150
Wire Wire Line
	3150 1150 3350 1150
Connection ~ 3350 1150
$Comp
L Device:C C1
U 1 1 5F832790
P 2150 1400
F 0 "C1" H 2265 1446 50  0000 L CNN
F 1 "10uF" H 2265 1355 50  0000 L CNN
F 2 "Capacitor_SMD:C_0603_1608Metric" H 2188 1250 50  0001 C CNN
F 3 "~" H 2150 1400 50  0001 C CNN
	1    2150 1400
	1    0    0    -1  
$EndComp
$Comp
L Device:C C2
U 1 1 5F834968
P 3350 1400
F 0 "C2" H 3465 1446 50  0000 L CNN
F 1 "10uF" H 3465 1355 50  0000 L CNN
F 2 "Capacitor_SMD:C_0603_1608Metric" H 3388 1250 50  0001 C CNN
F 3 "~" H 3350 1400 50  0001 C CNN
	1    3350 1400
	1    0    0    -1  
$EndComp
Wire Wire Line
	5700 1800 5700 2000
Connection ~ 5700 1800
Connection ~ 5700 2000
Wire Wire Line
	6500 1800 6500 2000
Connection ~ 6500 1800
Connection ~ 6500 2000
Text Label 1850 1150 0    50   ~ 0
VIN
Text Label 3500 1150 0    50   ~ 0
VOUT
$Comp
L Connector_Generic:Conn_02x05_Odd_Even J20
U 1 1 5F8E4B68
P 10700 5050
F 0 "J20" H 10750 5375 50  0000 C CNN
F 1 "Conn_02x05_Odd_Even" H 10750 5376 50  0001 C CNN
F 2 "Connector_PinHeader_2.54mm:PinHeader_2x05_P2.54mm_Vertical" H 10700 5050 50  0001 C CNN
F 3 "~" H 10700 5050 50  0001 C CNN
	1    10700 5050
	1    0    0    -1  
$EndComp
Wire Wire Line
	11000 4850 11100 4850
Wire Wire Line
	11100 4850 11100 4950
Wire Wire Line
	11000 4950 11100 4950
Connection ~ 11100 4950
Wire Wire Line
	11100 4950 11100 5050
Wire Wire Line
	11000 5050 11100 5050
Connection ~ 11100 5050
Wire Wire Line
	11100 5050 11100 5150
Wire Wire Line
	11000 5150 11100 5150
Connection ~ 11100 5150
Wire Wire Line
	11100 5150 11100 5250
Wire Wire Line
	11000 5250 11100 5250
Connection ~ 11100 5250
Wire Wire Line
	11100 5250 11100 5400
$Comp
L power:GND #PWR?
U 1 1 5F93BD19
P 11100 5400
F 0 "#PWR?" H 11100 5150 50  0001 C CNN
F 1 "GND" H 11105 5227 50  0000 C CNN
F 2 "" H 11100 5400 50  0001 C CNN
F 3 "" H 11100 5400 50  0001 C CNN
	1    11100 5400
	1    0    0    -1  
$EndComp
NoConn ~ 10500 5050
Wire Bus Line
	1350 3450 3250 3450
Wire Bus Line
	5150 6200 5150 7150
$EndSCHEMATC
