EESchema Schematic File Version 4
EELAYER 30 0
EELAYER END
$Descr A4 11693 8268
encoding utf-8
Sheet 2 4
Title "mini-DIMM Breakout Board"
Date "2020-10-06"
Rev "2020.10-01"
Comp ""
Comment1 "This project is a hardware support for OpenIPMC-HW development"
Comment2 ""
Comment3 ""
Comment4 ""
$EndDescr
Text HLabel 6700 700  0    50   BiDi ~ 0
AMC2_IO_[0..9]
Text HLabel 4000 1900 0    50   BiDi ~ 0
AMC4_IO_[0..9]
Text HLabel 1300 3100 0    50   BiDi ~ 0
AMC6_IO_[0..9]
Text HLabel 6700 3100 0    50   BiDi ~ 0
AMC8_IO_[0..9]
Text HLabel 4000 4300 0    50   BiDi ~ 0
IPM_[0..15]
Text HLabel 1300 4300 0    50   BiDi ~ 0
USR_IO_[0..34]
Text HLabel 4000 700  0    50   BiDi ~ 0
AMC1_IO_[0..9]
Text HLabel 1300 1900 0    50   BiDi ~ 0
AMC3_IO_[0..9]
Text HLabel 6700 1900 0    50   BiDi ~ 0
AMC5_IO_[0..9]
Text HLabel 4000 3100 0    50   BiDi ~ 0
AMC7_IO_[0..9]
$Comp
L Connector_Generic:Conn_02x06_Odd_Even J1
U 1 1 5F705F65
P 2300 1200
F 0 "J1" H 2350 1525 50  0000 C CNN
F 1 "Conn_02x06_Odd_Even" H 2350 1526 50  0001 C CNN
F 2 "Connector_PinHeader_2.54mm:PinHeader_2x06_P2.54mm_Vertical" H 2300 1200 50  0001 C CNN
F 3 "~" H 2300 1200 50  0001 C CNN
	1    2300 1200
	1    0    0    -1  
$EndComp
Text Label 1600 1000 0    50   ~ 0
AMC0_IO_0
Wire Wire Line
	2100 1000 1600 1000
Wire Wire Line
	2100 1100 1600 1100
Wire Wire Line
	2100 1200 1600 1200
Wire Wire Line
	2100 1300 1600 1300
Wire Wire Line
	2100 1400 1600 1400
Wire Wire Line
	2600 1000 3100 1000
Wire Wire Line
	2600 1100 3100 1100
Wire Wire Line
	2600 1200 3100 1200
Wire Wire Line
	2600 1300 3100 1300
Wire Wire Line
	2600 1400 3100 1400
$Comp
L Connector_Generic:Conn_02x06_Odd_Even J2
U 1 1 5F70FB16
P 5000 1200
F 0 "J2" H 5050 1525 50  0000 C CNN
F 1 "Conn_02x06_Odd_Even" H 5050 1526 50  0001 C CNN
F 2 "Connector_PinHeader_2.54mm:PinHeader_2x06_P2.54mm_Vertical" H 5000 1200 50  0001 C CNN
F 3 "~" H 5000 1200 50  0001 C CNN
	1    5000 1200
	1    0    0    -1  
$EndComp
Wire Wire Line
	4800 1000 4300 1000
Wire Wire Line
	4800 1100 4300 1100
Wire Wire Line
	4800 1200 4300 1200
Wire Wire Line
	4800 1300 4300 1300
Wire Wire Line
	4800 1400 4300 1400
Text Label 1600 1100 0    50   ~ 0
AMC0_IO_2
Text Label 1600 1200 0    50   ~ 0
AMC0_IO_4
Text Label 1600 1300 0    50   ~ 0
AMC0_IO_6
Text Label 1600 1400 0    50   ~ 0
AMC0_IO_8
Text Label 3100 1000 2    50   ~ 0
AMC0_IO_1
Text Label 3100 1200 2    50   ~ 0
AMC0_IO_5
Text Label 3100 1300 2    50   ~ 0
AMC0_IO_7
Text Label 3100 1400 2    50   ~ 0
AMC0_IO_9
Text Label 3100 1100 2    50   ~ 0
AMC0_IO_3
$Comp
L Connector_Generic:Conn_02x06_Odd_Even J3
U 1 1 5F7257B6
P 7700 1200
F 0 "J3" H 7750 1525 50  0000 C CNN
F 1 "Conn_02x06_Odd_Even" H 7750 1526 50  0001 C CNN
F 2 "Connector_PinHeader_2.54mm:PinHeader_2x06_P2.54mm_Vertical" H 7700 1200 50  0001 C CNN
F 3 "~" H 7700 1200 50  0001 C CNN
	1    7700 1200
	1    0    0    -1  
$EndComp
Wire Wire Line
	7500 1000 7000 1000
Wire Wire Line
	7500 1100 7000 1100
Wire Wire Line
	7500 1200 7000 1200
Wire Wire Line
	7500 1300 7000 1300
Wire Wire Line
	7500 1400 7000 1400
Wire Wire Line
	8000 1000 8500 1000
Wire Wire Line
	8000 1100 8500 1100
Wire Wire Line
	8000 1200 8500 1200
Wire Wire Line
	8000 1300 8500 1300
Wire Wire Line
	8000 1400 8500 1400
$Comp
L Connector_Generic:Conn_02x06_Odd_Even J4
U 1 1 5F72B3D0
P 2300 2400
F 0 "J4" H 2350 2725 50  0000 C CNN
F 1 "Conn_02x06_Odd_Even" H 2350 2726 50  0001 C CNN
F 2 "Connector_PinHeader_2.54mm:PinHeader_2x06_P2.54mm_Vertical" H 2300 2400 50  0001 C CNN
F 3 "~" H 2300 2400 50  0001 C CNN
	1    2300 2400
	1    0    0    -1  
$EndComp
Wire Wire Line
	2100 2200 1600 2200
Wire Wire Line
	2100 2300 1600 2300
Wire Wire Line
	2100 2400 1600 2400
Wire Wire Line
	2100 2500 1600 2500
Wire Wire Line
	2100 2600 1600 2600
Wire Wire Line
	2600 2200 3100 2200
Wire Wire Line
	2600 2300 3100 2300
Wire Wire Line
	2600 2400 3100 2400
Wire Wire Line
	2600 2500 3100 2500
Wire Wire Line
	2600 2600 3100 2600
$Comp
L Connector_Generic:Conn_02x06_Odd_Even J5
U 1 1 5F72B3E2
P 5000 2400
F 0 "J5" H 5050 2725 50  0000 C CNN
F 1 "Conn_02x06_Odd_Even" H 5050 2726 50  0001 C CNN
F 2 "Connector_PinHeader_2.54mm:PinHeader_2x06_P2.54mm_Vertical" H 5000 2400 50  0001 C CNN
F 3 "~" H 5000 2400 50  0001 C CNN
	1    5000 2400
	1    0    0    -1  
$EndComp
Wire Wire Line
	4800 2200 4300 2200
Wire Wire Line
	4800 2300 4300 2300
Wire Wire Line
	4800 2400 4300 2400
Wire Wire Line
	4800 2500 4300 2500
Wire Wire Line
	4800 2600 4300 2600
Wire Wire Line
	5300 2200 5800 2200
Wire Wire Line
	5300 2300 5800 2300
Wire Wire Line
	5300 2400 5800 2400
Wire Wire Line
	5300 2500 5800 2500
Wire Wire Line
	5300 2600 5800 2600
$Comp
L Connector_Generic:Conn_02x06_Odd_Even J6
U 1 1 5F736802
P 7700 2400
F 0 "J6" H 7750 2725 50  0000 C CNN
F 1 "Conn_02x06_Odd_Even" H 7750 2726 50  0001 C CNN
F 2 "Connector_PinHeader_2.54mm:PinHeader_2x06_P2.54mm_Vertical" H 7700 2400 50  0001 C CNN
F 3 "~" H 7700 2400 50  0001 C CNN
	1    7700 2400
	1    0    0    -1  
$EndComp
Wire Wire Line
	7500 2200 7000 2200
Wire Wire Line
	7500 2300 7000 2300
Wire Wire Line
	7500 2400 7000 2400
Wire Wire Line
	7500 2500 7000 2500
Wire Wire Line
	7500 2600 7000 2600
Wire Wire Line
	8000 2200 8500 2200
Wire Wire Line
	8000 2300 8500 2300
Wire Wire Line
	8000 2400 8500 2400
Wire Wire Line
	8000 2500 8500 2500
Wire Wire Line
	8000 2600 8500 2600
$Comp
L Connector_Generic:Conn_02x06_Odd_Even J7
U 1 1 5F736814
P 2300 3600
F 0 "J7" H 2350 3925 50  0000 C CNN
F 1 "Conn_02x06_Odd_Even" H 2350 3926 50  0001 C CNN
F 2 "Connector_PinHeader_2.54mm:PinHeader_2x06_P2.54mm_Vertical" H 2300 3600 50  0001 C CNN
F 3 "~" H 2300 3600 50  0001 C CNN
	1    2300 3600
	1    0    0    -1  
$EndComp
Wire Wire Line
	2100 3400 1600 3400
Wire Wire Line
	2100 3500 1600 3500
Wire Wire Line
	2100 3600 1600 3600
Wire Wire Line
	2100 3700 1600 3700
Wire Wire Line
	2100 3800 1600 3800
Wire Wire Line
	2600 3400 3100 3400
Wire Wire Line
	2600 3500 3100 3500
Wire Wire Line
	2600 3600 3100 3600
Wire Wire Line
	2600 3700 3100 3700
Wire Wire Line
	2600 3800 3100 3800
$Comp
L Connector_Generic:Conn_02x06_Odd_Even J8
U 1 1 5F736826
P 5000 3600
F 0 "J8" H 5050 3925 50  0000 C CNN
F 1 "Conn_02x06_Odd_Even" H 5050 3926 50  0001 C CNN
F 2 "Connector_PinHeader_2.54mm:PinHeader_2x06_P2.54mm_Vertical" H 5000 3600 50  0001 C CNN
F 3 "~" H 5000 3600 50  0001 C CNN
	1    5000 3600
	1    0    0    -1  
$EndComp
Wire Wire Line
	4800 3400 4300 3400
Wire Wire Line
	4800 3500 4300 3500
Wire Wire Line
	4800 3600 4300 3600
Wire Wire Line
	4800 3700 4300 3700
Wire Wire Line
	4800 3800 4300 3800
Wire Wire Line
	5300 3400 5800 3400
Wire Wire Line
	5300 3500 5800 3500
Wire Wire Line
	5300 3600 5800 3600
Wire Wire Line
	5300 3700 5800 3700
Wire Wire Line
	5300 3800 5800 3800
$Comp
L Connector_Generic:Conn_02x06_Odd_Even J9
U 1 1 5F736838
P 7700 3600
F 0 "J9" H 7750 3925 50  0000 C CNN
F 1 "Conn_02x06_Odd_Even" H 7750 3926 50  0001 C CNN
F 2 "Connector_PinHeader_2.54mm:PinHeader_2x06_P2.54mm_Vertical" H 7700 3600 50  0001 C CNN
F 3 "~" H 7700 3600 50  0001 C CNN
	1    7700 3600
	1    0    0    -1  
$EndComp
Wire Wire Line
	7500 3400 7000 3400
Wire Wire Line
	7500 3500 7000 3500
Wire Wire Line
	7500 3600 7000 3600
Wire Wire Line
	7500 3700 7000 3700
Wire Wire Line
	7500 3800 7000 3800
Wire Wire Line
	8000 3400 8500 3400
Wire Wire Line
	8000 3500 8500 3500
Wire Wire Line
	8000 3600 8500 3600
Wire Wire Line
	8000 3700 8500 3700
Wire Wire Line
	8000 3800 8500 3800
$Comp
L power:GND #PWR?
U 1 1 5F742244
P 2100 1550
AR Path="/5F68D36E/5F742244" Ref="#PWR?"  Part="1" 
AR Path="/5F6CEABD/5F742244" Ref="#PWR026"  Part="1" 
F 0 "#PWR026" H 2100 1300 50  0001 C CNN
F 1 "GND" H 2180 1400 50  0000 R CNN
F 2 "" H 2100 1550 50  0001 C CNN
F 3 "" H 2100 1550 50  0001 C CNN
	1    2100 1550
	1    0    0    -1  
$EndComp
Wire Wire Line
	2100 1500 2100 1550
$Comp
L power:GND #PWR?
U 1 1 5F74FB25
P 2600 1550
AR Path="/5F68D36E/5F74FB25" Ref="#PWR?"  Part="1" 
AR Path="/5F6CEABD/5F74FB25" Ref="#PWR027"  Part="1" 
F 0 "#PWR027" H 2600 1300 50  0001 C CNN
F 1 "GND" H 2680 1400 50  0000 R CNN
F 2 "" H 2600 1550 50  0001 C CNN
F 3 "" H 2600 1550 50  0001 C CNN
	1    2600 1550
	1    0    0    -1  
$EndComp
Wire Wire Line
	2600 1550 2600 1500
Text Label 5800 1000 2    50   ~ 0
AMC1_IO_1
Text Label 5800 1100 2    50   ~ 0
AMC1_IO_3
Text Label 5800 1200 2    50   ~ 0
AMC1_IO_5
Text Label 5800 1300 2    50   ~ 0
AMC1_IO_7
Text Label 5800 1400 2    50   ~ 0
AMC1_IO_9
Text Label 8500 1000 2    50   ~ 0
AMC2_IO_1
Text Label 8500 1100 2    50   ~ 0
AMC2_IO_3
Text Label 8500 1200 2    50   ~ 0
AMC2_IO_5
Text Label 8500 1300 2    50   ~ 0
AMC2_IO_7
Text Label 8500 1400 2    50   ~ 0
AMC2_IO_9
Text Label 3100 2200 2    50   ~ 0
AMC3_IO_1
Text Label 3100 2300 2    50   ~ 0
AMC3_IO_3
Text Label 3100 2400 2    50   ~ 0
AMC3_IO_5
Text Label 3100 2500 2    50   ~ 0
AMC3_IO_7
Text Label 3100 2600 2    50   ~ 0
AMC3_IO_9
Text Label 5800 2200 2    50   ~ 0
AMC4_IO_1
Text Label 5800 2300 2    50   ~ 0
AMC4_IO_3
Text Label 5800 2400 2    50   ~ 0
AMC4_IO_5
Text Label 5800 2500 2    50   ~ 0
AMC4_IO_7
Text Label 5800 2600 2    50   ~ 0
AMC4_IO_9
Text Label 8500 2200 2    50   ~ 0
AMC5_IO_1
Text Label 8500 2300 2    50   ~ 0
AMC5_IO_3
Text Label 8500 2400 2    50   ~ 0
AMC5_IO_5
Text Label 8500 2500 2    50   ~ 0
AMC5_IO_7
Text Label 8500 2600 2    50   ~ 0
AMC5_IO_9
Text Label 3100 3400 2    50   ~ 0
AMC6_IO_1
Text Label 3100 3500 2    50   ~ 0
AMC6_IO_3
Text Label 3100 3600 2    50   ~ 0
AMC6_IO_5
Text Label 3100 3700 2    50   ~ 0
AMC6_IO_7
Text Label 3100 3800 2    50   ~ 0
AMC6_IO_9
Text Label 5800 3400 2    50   ~ 0
AMC7_IO_1
Text Label 5800 3500 2    50   ~ 0
AMC7_IO_3
Text Label 5800 3600 2    50   ~ 0
AMC7_IO_5
Text Label 5800 3700 2    50   ~ 0
AMC7_IO_7
Text Label 5800 3800 2    50   ~ 0
AMC7_IO_9
Text Label 8500 3400 2    50   ~ 0
AMC8_IO_1
Text Label 8500 3500 2    50   ~ 0
AMC8_IO_3
Text Label 8500 3600 2    50   ~ 0
AMC8_IO_5
Text Label 8500 3700 2    50   ~ 0
AMC8_IO_7
Text Label 8500 3800 2    50   ~ 0
AMC8_IO_9
Text Label 4300 1000 0    50   ~ 0
AMC1_IO_0
Text Label 4300 1100 0    50   ~ 0
AMC1_IO_2
Text Label 4300 1200 0    50   ~ 0
AMC1_IO_4
Text Label 4300 1300 0    50   ~ 0
AMC1_IO_6
Text Label 4300 1400 0    50   ~ 0
AMC1_IO_8
Text Label 7000 1000 0    50   ~ 0
AMC2_IO_0
Text Label 7000 1100 0    50   ~ 0
AMC2_IO_2
Text Label 7000 1200 0    50   ~ 0
AMC2_IO_4
Text Label 7000 1300 0    50   ~ 0
AMC2_IO_6
Text Label 7000 1400 0    50   ~ 0
AMC2_IO_8
Text Label 1600 2200 0    50   ~ 0
AMC3_IO_0
Text Label 1600 2300 0    50   ~ 0
AMC3_IO_2
Text Label 1600 2400 0    50   ~ 0
AMC3_IO_4
Text Label 1600 2500 0    50   ~ 0
AMC3_IO_6
Text Label 1600 2600 0    50   ~ 0
AMC3_IO_8
Text Label 4300 2200 0    50   ~ 0
AMC4_IO_0
Text Label 4300 2300 0    50   ~ 0
AMC4_IO_2
Text Label 4300 2400 0    50   ~ 0
AMC4_IO_4
Text Label 4300 2500 0    50   ~ 0
AMC4_IO_6
Text Label 4300 2600 0    50   ~ 0
AMC4_IO_8
Text Label 7000 2200 0    50   ~ 0
AMC5_IO_0
Text Label 7000 2300 0    50   ~ 0
AMC5_IO_2
Text Label 7000 2400 0    50   ~ 0
AMC5_IO_4
Text Label 7000 2500 0    50   ~ 0
AMC5_IO_6
Text Label 7000 2600 0    50   ~ 0
AMC5_IO_8
Text Label 1600 3400 0    50   ~ 0
AMC6_IO_0
Text Label 1600 3500 0    50   ~ 0
AMC6_IO_2
Text Label 1600 3600 0    50   ~ 0
AMC6_IO_4
Text Label 1600 3700 0    50   ~ 0
AMC6_IO_6
Text Label 1600 3800 0    50   ~ 0
AMC6_IO_8
Text Label 4300 3500 0    50   ~ 0
AMC7_IO_2
Text Label 4300 3600 0    50   ~ 0
AMC7_IO_4
Text Label 4300 3700 0    50   ~ 0
AMC7_IO_6
Text Label 4300 3800 0    50   ~ 0
AMC7_IO_8
Text Label 7000 3400 0    50   ~ 0
AMC8_IO_0
Text Label 7000 3500 0    50   ~ 0
AMC8_IO_2
Text Label 7000 3600 0    50   ~ 0
AMC8_IO_4
Text Label 7000 3700 0    50   ~ 0
AMC8_IO_6
Text Label 7000 3800 0    50   ~ 0
AMC8_IO_8
Text Label 4300 3400 0    50   ~ 0
AMC7_IO_0
Text HLabel 1300 700  0    50   BiDi ~ 0
AMC0_IO_[0..9]
Entry Wire Line
	3100 1000 3200 900 
Entry Wire Line
	3100 1100 3200 1000
Entry Wire Line
	3100 1200 3200 1100
Entry Wire Line
	3100 1300 3200 1200
Entry Wire Line
	3100 1400 3200 1300
Entry Wire Line
	1500 900  1600 1000
Entry Wire Line
	1500 1000 1600 1100
Entry Wire Line
	1500 1100 1600 1200
Entry Wire Line
	1500 1200 1600 1300
Entry Wire Line
	1500 1300 1600 1400
Entry Bus Bus
	1400 700  1500 800 
Entry Wire Line
	3100 2200 3200 2100
Entry Wire Line
	3100 2300 3200 2200
Entry Wire Line
	3100 2400 3200 2300
Entry Wire Line
	3100 2500 3200 2400
Entry Wire Line
	3100 2600 3200 2500
Entry Wire Line
	1500 2100 1600 2200
Entry Wire Line
	1500 2200 1600 2300
Entry Wire Line
	1500 2300 1600 2400
Entry Wire Line
	1500 2400 1600 2500
Entry Wire Line
	1500 2500 1600 2600
Entry Bus Bus
	1400 1900 1500 2000
$Comp
L power:GND #PWR?
U 1 1 5FBB70D7
P 2600 2750
AR Path="/5F68D36E/5FBB70D7" Ref="#PWR?"  Part="1" 
AR Path="/5F6CEABD/5FBB70D7" Ref="#PWR033"  Part="1" 
F 0 "#PWR033" H 2600 2500 50  0001 C CNN
F 1 "GND" H 2680 2600 50  0000 R CNN
F 2 "" H 2600 2750 50  0001 C CNN
F 3 "" H 2600 2750 50  0001 C CNN
	1    2600 2750
	1    0    0    -1  
$EndComp
Wire Wire Line
	2600 2750 2600 2700
Wire Wire Line
	5300 1400 5800 1400
Wire Wire Line
	5300 1300 5800 1300
Wire Wire Line
	5300 1200 5800 1200
Wire Wire Line
	5300 1100 5800 1100
Wire Wire Line
	5300 1000 5800 1000
Entry Wire Line
	5800 1000 5900 900 
Entry Wire Line
	5800 1100 5900 1000
Entry Wire Line
	5800 1200 5900 1100
Entry Wire Line
	5800 1300 5900 1200
Entry Wire Line
	5800 1400 5900 1300
Entry Wire Line
	4200 900  4300 1000
Entry Wire Line
	4200 1000 4300 1100
Entry Wire Line
	4200 1100 4300 1200
Entry Wire Line
	4200 1200 4300 1300
Entry Wire Line
	4200 1300 4300 1400
Entry Bus Bus
	4100 700  4200 800 
Entry Wire Line
	8500 1400 8600 1300
Entry Wire Line
	8500 1300 8600 1200
Entry Wire Line
	8500 1200 8600 1100
Entry Wire Line
	8500 1100 8600 1000
Entry Wire Line
	8500 1000 8600 900 
Entry Wire Line
	8500 2600 8600 2500
Entry Wire Line
	8500 2500 8600 2400
Entry Wire Line
	8500 2400 8600 2300
Entry Wire Line
	8500 2300 8600 2200
Entry Wire Line
	8500 2200 8600 2100
Entry Wire Line
	8500 3800 8600 3700
Entry Wire Line
	8500 3700 8600 3600
Entry Wire Line
	8500 3600 8600 3500
Entry Wire Line
	8500 3500 8600 3400
Entry Wire Line
	8500 3400 8600 3300
Entry Wire Line
	5800 3800 5900 3700
Entry Wire Line
	5800 3700 5900 3600
Entry Wire Line
	5800 3600 5900 3500
Entry Wire Line
	5800 3500 5900 3400
Entry Wire Line
	5800 3400 5900 3300
Entry Wire Line
	5800 2600 5900 2500
Entry Wire Line
	5800 2500 5900 2400
Entry Wire Line
	5800 2400 5900 2300
Entry Wire Line
	5800 2300 5900 2200
Entry Wire Line
	5800 2200 5900 2100
Entry Wire Line
	4200 2100 4300 2200
Entry Wire Line
	4200 2200 4300 2300
Entry Wire Line
	4200 2300 4300 2400
Entry Wire Line
	4200 2400 4300 2500
Entry Wire Line
	4200 2500 4300 2600
Entry Wire Line
	4200 3300 4300 3400
Entry Wire Line
	4200 3400 4300 3500
Entry Wire Line
	4200 3500 4300 3600
Entry Wire Line
	4200 3600 4300 3700
Entry Wire Line
	4200 3700 4300 3800
Entry Wire Line
	1500 3300 1600 3400
Entry Wire Line
	1500 3400 1600 3500
Entry Wire Line
	1500 3500 1600 3600
Entry Wire Line
	1500 3600 1600 3700
Entry Wire Line
	1500 3700 1600 3800
Entry Wire Line
	6900 3300 7000 3400
Entry Wire Line
	6900 3400 7000 3500
Entry Wire Line
	6900 3500 7000 3600
Entry Wire Line
	6900 3600 7000 3700
Entry Wire Line
	6900 3700 7000 3800
Entry Wire Line
	6900 2100 7000 2200
Entry Wire Line
	6900 2200 7000 2300
Entry Wire Line
	6900 2300 7000 2400
Entry Wire Line
	6900 2400 7000 2500
Entry Wire Line
	6900 2500 7000 2600
Entry Wire Line
	6900 900  7000 1000
Entry Wire Line
	6900 1000 7000 1100
Entry Wire Line
	6900 1100 7000 1200
Entry Wire Line
	6900 1200 7000 1300
Entry Wire Line
	6900 1300 7000 1400
Entry Wire Line
	3100 3800 3200 3700
Entry Wire Line
	3100 3700 3200 3600
Entry Wire Line
	3100 3600 3200 3500
Entry Wire Line
	3100 3500 3200 3400
Entry Wire Line
	3100 3400 3200 3300
Entry Bus Bus
	1400 3100 1500 3200
Entry Bus Bus
	4100 3100 4200 3200
Entry Bus Bus
	4100 1900 4200 2000
Entry Bus Bus
	6800 1900 6900 2000
Entry Bus Bus
	6800 3100 6900 3200
Entry Bus Bus
	6800 700  6900 800 
$Comp
L power:GND #PWR?
U 1 1 5FD921E0
P 4800 1550
AR Path="/5F68D36E/5FD921E0" Ref="#PWR?"  Part="1" 
AR Path="/5F6CEABD/5FD921E0" Ref="#PWR028"  Part="1" 
F 0 "#PWR028" H 4800 1300 50  0001 C CNN
F 1 "GND" H 4880 1400 50  0000 R CNN
F 2 "" H 4800 1550 50  0001 C CNN
F 3 "" H 4800 1550 50  0001 C CNN
	1    4800 1550
	1    0    0    -1  
$EndComp
Wire Wire Line
	4800 1550 4800 1500
$Comp
L power:GND #PWR?
U 1 1 5FD98750
P 5300 1550
AR Path="/5F68D36E/5FD98750" Ref="#PWR?"  Part="1" 
AR Path="/5F6CEABD/5FD98750" Ref="#PWR029"  Part="1" 
F 0 "#PWR029" H 5300 1300 50  0001 C CNN
F 1 "GND" H 5380 1400 50  0000 R CNN
F 2 "" H 5300 1550 50  0001 C CNN
F 3 "" H 5300 1550 50  0001 C CNN
	1    5300 1550
	1    0    0    -1  
$EndComp
Wire Wire Line
	5300 1550 5300 1500
$Comp
L power:GND #PWR?
U 1 1 5FD9EBC3
P 4800 2750
AR Path="/5F68D36E/5FD9EBC3" Ref="#PWR?"  Part="1" 
AR Path="/5F6CEABD/5FD9EBC3" Ref="#PWR034"  Part="1" 
F 0 "#PWR034" H 4800 2500 50  0001 C CNN
F 1 "GND" H 4880 2600 50  0000 R CNN
F 2 "" H 4800 2750 50  0001 C CNN
F 3 "" H 4800 2750 50  0001 C CNN
	1    4800 2750
	1    0    0    -1  
$EndComp
Wire Wire Line
	4800 2750 4800 2700
$Comp
L power:GND #PWR?
U 1 1 5FDA512B
P 5300 2750
AR Path="/5F68D36E/5FDA512B" Ref="#PWR?"  Part="1" 
AR Path="/5F6CEABD/5FDA512B" Ref="#PWR035"  Part="1" 
F 0 "#PWR035" H 5300 2500 50  0001 C CNN
F 1 "GND" H 5380 2600 50  0000 R CNN
F 2 "" H 5300 2750 50  0001 C CNN
F 3 "" H 5300 2750 50  0001 C CNN
	1    5300 2750
	1    0    0    -1  
$EndComp
Wire Wire Line
	5300 2750 5300 2700
$Comp
L power:GND #PWR?
U 1 1 5FDB1E43
P 7500 1550
AR Path="/5F68D36E/5FDB1E43" Ref="#PWR?"  Part="1" 
AR Path="/5F6CEABD/5FDB1E43" Ref="#PWR030"  Part="1" 
F 0 "#PWR030" H 7500 1300 50  0001 C CNN
F 1 "GND" H 7580 1400 50  0000 R CNN
F 2 "" H 7500 1550 50  0001 C CNN
F 3 "" H 7500 1550 50  0001 C CNN
	1    7500 1550
	1    0    0    -1  
$EndComp
Wire Wire Line
	7500 1550 7500 1500
$Comp
L power:GND #PWR?
U 1 1 5FDBF204
P 8000 1550
AR Path="/5F68D36E/5FDBF204" Ref="#PWR?"  Part="1" 
AR Path="/5F6CEABD/5FDBF204" Ref="#PWR031"  Part="1" 
F 0 "#PWR031" H 8000 1300 50  0001 C CNN
F 1 "GND" H 8080 1400 50  0000 R CNN
F 2 "" H 8000 1550 50  0001 C CNN
F 3 "" H 8000 1550 50  0001 C CNN
	1    8000 1550
	1    0    0    -1  
$EndComp
Wire Wire Line
	8000 1550 8000 1500
$Comp
L power:GND #PWR?
U 1 1 5FDC781A
P 7500 2750
AR Path="/5F68D36E/5FDC781A" Ref="#PWR?"  Part="1" 
AR Path="/5F6CEABD/5FDC781A" Ref="#PWR036"  Part="1" 
F 0 "#PWR036" H 7500 2500 50  0001 C CNN
F 1 "GND" H 7580 2600 50  0000 R CNN
F 2 "" H 7500 2750 50  0001 C CNN
F 3 "" H 7500 2750 50  0001 C CNN
	1    7500 2750
	1    0    0    -1  
$EndComp
Wire Wire Line
	7500 2750 7500 2700
$Comp
L power:GND #PWR?
U 1 1 5FDD4BCE
P 8000 2750
AR Path="/5F68D36E/5FDD4BCE" Ref="#PWR?"  Part="1" 
AR Path="/5F6CEABD/5FDD4BCE" Ref="#PWR037"  Part="1" 
F 0 "#PWR037" H 8000 2500 50  0001 C CNN
F 1 "GND" H 8080 2600 50  0000 R CNN
F 2 "" H 8000 2750 50  0001 C CNN
F 3 "" H 8000 2750 50  0001 C CNN
	1    8000 2750
	1    0    0    -1  
$EndComp
Wire Wire Line
	8000 2750 8000 2700
$Comp
L power:GND #PWR?
U 1 1 5FDDB676
P 7500 3950
AR Path="/5F68D36E/5FDDB676" Ref="#PWR?"  Part="1" 
AR Path="/5F6CEABD/5FDDB676" Ref="#PWR042"  Part="1" 
F 0 "#PWR042" H 7500 3700 50  0001 C CNN
F 1 "GND" H 7580 3800 50  0000 R CNN
F 2 "" H 7500 3950 50  0001 C CNN
F 3 "" H 7500 3950 50  0001 C CNN
	1    7500 3950
	1    0    0    -1  
$EndComp
Wire Wire Line
	7500 3950 7500 3900
$Comp
L power:GND #PWR?
U 1 1 5FDE1F9A
P 8000 3950
AR Path="/5F68D36E/5FDE1F9A" Ref="#PWR?"  Part="1" 
AR Path="/5F6CEABD/5FDE1F9A" Ref="#PWR043"  Part="1" 
F 0 "#PWR043" H 8000 3700 50  0001 C CNN
F 1 "GND" H 8080 3800 50  0000 R CNN
F 2 "" H 8000 3950 50  0001 C CNN
F 3 "" H 8000 3950 50  0001 C CNN
	1    8000 3950
	1    0    0    -1  
$EndComp
Wire Wire Line
	8000 3950 8000 3900
$Comp
L power:GND #PWR?
U 1 1 5FDE89D7
P 5300 3950
AR Path="/5F68D36E/5FDE89D7" Ref="#PWR?"  Part="1" 
AR Path="/5F6CEABD/5FDE89D7" Ref="#PWR041"  Part="1" 
F 0 "#PWR041" H 5300 3700 50  0001 C CNN
F 1 "GND" H 5380 3800 50  0000 R CNN
F 2 "" H 5300 3950 50  0001 C CNN
F 3 "" H 5300 3950 50  0001 C CNN
	1    5300 3950
	1    0    0    -1  
$EndComp
Wire Wire Line
	5300 3950 5300 3900
$Comp
L power:GND #PWR?
U 1 1 5FDEF4AC
P 4800 3950
AR Path="/5F68D36E/5FDEF4AC" Ref="#PWR?"  Part="1" 
AR Path="/5F6CEABD/5FDEF4AC" Ref="#PWR040"  Part="1" 
F 0 "#PWR040" H 4800 3700 50  0001 C CNN
F 1 "GND" H 4880 3800 50  0000 R CNN
F 2 "" H 4800 3950 50  0001 C CNN
F 3 "" H 4800 3950 50  0001 C CNN
	1    4800 3950
	1    0    0    -1  
$EndComp
Wire Wire Line
	4800 3950 4800 3900
$Comp
L power:GND #PWR?
U 1 1 5FDF691F
P 2600 3950
AR Path="/5F68D36E/5FDF691F" Ref="#PWR?"  Part="1" 
AR Path="/5F6CEABD/5FDF691F" Ref="#PWR039"  Part="1" 
F 0 "#PWR039" H 2600 3700 50  0001 C CNN
F 1 "GND" H 2680 3800 50  0000 R CNN
F 2 "" H 2600 3950 50  0001 C CNN
F 3 "" H 2600 3950 50  0001 C CNN
	1    2600 3950
	1    0    0    -1  
$EndComp
Wire Wire Line
	2600 3950 2600 3900
$Comp
L power:GND #PWR?
U 1 1 5FDFD376
P 2100 3950
AR Path="/5F68D36E/5FDFD376" Ref="#PWR?"  Part="1" 
AR Path="/5F6CEABD/5FDFD376" Ref="#PWR038"  Part="1" 
F 0 "#PWR038" H 2100 3700 50  0001 C CNN
F 1 "GND" H 2180 3800 50  0000 R CNN
F 2 "" H 2100 3950 50  0001 C CNN
F 3 "" H 2100 3950 50  0001 C CNN
	1    2100 3950
	1    0    0    -1  
$EndComp
Wire Wire Line
	2100 3950 2100 3900
$Comp
L power:GND #PWR?
U 1 1 5FE043E7
P 2100 2750
AR Path="/5F68D36E/5FE043E7" Ref="#PWR?"  Part="1" 
AR Path="/5F6CEABD/5FE043E7" Ref="#PWR032"  Part="1" 
F 0 "#PWR032" H 2100 2500 50  0001 C CNN
F 1 "GND" H 2180 2600 50  0000 R CNN
F 2 "" H 2100 2750 50  0001 C CNN
F 3 "" H 2100 2750 50  0001 C CNN
	1    2100 2750
	1    0    0    -1  
$EndComp
Wire Wire Line
	2100 2750 2100 2700
$Comp
L Connector_Generic:Conn_02x09_Odd_Even J10
U 1 1 5FE2424A
P 5000 5000
F 0 "J10" H 5050 5525 50  0000 C CNN
F 1 "Conn_02x09_Odd_Even" H 5050 5526 50  0001 C CNN
F 2 "Connector_PinHeader_2.54mm:PinHeader_2x09_P2.54mm_Vertical" H 5000 5000 50  0001 C CNN
F 3 "~" H 5000 5000 50  0001 C CNN
	1    5000 5000
	1    0    0    -1  
$EndComp
Text Label 4300 4600 0    50   ~ 0
IPM_0
Text Label 4300 4700 0    50   ~ 0
IPM_2
Text Label 4300 4800 0    50   ~ 0
IPM_4
Text Label 4300 4900 0    50   ~ 0
IPM_6
Text Label 4300 5000 0    50   ~ 0
IPM_8
Text Label 4300 5100 0    50   ~ 0
IPM_10
Text Label 4300 5200 0    50   ~ 0
IPM_12
Text Label 4300 5300 0    50   ~ 0
IPM_14
Text Label 5800 4600 2    50   ~ 0
IPM_1
Text Label 5800 4700 2    50   ~ 0
IPM_3
Text Label 5800 4800 2    50   ~ 0
IPM_5
Text Label 5800 4900 2    50   ~ 0
IPM_7
Text Label 5800 5000 2    50   ~ 0
IPM_9
Text Label 5800 5100 2    50   ~ 0
IPM_11
Text Label 5800 5200 2    50   ~ 0
IPM_13
Text Label 5800 5300 2    50   ~ 0
IPM_15
Wire Wire Line
	4800 5300 4300 5300
Wire Wire Line
	5300 5300 5800 5300
Wire Wire Line
	5300 5200 5800 5200
Wire Wire Line
	5300 5100 5800 5100
Wire Wire Line
	5300 5000 5800 5000
Wire Wire Line
	5300 4900 5800 4900
Wire Wire Line
	5300 4800 5800 4800
Wire Wire Line
	5300 4700 5800 4700
Wire Wire Line
	5300 4600 5800 4600
Wire Wire Line
	4800 5200 4300 5200
Wire Wire Line
	4800 5100 4300 5100
Wire Wire Line
	4800 5000 4300 5000
Wire Wire Line
	4800 4900 4300 4900
Wire Wire Line
	4800 4800 4300 4800
Wire Wire Line
	4800 4700 4300 4700
Wire Wire Line
	4800 4600 4300 4600
$Comp
L Connector_Generic:Conn_02x18_Odd_Even J11
U 1 1 5FFF9842
P 2300 5400
F 0 "J11" H 2350 6325 50  0000 C CNN
F 1 "Conn_02x18_Odd_Even" H 2350 6326 50  0001 C CNN
F 2 "Connector_PinHeader_2.54mm:PinHeader_2x18_P2.54mm_Vertical" H 2300 5400 50  0001 C CNN
F 3 "~" H 2300 5400 50  0001 C CNN
	1    2300 5400
	1    0    0    -1  
$EndComp
Text Label 3100 4600 2    50   ~ 0
USR_IO_1
Text Label 3100 4700 2    50   ~ 0
USR_IO_3
Text Label 3100 4800 2    50   ~ 0
USR_IO_5
Text Label 3100 4900 2    50   ~ 0
USR_IO_7
Text Label 3100 5100 2    50   ~ 0
USR_IO_11
Text Label 3100 5200 2    50   ~ 0
USR_IO_13
Text Label 3100 5300 2    50   ~ 0
USR_IO_15
Text Label 3100 5400 2    50   ~ 0
USR_IO_17
Text Label 3100 5500 2    50   ~ 0
USR_IO_19
Text Label 3100 5600 2    50   ~ 0
USR_IO_21
Text Label 3100 5700 2    50   ~ 0
USR_IO_23
Text Label 3100 5800 2    50   ~ 0
USR_IO_25
Text Label 3100 5900 2    50   ~ 0
USR_IO_27
Text Label 3100 6000 2    50   ~ 0
USR_IO_29
Text Label 3100 6100 2    50   ~ 0
USR_IO_31
Text Label 3100 6200 2    50   ~ 0
USR_IO_33
Text Label 1600 6300 0    50   ~ 0
USR_IO_34
Text Label 1600 4600 0    50   ~ 0
USR_IO_0
Text Label 1600 4700 0    50   ~ 0
USR_IO_2
Text Label 1600 4800 0    50   ~ 0
USR_IO_4
Text Label 1600 4900 0    50   ~ 0
USR_IO_6
Text Label 1600 5000 0    50   ~ 0
USR_IO_8
Text Label 1600 5100 0    50   ~ 0
USR_IO_10
Text Label 1600 5200 0    50   ~ 0
USR_IO_12
Text Label 1600 5300 0    50   ~ 0
USR_IO_14
Text Label 1600 5400 0    50   ~ 0
USR_IO_16
Text Label 1600 5500 0    50   ~ 0
USR_IO_18
Text Label 1600 5600 0    50   ~ 0
USR_IO_20
Text Label 1600 5700 0    50   ~ 0
USR_IO_22
Text Label 1600 5800 0    50   ~ 0
USR_IO_24
Text Label 1600 5900 0    50   ~ 0
USR_IO_26
Text Label 1600 6000 0    50   ~ 0
USR_IO_28
Text Label 1600 6100 0    50   ~ 0
USR_IO_30
Text Label 1600 6200 0    50   ~ 0
USR_IO_32
Wire Wire Line
	1600 6200 2100 6200
Wire Wire Line
	2100 6100 1600 6100
Wire Wire Line
	2100 6000 1600 6000
Wire Wire Line
	2100 5900 1600 5900
Wire Wire Line
	2100 5800 1600 5800
Wire Wire Line
	2100 5700 1600 5700
Wire Wire Line
	2100 5600 1600 5600
Wire Wire Line
	1600 5500 2100 5500
Wire Wire Line
	2100 5400 1600 5400
Wire Wire Line
	2100 5300 1600 5300
Wire Wire Line
	2100 5200 1600 5200
Wire Wire Line
	1600 5100 2100 5100
Wire Wire Line
	2100 5000 1600 5000
Wire Wire Line
	2100 4900 1600 4900
Wire Wire Line
	2100 4800 1600 4800
Wire Wire Line
	2600 6200 3100 6200
Wire Wire Line
	3100 6100 2600 6100
Wire Wire Line
	3100 6000 2600 6000
Wire Wire Line
	3100 5900 2600 5900
Wire Wire Line
	3100 5800 2600 5800
Wire Wire Line
	3100 5700 2600 5700
Wire Wire Line
	3100 5600 2600 5600
Wire Wire Line
	2600 5500 3100 5500
Wire Wire Line
	3100 5400 2600 5400
Wire Wire Line
	3100 5300 2600 5300
Wire Wire Line
	3100 5200 2600 5200
Wire Wire Line
	2600 5100 3100 5100
Wire Wire Line
	3100 5000 2600 5000
Wire Wire Line
	3100 4900 2600 4900
Wire Wire Line
	3100 4800 2600 4800
Wire Wire Line
	2600 4700 3100 4700
Wire Wire Line
	2600 4600 3100 4600
Wire Wire Line
	2100 4700 1600 4700
Wire Wire Line
	2100 4600 1600 4600
Text Label 3100 5000 2    50   ~ 0
USR_IO_9
Wire Wire Line
	1600 6300 2100 6300
Entry Wire Line
	3100 5000 3200 4900
Entry Wire Line
	3100 4900 3200 4800
Entry Wire Line
	3100 4800 3200 4700
Entry Wire Line
	3100 4700 3200 4600
Entry Wire Line
	3100 4600 3200 4500
Entry Wire Line
	3100 5500 3200 5400
Entry Wire Line
	3100 5400 3200 5300
Entry Wire Line
	3100 5300 3200 5200
Entry Wire Line
	3100 5200 3200 5100
Entry Wire Line
	3100 5100 3200 5000
Entry Wire Line
	3100 6000 3200 5900
Entry Wire Line
	3100 5900 3200 5800
Entry Wire Line
	3100 5800 3200 5700
Entry Wire Line
	3100 5700 3200 5600
Entry Wire Line
	3100 5600 3200 5500
Entry Wire Line
	3100 6200 3200 6100
Entry Wire Line
	3100 6100 3200 6000
Entry Wire Line
	1500 4500 1600 4600
Entry Wire Line
	1500 4600 1600 4700
Entry Wire Line
	1500 4700 1600 4800
Entry Wire Line
	1500 4800 1600 4900
Entry Wire Line
	1500 4900 1600 5000
Entry Wire Line
	1500 5000 1600 5100
Entry Wire Line
	1500 5100 1600 5200
Entry Wire Line
	1500 5200 1600 5300
Entry Wire Line
	1500 5300 1600 5400
Entry Wire Line
	1500 5400 1600 5500
Entry Wire Line
	1500 5500 1600 5600
Entry Wire Line
	1500 5600 1600 5700
Entry Wire Line
	1500 5700 1600 5800
Entry Wire Line
	1500 5800 1600 5900
Entry Wire Line
	1500 5900 1600 6000
Entry Wire Line
	1500 6000 1600 6100
Entry Wire Line
	1500 6100 1600 6200
Entry Wire Line
	1500 6200 1600 6300
Entry Bus Bus
	1400 4300 1500 4400
Entry Wire Line
	5800 5000 5900 4900
Entry Wire Line
	5800 4900 5900 4800
Entry Wire Line
	5800 4800 5900 4700
Entry Wire Line
	5800 4700 5900 4600
Entry Wire Line
	5800 4600 5900 4500
Entry Wire Line
	5800 5300 5900 5200
Entry Wire Line
	5800 5200 5900 5100
Entry Wire Line
	5800 5100 5900 5000
Entry Wire Line
	4200 4500 4300 4600
Entry Wire Line
	4200 4600 4300 4700
Entry Wire Line
	4200 4700 4300 4800
Entry Wire Line
	4200 4800 4300 4900
Entry Wire Line
	4200 4900 4300 5000
Entry Wire Line
	4200 5000 4300 5100
Entry Wire Line
	4200 5100 4300 5200
Entry Wire Line
	4200 5200 4300 5300
Entry Bus Bus
	4100 4300 4200 4400
$Comp
L power:GND #PWR?
U 1 1 6060E27E
P 2600 6350
AR Path="/5F68D36E/6060E27E" Ref="#PWR?"  Part="1" 
AR Path="/5F6CEABD/6060E27E" Ref="#PWR046"  Part="1" 
F 0 "#PWR046" H 2600 6100 50  0001 C CNN
F 1 "GND" H 2680 6200 50  0000 R CNN
F 2 "" H 2600 6350 50  0001 C CNN
F 3 "" H 2600 6350 50  0001 C CNN
	1    2600 6350
	1    0    0    -1  
$EndComp
Wire Wire Line
	2600 6350 2600 6300
$Comp
L power:GND #PWR?
U 1 1 6061EF28
P 4800 5450
AR Path="/5F68D36E/6061EF28" Ref="#PWR?"  Part="1" 
AR Path="/5F6CEABD/6061EF28" Ref="#PWR044"  Part="1" 
F 0 "#PWR044" H 4800 5200 50  0001 C CNN
F 1 "GND" H 4880 5300 50  0000 R CNN
F 2 "" H 4800 5450 50  0001 C CNN
F 3 "" H 4800 5450 50  0001 C CNN
	1    4800 5450
	1    0    0    -1  
$EndComp
Wire Wire Line
	4800 5450 4800 5400
$Comp
L power:GND #PWR?
U 1 1 6062F3F1
P 5300 5450
AR Path="/5F68D36E/6062F3F1" Ref="#PWR?"  Part="1" 
AR Path="/5F6CEABD/6062F3F1" Ref="#PWR045"  Part="1" 
F 0 "#PWR045" H 5300 5200 50  0001 C CNN
F 1 "GND" H 5380 5300 50  0000 R CNN
F 2 "" H 5300 5450 50  0001 C CNN
F 3 "" H 5300 5450 50  0001 C CNN
	1    5300 5450
	1    0    0    -1  
$EndComp
Wire Wire Line
	5300 5450 5300 5400
Wire Bus Line
	4000 4300 5900 4300
Wire Bus Line
	1300 4300 3200 4300
Wire Bus Line
	6700 700  8600 700 
Wire Bus Line
	6700 3100 8600 3100
Wire Bus Line
	6700 1900 8600 1900
Wire Bus Line
	4000 1900 5900 1900
Wire Bus Line
	4000 3100 5900 3100
Wire Bus Line
	1300 3100 3200 3100
Wire Bus Line
	4000 700  5900 700 
Wire Bus Line
	1300 1900 3200 1900
Wire Bus Line
	1300 700  3200 700 
Wire Bus Line
	6900 800  6900 1300
Wire Bus Line
	6900 2000 6900 2500
Wire Bus Line
	6900 3200 6900 3700
Wire Bus Line
	1500 3200 1500 3700
Wire Bus Line
	4200 3200 4200 3700
Wire Bus Line
	4200 2000 4200 2500
Wire Bus Line
	4200 800  4200 1300
Wire Bus Line
	5900 700  5900 1300
Wire Bus Line
	1500 2000 1500 2500
Wire Bus Line
	3200 1900 3200 2500
Wire Bus Line
	1500 800  1500 1300
Wire Bus Line
	3200 700  3200 1300
Wire Bus Line
	8600 700  8600 1300
Wire Bus Line
	8600 1900 8600 2500
Wire Bus Line
	8600 3100 8600 3700
Wire Bus Line
	5900 3100 5900 3700
Wire Bus Line
	5900 1900 5900 2500
Wire Bus Line
	3200 3100 3200 3700
Wire Bus Line
	5900 4300 5900 5200
Wire Bus Line
	4200 4400 4200 5200
Wire Bus Line
	3200 4300 3200 6100
Wire Bus Line
	1500 4400 1500 6200
$EndSCHEMATC
