(footprint "BarrelJack_Wuerth_6941xx301002" (version 20221018) (generator pcbnew)
  (layer "F.Cu")
  (descr "Wuerth electronics barrel jack connector (5.5mm outher diameter, inner diameter 2.05mm or 2.55mm depending on exact order number), See: http://katalog.we-online.de/em/datasheet/6941xx301002.pdf")
  (tags "connector barrel jack")
  (attr through_hole)
  (fp_text reference "REF**" (at 0 -2.5) (layer "F.SilkS")
      (effects (font (size 1 1) (thickness 0.15)))
    (tstamp 00000000-0000-0000-0000-000000000000)
  )
  (fp_text value "BarrelJack_Wuerth_6941xx301002" (at 0 15.5) (layer "F.Fab")
      (effects (font (size 1 1) (thickness 0.15)))
    (tstamp 00000000-0000-0000-0000-000000000000)
  )
  (fp_text user "${REFERENCE}" (at 0 7.5) (layer "F.Fab")
      (effects (font (size 1 1) (thickness 0.15)))
    (tstamp 00000000-0000-0000-0000-000000000000)
  )
  (fp_line (start -4.9 -1.3) (end -4.9 0.3)
    (stroke (width 0.12) (type solid)) (layer "F.SilkS") (tstamp 00000000-0000-0000-0000-000000000000))
  (fp_line (start -4.6 -1) (end -2.5 -1)
    (stroke (width 0.12) (type solid)) (layer "F.SilkS") (tstamp 00000000-0000-0000-0000-000000000000))
  (fp_line (start -4.6 13.7) (end -4.6 -1)
    (stroke (width 0.12) (type solid)) (layer "F.SilkS") (tstamp 00000000-0000-0000-0000-000000000000))
  (fp_line (start -3.2 -1.3) (end -4.9 -1.3)
    (stroke (width 0.12) (type solid)) (layer "F.SilkS") (tstamp 00000000-0000-0000-0000-000000000000))
  (fp_line (start 2.5 -1) (end 4.6 -1)
    (stroke (width 0.12) (type solid)) (layer "F.SilkS") (tstamp 00000000-0000-0000-0000-000000000000))
  (fp_line (start 4.6 -1) (end 4.6 0.8)
    (stroke (width 0.12) (type solid)) (layer "F.SilkS") (tstamp 00000000-0000-0000-0000-000000000000))
  (fp_line (start 4.6 5.2) (end 4.6 13.7)
    (stroke (width 0.12) (type solid)) (layer "F.SilkS") (tstamp 00000000-0000-0000-0000-000000000000))
  (fp_line (start 4.6 13.7) (end -4.6 13.7)
    (stroke (width 0.12) (type solid)) (layer "F.SilkS") (tstamp 00000000-0000-0000-0000-000000000000))
  (fp_line (start -5 -1.4) (end -5 14.1)
    (stroke (width 0.05) (type solid)) (layer "F.CrtYd") (tstamp 00000000-0000-0000-0000-000000000000))
  (fp_line (start -5 14.1) (end 5 14.1)
    (stroke (width 0.05) (type solid)) (layer "F.CrtYd") (tstamp 00000000-0000-0000-0000-000000000000))
  (fp_line (start 5 -1.4) (end -5 -1.4)
    (stroke (width 0.05) (type solid)) (layer "F.CrtYd") (tstamp 00000000-0000-0000-0000-000000000000))
  (fp_line (start 5 0.5) (end 5 -1.4)
    (stroke (width 0.05) (type solid)) (layer "F.CrtYd") (tstamp 00000000-0000-0000-0000-000000000000))
  (fp_line (start 5 14.1) (end 5 5.5)
    (stroke (width 0.05) (type solid)) (layer "F.CrtYd") (tstamp 00000000-0000-0000-0000-000000000000))
  (fp_line (start 6.2 0.5) (end 5 0.5)
    (stroke (width 0.05) (type solid)) (layer "F.CrtYd") (tstamp 00000000-0000-0000-0000-000000000000))
  (fp_line (start 6.2 0.5) (end 6.2 5.5)
    (stroke (width 0.05) (type solid)) (layer "F.CrtYd") (tstamp 00000000-0000-0000-0000-000000000000))
  (fp_line (start 6.2 5.5) (end 5 5.5)
    (stroke (width 0.05) (type solid)) (layer "F.CrtYd") (tstamp 00000000-0000-0000-0000-000000000000))
  (fp_line (start -4.5 0.1) (end -3.5 -0.9)
    (stroke (width 0.1) (type solid)) (layer "F.Fab") (tstamp 00000000-0000-0000-0000-000000000000))
  (fp_line (start -4.5 13.6) (end -4.5 0.1)
    (stroke (width 0.1) (type solid)) (layer "F.Fab") (tstamp 00000000-0000-0000-0000-000000000000))
  (fp_line (start 4.5 -0.9) (end -3.5 -0.9)
    (stroke (width 0.1) (type solid)) (layer "F.Fab") (tstamp 00000000-0000-0000-0000-000000000000))
  (fp_line (start 4.5 -0.9) (end 4.5 13.6)
    (stroke (width 0.1) (type solid)) (layer "F.Fab") (tstamp 00000000-0000-0000-0000-000000000000))
  (fp_line (start 4.5 13.6) (end -4.5 13.6)
    (stroke (width 0.1) (type solid)) (layer "F.Fab") (tstamp 00000000-0000-0000-0000-000000000000))
  (pad "1" thru_hole rect (at 0 0) (size 4.4 1.8) (drill oval 3.4 0.8) (layers "*.Cu" "*.Mask") (tstamp 00000000-0000-0000-0000-000000000000))
  (pad "2" thru_hole oval (at 0 5.8) (size 4 1.8) (drill oval 3 0.8) (layers "*.Cu" "*.Mask") (tstamp 00000000-0000-0000-0000-000000000000))
  (pad "3" thru_hole oval (at 4.8 3 90) (size 4 1.8) (drill oval 3 0.8) (layers "*.Cu" "*.Mask") (tstamp 00000000-0000-0000-0000-000000000000))
  (model "${KISYS3DMOD}/Connector_BarrelJack.3dshapes/BarrelJack_Wuerth_6941xx301002.wrl"
    (offset (xyz 0 0 0))
    (scale (xyz 1 1 1))
    (rotate (xyz 0 0 0))
  )
  (model "${KIPRJMOD}/packages3D/CUI_PJ-102A.STEP"
    (offset (xyz 0 -6 0))
    (scale (xyz 1 1 1))
    (rotate (xyz -90 0 180))
  )
)
