%TF.GenerationSoftware,KiCad,Pcbnew,5.1.6-c6e7f7d~87~ubuntu18.04.1*%
%TF.CreationDate,2020-10-19T17:27:09+02:00*%
%TF.ProjectId,dimm_breakout,64696d6d-5f62-4726-9561-6b6f75742e6b,2020.10-01*%
%TF.SameCoordinates,Original*%
%TF.FileFunction,Soldermask,Top*%
%TF.FilePolarity,Negative*%
%FSLAX46Y46*%
G04 Gerber Fmt 4.6, Leading zero omitted, Abs format (unit mm)*
G04 Created by KiCad (PCBNEW 5.1.6-c6e7f7d~87~ubuntu18.04.1) date 2020-10-19 17:27:09*
%MOMM*%
%LPD*%
G01*
G04 APERTURE LIST*
%ADD10C,0.100000*%
%ADD11C,0.150000*%
%ADD12C,0.300000*%
%ADD13C,0.400000*%
%ADD14O,1.800000X1.800000*%
%ADD15R,1.800000X1.800000*%
%ADD16R,1.600000X1.600000*%
%ADD17C,1.600000*%
%ADD18C,1.500000*%
%ADD19R,0.450000X1.900000*%
%ADD20R,2.900000X2.870000*%
%ADD21R,6.600000X6.100000*%
%ADD22R,2.100000X1.600000*%
%ADD23R,2.100000X3.900000*%
%ADD24R,2.000000X1.100000*%
%ADD25R,2.000000X1.900000*%
%ADD26R,1.400000X1.750000*%
%ADD27R,1.650000X1.525000*%
%ADD28R,1.480000X0.550000*%
%ADD29R,1.100000X1.100000*%
%ADD30O,1.100000X1.100000*%
%ADD31C,1.700000*%
%ADD32C,2.300000*%
%ADD33C,3.350000*%
%ADD34O,4.100000X1.900000*%
%ADD35O,1.900000X4.100000*%
%ADD36R,1.900000X4.500000*%
%ADD37R,0.600000X0.475000*%
%ADD38R,0.750000X0.400000*%
G04 APERTURE END LIST*
D10*
D11*
X177002200Y-166007200D02*
X177002200Y-198007200D01*
X285002200Y-198007200D01*
X285002200Y-166007200D01*
X177002200Y-166007200D01*
D10*
D11*
X10000000Y-10000000D02*
X10000000Y-200007200D01*
X287002200Y-200007200D01*
X287002200Y-10000000D01*
X10000000Y-10000000D01*
D10*
D11*
X12000000Y-12000000D02*
X12000000Y-198007200D01*
X285002200Y-198007200D01*
X285002200Y-12000000D01*
X12000000Y-12000000D01*
D10*
D11*
X60000000Y-12000000D02*
X60000000Y-10000000D01*
D10*
D11*
X110000000Y-12000000D02*
X110000000Y-10000000D01*
D10*
D11*
X160000000Y-12000000D02*
X160000000Y-10000000D01*
D10*
D11*
X210000000Y-12000000D02*
X210000000Y-10000000D01*
D10*
D11*
X260000000Y-12000000D02*
X260000000Y-10000000D01*
D10*
D11*
X36065476Y-11588095D02*
X35322619Y-11588095D01*
X35694047Y-11588095D02*
X35694047Y-10288095D01*
X35570238Y-10473809D01*
X35446428Y-10597619D01*
X35322619Y-10659523D01*
D10*
D11*
X85322619Y-10411904D02*
X85384523Y-10350000D01*
X85508333Y-10288095D01*
X85817857Y-10288095D01*
X85941666Y-10350000D01*
X86003571Y-10411904D01*
X86065476Y-10535714D01*
X86065476Y-10659523D01*
X86003571Y-10845238D01*
X85260714Y-11588095D01*
X86065476Y-11588095D01*
D10*
D11*
X135260714Y-10288095D02*
X136065476Y-10288095D01*
X135632142Y-10783333D01*
X135817857Y-10783333D01*
X135941666Y-10845238D01*
X136003571Y-10907142D01*
X136065476Y-11030952D01*
X136065476Y-11340476D01*
X136003571Y-11464285D01*
X135941666Y-11526190D01*
X135817857Y-11588095D01*
X135446428Y-11588095D01*
X135322619Y-11526190D01*
X135260714Y-11464285D01*
D10*
D11*
X185941666Y-10721428D02*
X185941666Y-11588095D01*
X185632142Y-10226190D02*
X185322619Y-11154761D01*
X186127380Y-11154761D01*
D10*
D11*
X236003571Y-10288095D02*
X235384523Y-10288095D01*
X235322619Y-10907142D01*
X235384523Y-10845238D01*
X235508333Y-10783333D01*
X235817857Y-10783333D01*
X235941666Y-10845238D01*
X236003571Y-10907142D01*
X236065476Y-11030952D01*
X236065476Y-11340476D01*
X236003571Y-11464285D01*
X235941666Y-11526190D01*
X235817857Y-11588095D01*
X235508333Y-11588095D01*
X235384523Y-11526190D01*
X235322619Y-11464285D01*
D10*
D11*
X285941666Y-10288095D02*
X285694047Y-10288095D01*
X285570238Y-10350000D01*
X285508333Y-10411904D01*
X285384523Y-10597619D01*
X285322619Y-10845238D01*
X285322619Y-11340476D01*
X285384523Y-11464285D01*
X285446428Y-11526190D01*
X285570238Y-11588095D01*
X285817857Y-11588095D01*
X285941666Y-11526190D01*
X286003571Y-11464285D01*
X286065476Y-11340476D01*
X286065476Y-11030952D01*
X286003571Y-10907142D01*
X285941666Y-10845238D01*
X285817857Y-10783333D01*
X285570238Y-10783333D01*
X285446428Y-10845238D01*
X285384523Y-10907142D01*
X285322619Y-11030952D01*
D10*
D11*
X60000000Y-198007200D02*
X60000000Y-200007200D01*
D10*
D11*
X110000000Y-198007200D02*
X110000000Y-200007200D01*
D10*
D11*
X160000000Y-198007200D02*
X160000000Y-200007200D01*
D10*
D11*
X210000000Y-198007200D02*
X210000000Y-200007200D01*
D10*
D11*
X260000000Y-198007200D02*
X260000000Y-200007200D01*
D10*
D11*
X36065476Y-199595295D02*
X35322619Y-199595295D01*
X35694047Y-199595295D02*
X35694047Y-198295295D01*
X35570238Y-198481009D01*
X35446428Y-198604819D01*
X35322619Y-198666723D01*
D10*
D11*
X85322619Y-198419104D02*
X85384523Y-198357200D01*
X85508333Y-198295295D01*
X85817857Y-198295295D01*
X85941666Y-198357200D01*
X86003571Y-198419104D01*
X86065476Y-198542914D01*
X86065476Y-198666723D01*
X86003571Y-198852438D01*
X85260714Y-199595295D01*
X86065476Y-199595295D01*
D10*
D11*
X135260714Y-198295295D02*
X136065476Y-198295295D01*
X135632142Y-198790533D01*
X135817857Y-198790533D01*
X135941666Y-198852438D01*
X136003571Y-198914342D01*
X136065476Y-199038152D01*
X136065476Y-199347676D01*
X136003571Y-199471485D01*
X135941666Y-199533390D01*
X135817857Y-199595295D01*
X135446428Y-199595295D01*
X135322619Y-199533390D01*
X135260714Y-199471485D01*
D10*
D11*
X185941666Y-198728628D02*
X185941666Y-199595295D01*
X185632142Y-198233390D02*
X185322619Y-199161961D01*
X186127380Y-199161961D01*
D10*
D11*
X236003571Y-198295295D02*
X235384523Y-198295295D01*
X235322619Y-198914342D01*
X235384523Y-198852438D01*
X235508333Y-198790533D01*
X235817857Y-198790533D01*
X235941666Y-198852438D01*
X236003571Y-198914342D01*
X236065476Y-199038152D01*
X236065476Y-199347676D01*
X236003571Y-199471485D01*
X235941666Y-199533390D01*
X235817857Y-199595295D01*
X235508333Y-199595295D01*
X235384523Y-199533390D01*
X235322619Y-199471485D01*
D10*
D11*
X285941666Y-198295295D02*
X285694047Y-198295295D01*
X285570238Y-198357200D01*
X285508333Y-198419104D01*
X285384523Y-198604819D01*
X285322619Y-198852438D01*
X285322619Y-199347676D01*
X285384523Y-199471485D01*
X285446428Y-199533390D01*
X285570238Y-199595295D01*
X285817857Y-199595295D01*
X285941666Y-199533390D01*
X286003571Y-199471485D01*
X286065476Y-199347676D01*
X286065476Y-199038152D01*
X286003571Y-198914342D01*
X285941666Y-198852438D01*
X285817857Y-198790533D01*
X285570238Y-198790533D01*
X285446428Y-198852438D01*
X285384523Y-198914342D01*
X285322619Y-199038152D01*
D10*
D11*
X10000000Y-60000000D02*
X12000000Y-60000000D01*
D10*
D11*
X10000000Y-110000000D02*
X12000000Y-110000000D01*
D10*
D11*
X10000000Y-160000000D02*
X12000000Y-160000000D01*
D10*
D11*
X10690476Y-35216666D02*
X11309523Y-35216666D01*
X10566666Y-35588095D02*
X11000000Y-34288095D01*
X11433333Y-35588095D01*
D10*
D11*
X11092857Y-84907142D02*
X11278571Y-84969047D01*
X11340476Y-85030952D01*
X11402380Y-85154761D01*
X11402380Y-85340476D01*
X11340476Y-85464285D01*
X11278571Y-85526190D01*
X11154761Y-85588095D01*
X10659523Y-85588095D01*
X10659523Y-84288095D01*
X11092857Y-84288095D01*
X11216666Y-84350000D01*
X11278571Y-84411904D01*
X11340476Y-84535714D01*
X11340476Y-84659523D01*
X11278571Y-84783333D01*
X11216666Y-84845238D01*
X11092857Y-84907142D01*
X10659523Y-84907142D01*
D10*
D11*
X11402380Y-135464285D02*
X11340476Y-135526190D01*
X11154761Y-135588095D01*
X11030952Y-135588095D01*
X10845238Y-135526190D01*
X10721428Y-135402380D01*
X10659523Y-135278571D01*
X10597619Y-135030952D01*
X10597619Y-134845238D01*
X10659523Y-134597619D01*
X10721428Y-134473809D01*
X10845238Y-134350000D01*
X11030952Y-134288095D01*
X11154761Y-134288095D01*
X11340476Y-134350000D01*
X11402380Y-134411904D01*
D10*
D11*
X10659523Y-185588095D02*
X10659523Y-184288095D01*
X10969047Y-184288095D01*
X11154761Y-184350000D01*
X11278571Y-184473809D01*
X11340476Y-184597619D01*
X11402380Y-184845238D01*
X11402380Y-185030952D01*
X11340476Y-185278571D01*
X11278571Y-185402380D01*
X11154761Y-185526190D01*
X10969047Y-185588095D01*
X10659523Y-185588095D01*
D10*
D11*
X287002200Y-60000000D02*
X285002200Y-60000000D01*
D10*
D11*
X287002200Y-110000000D02*
X285002200Y-110000000D01*
D10*
D11*
X287002200Y-160000000D02*
X285002200Y-160000000D01*
D10*
D11*
X285692676Y-35216666D02*
X286311723Y-35216666D01*
X285568866Y-35588095D02*
X286002200Y-34288095D01*
X286435533Y-35588095D01*
D10*
D11*
X286095057Y-84907142D02*
X286280771Y-84969047D01*
X286342676Y-85030952D01*
X286404580Y-85154761D01*
X286404580Y-85340476D01*
X286342676Y-85464285D01*
X286280771Y-85526190D01*
X286156961Y-85588095D01*
X285661723Y-85588095D01*
X285661723Y-84288095D01*
X286095057Y-84288095D01*
X286218866Y-84350000D01*
X286280771Y-84411904D01*
X286342676Y-84535714D01*
X286342676Y-84659523D01*
X286280771Y-84783333D01*
X286218866Y-84845238D01*
X286095057Y-84907142D01*
X285661723Y-84907142D01*
D10*
D11*
X286404580Y-135464285D02*
X286342676Y-135526190D01*
X286156961Y-135588095D01*
X286033152Y-135588095D01*
X285847438Y-135526190D01*
X285723628Y-135402380D01*
X285661723Y-135278571D01*
X285599819Y-135030952D01*
X285599819Y-134845238D01*
X285661723Y-134597619D01*
X285723628Y-134473809D01*
X285847438Y-134350000D01*
X286033152Y-134288095D01*
X286156961Y-134288095D01*
X286342676Y-134350000D01*
X286404580Y-134411904D01*
D10*
D11*
X285661723Y-185588095D02*
X285661723Y-184288095D01*
X285971247Y-184288095D01*
X286156961Y-184350000D01*
X286280771Y-184473809D01*
X286342676Y-184597619D01*
X286404580Y-184845238D01*
X286404580Y-185030952D01*
X286342676Y-185278571D01*
X286280771Y-185402380D01*
X286156961Y-185526190D01*
X285971247Y-185588095D01*
X285661723Y-185588095D01*
D10*
D11*
X200434342Y-193785771D02*
X200434342Y-192285771D01*
X200791485Y-192285771D01*
X201005771Y-192357200D01*
X201148628Y-192500057D01*
X201220057Y-192642914D01*
X201291485Y-192928628D01*
X201291485Y-193142914D01*
X201220057Y-193428628D01*
X201148628Y-193571485D01*
X201005771Y-193714342D01*
X200791485Y-193785771D01*
X200434342Y-193785771D01*
X202577200Y-193785771D02*
X202577200Y-193000057D01*
X202505771Y-192857200D01*
X202362914Y-192785771D01*
X202077200Y-192785771D01*
X201934342Y-192857200D01*
X202577200Y-193714342D02*
X202434342Y-193785771D01*
X202077200Y-193785771D01*
X201934342Y-193714342D01*
X201862914Y-193571485D01*
X201862914Y-193428628D01*
X201934342Y-193285771D01*
X202077200Y-193214342D01*
X202434342Y-193214342D01*
X202577200Y-193142914D01*
X203077200Y-192785771D02*
X203648628Y-192785771D01*
X203291485Y-192285771D02*
X203291485Y-193571485D01*
X203362914Y-193714342D01*
X203505771Y-193785771D01*
X203648628Y-193785771D01*
X204720057Y-193714342D02*
X204577200Y-193785771D01*
X204291485Y-193785771D01*
X204148628Y-193714342D01*
X204077200Y-193571485D01*
X204077200Y-193000057D01*
X204148628Y-192857200D01*
X204291485Y-192785771D01*
X204577200Y-192785771D01*
X204720057Y-192857200D01*
X204791485Y-193000057D01*
X204791485Y-193142914D01*
X204077200Y-193285771D01*
X205434342Y-193642914D02*
X205505771Y-193714342D01*
X205434342Y-193785771D01*
X205362914Y-193714342D01*
X205434342Y-193642914D01*
X205434342Y-193785771D01*
X205434342Y-192857200D02*
X205505771Y-192928628D01*
X205434342Y-193000057D01*
X205362914Y-192928628D01*
X205434342Y-192857200D01*
X205434342Y-193000057D01*
D10*
D11*
X177002200Y-194507200D02*
X285002200Y-194507200D01*
D10*
D11*
X178434342Y-196585771D02*
X178434342Y-195085771D01*
X179291485Y-196585771D02*
X178648628Y-195728628D01*
X179291485Y-195085771D02*
X178434342Y-195942914D01*
X179934342Y-196585771D02*
X179934342Y-195585771D01*
X179934342Y-195085771D02*
X179862914Y-195157200D01*
X179934342Y-195228628D01*
X180005771Y-195157200D01*
X179934342Y-195085771D01*
X179934342Y-195228628D01*
X181505771Y-196442914D02*
X181434342Y-196514342D01*
X181220057Y-196585771D01*
X181077200Y-196585771D01*
X180862914Y-196514342D01*
X180720057Y-196371485D01*
X180648628Y-196228628D01*
X180577200Y-195942914D01*
X180577200Y-195728628D01*
X180648628Y-195442914D01*
X180720057Y-195300057D01*
X180862914Y-195157200D01*
X181077200Y-195085771D01*
X181220057Y-195085771D01*
X181434342Y-195157200D01*
X181505771Y-195228628D01*
X182791485Y-196585771D02*
X182791485Y-195800057D01*
X182720057Y-195657200D01*
X182577200Y-195585771D01*
X182291485Y-195585771D01*
X182148628Y-195657200D01*
X182791485Y-196514342D02*
X182648628Y-196585771D01*
X182291485Y-196585771D01*
X182148628Y-196514342D01*
X182077200Y-196371485D01*
X182077200Y-196228628D01*
X182148628Y-196085771D01*
X182291485Y-196014342D01*
X182648628Y-196014342D01*
X182791485Y-195942914D01*
X184148628Y-196585771D02*
X184148628Y-195085771D01*
X184148628Y-196514342D02*
X184005771Y-196585771D01*
X183720057Y-196585771D01*
X183577200Y-196514342D01*
X183505771Y-196442914D01*
X183434342Y-196300057D01*
X183434342Y-195871485D01*
X183505771Y-195728628D01*
X183577200Y-195657200D01*
X183720057Y-195585771D01*
X184005771Y-195585771D01*
X184148628Y-195657200D01*
X186005771Y-195800057D02*
X186505771Y-195800057D01*
X186720057Y-196585771D02*
X186005771Y-196585771D01*
X186005771Y-195085771D01*
X186720057Y-195085771D01*
X187362914Y-196442914D02*
X187434342Y-196514342D01*
X187362914Y-196585771D01*
X187291485Y-196514342D01*
X187362914Y-196442914D01*
X187362914Y-196585771D01*
X188077200Y-196585771D02*
X188077200Y-195085771D01*
X188434342Y-195085771D01*
X188648628Y-195157200D01*
X188791485Y-195300057D01*
X188862914Y-195442914D01*
X188934342Y-195728628D01*
X188934342Y-195942914D01*
X188862914Y-196228628D01*
X188791485Y-196371485D01*
X188648628Y-196514342D01*
X188434342Y-196585771D01*
X188077200Y-196585771D01*
X189577200Y-196442914D02*
X189648628Y-196514342D01*
X189577200Y-196585771D01*
X189505771Y-196514342D01*
X189577200Y-196442914D01*
X189577200Y-196585771D01*
X190220057Y-196157200D02*
X190934342Y-196157200D01*
X190077200Y-196585771D02*
X190577200Y-195085771D01*
X191077200Y-196585771D01*
X191577200Y-196442914D02*
X191648628Y-196514342D01*
X191577200Y-196585771D01*
X191505771Y-196514342D01*
X191577200Y-196442914D01*
X191577200Y-196585771D01*
X194577200Y-196585771D02*
X194577200Y-195085771D01*
X194720057Y-196014342D02*
X195148628Y-196585771D01*
X195148628Y-195585771D02*
X194577200Y-196157200D01*
X195791485Y-196585771D02*
X195791485Y-195585771D01*
X195791485Y-195085771D02*
X195720057Y-195157200D01*
X195791485Y-195228628D01*
X195862914Y-195157200D01*
X195791485Y-195085771D01*
X195791485Y-195228628D01*
X197148628Y-196514342D02*
X197005771Y-196585771D01*
X196720057Y-196585771D01*
X196577200Y-196514342D01*
X196505771Y-196442914D01*
X196434342Y-196300057D01*
X196434342Y-195871485D01*
X196505771Y-195728628D01*
X196577200Y-195657200D01*
X196720057Y-195585771D01*
X197005771Y-195585771D01*
X197148628Y-195657200D01*
X198434342Y-196585771D02*
X198434342Y-195800057D01*
X198362914Y-195657200D01*
X198220057Y-195585771D01*
X197934342Y-195585771D01*
X197791485Y-195657200D01*
X198434342Y-196514342D02*
X198291485Y-196585771D01*
X197934342Y-196585771D01*
X197791485Y-196514342D01*
X197720057Y-196371485D01*
X197720057Y-196228628D01*
X197791485Y-196085771D01*
X197934342Y-196014342D01*
X198291485Y-196014342D01*
X198434342Y-195942914D01*
X199791485Y-196585771D02*
X199791485Y-195085771D01*
X199791485Y-196514342D02*
X199648628Y-196585771D01*
X199362914Y-196585771D01*
X199220057Y-196514342D01*
X199148628Y-196442914D01*
X199077200Y-196300057D01*
X199077200Y-195871485D01*
X199148628Y-195728628D01*
X199220057Y-195657200D01*
X199362914Y-195585771D01*
X199648628Y-195585771D01*
X199791485Y-195657200D01*
X202362914Y-195085771D02*
X201648628Y-195085771D01*
X201577200Y-195800057D01*
X201648628Y-195728628D01*
X201791485Y-195657200D01*
X202148628Y-195657200D01*
X202291485Y-195728628D01*
X202362914Y-195800057D01*
X202434342Y-195942914D01*
X202434342Y-196300057D01*
X202362914Y-196442914D01*
X202291485Y-196514342D01*
X202148628Y-196585771D01*
X201791485Y-196585771D01*
X201648628Y-196514342D01*
X201577200Y-196442914D01*
X203077200Y-196442914D02*
X203148628Y-196514342D01*
X203077200Y-196585771D01*
X203005771Y-196514342D01*
X203077200Y-196442914D01*
X203077200Y-196585771D01*
X204577200Y-196585771D02*
X203720057Y-196585771D01*
X204148628Y-196585771D02*
X204148628Y-195085771D01*
X204005771Y-195300057D01*
X203862914Y-195442914D01*
X203720057Y-195514342D01*
X205220057Y-196442914D02*
X205291485Y-196514342D01*
X205220057Y-196585771D01*
X205148628Y-196514342D01*
X205220057Y-196442914D01*
X205220057Y-196585771D01*
X206577200Y-195085771D02*
X206291485Y-195085771D01*
X206148628Y-195157200D01*
X206077200Y-195228628D01*
X205934342Y-195442914D01*
X205862914Y-195728628D01*
X205862914Y-196300057D01*
X205934342Y-196442914D01*
X206005771Y-196514342D01*
X206148628Y-196585771D01*
X206434342Y-196585771D01*
X206577200Y-196514342D01*
X206648628Y-196442914D01*
X206720057Y-196300057D01*
X206720057Y-195942914D01*
X206648628Y-195800057D01*
X206577200Y-195728628D01*
X206434342Y-195657200D01*
X206148628Y-195657200D01*
X206005771Y-195728628D01*
X205934342Y-195800057D01*
X205862914Y-195942914D01*
X207362914Y-196014342D02*
X208505771Y-196014342D01*
X209862914Y-196514342D02*
X209720057Y-196585771D01*
X209434342Y-196585771D01*
X209291485Y-196514342D01*
X209220057Y-196442914D01*
X209148628Y-196300057D01*
X209148628Y-195871485D01*
X209220057Y-195728628D01*
X209291485Y-195657200D01*
X209434342Y-195585771D01*
X209720057Y-195585771D01*
X209862914Y-195657200D01*
X211148628Y-195085771D02*
X210862914Y-195085771D01*
X210720057Y-195157200D01*
X210648628Y-195228628D01*
X210505771Y-195442914D01*
X210434342Y-195728628D01*
X210434342Y-196300057D01*
X210505771Y-196442914D01*
X210577200Y-196514342D01*
X210720057Y-196585771D01*
X211005771Y-196585771D01*
X211148628Y-196514342D01*
X211220057Y-196442914D01*
X211291485Y-196300057D01*
X211291485Y-195942914D01*
X211220057Y-195800057D01*
X211148628Y-195728628D01*
X211005771Y-195657200D01*
X210720057Y-195657200D01*
X210577200Y-195728628D01*
X210505771Y-195800057D01*
X210434342Y-195942914D01*
X212505771Y-196514342D02*
X212362914Y-196585771D01*
X212077200Y-196585771D01*
X211934342Y-196514342D01*
X211862914Y-196371485D01*
X211862914Y-195800057D01*
X211934342Y-195657200D01*
X212077200Y-195585771D01*
X212362914Y-195585771D01*
X212505771Y-195657200D01*
X212577200Y-195800057D01*
X212577200Y-195942914D01*
X211862914Y-196085771D01*
X213077200Y-195085771D02*
X214077200Y-195085771D01*
X213434342Y-196585771D01*
X214434342Y-195585771D02*
X215005771Y-195585771D01*
X214648628Y-196585771D02*
X214648628Y-195300057D01*
X214720057Y-195157200D01*
X214862914Y-195085771D01*
X215005771Y-195085771D01*
X215362914Y-195085771D02*
X216362914Y-195085771D01*
X215720057Y-196585771D01*
X217577200Y-196585771D02*
X217577200Y-195085771D01*
X217577200Y-196514342D02*
X217434342Y-196585771D01*
X217148628Y-196585771D01*
X217005771Y-196514342D01*
X216934342Y-196442914D01*
X216862914Y-196300057D01*
X216862914Y-195871485D01*
X216934342Y-195728628D01*
X217005771Y-195657200D01*
X217148628Y-195585771D01*
X217434342Y-195585771D01*
X217577200Y-195657200D01*
X217934342Y-194677200D02*
X219362914Y-194677200D01*
X218505771Y-195728628D02*
X218362914Y-195657200D01*
X218291485Y-195585771D01*
X218220057Y-195442914D01*
X218220057Y-195371485D01*
X218291485Y-195228628D01*
X218362914Y-195157200D01*
X218505771Y-195085771D01*
X218791485Y-195085771D01*
X218934342Y-195157200D01*
X219005771Y-195228628D01*
X219077200Y-195371485D01*
X219077200Y-195442914D01*
X219005771Y-195585771D01*
X218934342Y-195657200D01*
X218791485Y-195728628D01*
X218505771Y-195728628D01*
X218362914Y-195800057D01*
X218291485Y-195871485D01*
X218220057Y-196014342D01*
X218220057Y-196300057D01*
X218291485Y-196442914D01*
X218362914Y-196514342D01*
X218505771Y-196585771D01*
X218791485Y-196585771D01*
X218934342Y-196514342D01*
X219005771Y-196442914D01*
X219077200Y-196300057D01*
X219077200Y-196014342D01*
X219005771Y-195871485D01*
X218934342Y-195800057D01*
X218791485Y-195728628D01*
X219362914Y-194677200D02*
X220791485Y-194677200D01*
X219577200Y-195085771D02*
X220577200Y-195085771D01*
X219934342Y-196585771D01*
X221791485Y-195585771D02*
X221791485Y-196585771D01*
X221148628Y-195585771D02*
X221148628Y-196371485D01*
X221220057Y-196514342D01*
X221362914Y-196585771D01*
X221577200Y-196585771D01*
X221720057Y-196514342D01*
X221791485Y-196442914D01*
X222505771Y-196585771D02*
X222505771Y-195085771D01*
X222505771Y-195657200D02*
X222648628Y-195585771D01*
X222934342Y-195585771D01*
X223077200Y-195657200D01*
X223148628Y-195728628D01*
X223220057Y-195871485D01*
X223220057Y-196300057D01*
X223148628Y-196442914D01*
X223077200Y-196514342D01*
X222934342Y-196585771D01*
X222648628Y-196585771D01*
X222505771Y-196514342D01*
X224505771Y-195585771D02*
X224505771Y-196585771D01*
X223862914Y-195585771D02*
X223862914Y-196371485D01*
X223934342Y-196514342D01*
X224077200Y-196585771D01*
X224291485Y-196585771D01*
X224434342Y-196514342D01*
X224505771Y-196442914D01*
X225220057Y-195585771D02*
X225220057Y-196585771D01*
X225220057Y-195728628D02*
X225291485Y-195657200D01*
X225434342Y-195585771D01*
X225648628Y-195585771D01*
X225791485Y-195657200D01*
X225862914Y-195800057D01*
X225862914Y-196585771D01*
X226362914Y-195585771D02*
X226934342Y-195585771D01*
X226577200Y-195085771D02*
X226577200Y-196371485D01*
X226648628Y-196514342D01*
X226791485Y-196585771D01*
X226934342Y-196585771D01*
X228077200Y-195585771D02*
X228077200Y-196585771D01*
X227434342Y-195585771D02*
X227434342Y-196371485D01*
X227505771Y-196514342D01*
X227648628Y-196585771D01*
X227862914Y-196585771D01*
X228005771Y-196514342D01*
X228077200Y-196442914D01*
X229577200Y-196585771D02*
X228720057Y-196585771D01*
X229148628Y-196585771D02*
X229148628Y-195085771D01*
X229005771Y-195300057D01*
X228862914Y-195442914D01*
X228720057Y-195514342D01*
X230434342Y-195728628D02*
X230291485Y-195657200D01*
X230220057Y-195585771D01*
X230148628Y-195442914D01*
X230148628Y-195371485D01*
X230220057Y-195228628D01*
X230291485Y-195157200D01*
X230434342Y-195085771D01*
X230720057Y-195085771D01*
X230862914Y-195157200D01*
X230934342Y-195228628D01*
X231005771Y-195371485D01*
X231005771Y-195442914D01*
X230934342Y-195585771D01*
X230862914Y-195657200D01*
X230720057Y-195728628D01*
X230434342Y-195728628D01*
X230291485Y-195800057D01*
X230220057Y-195871485D01*
X230148628Y-196014342D01*
X230148628Y-196300057D01*
X230220057Y-196442914D01*
X230291485Y-196514342D01*
X230434342Y-196585771D01*
X230720057Y-196585771D01*
X230862914Y-196514342D01*
X230934342Y-196442914D01*
X231005771Y-196300057D01*
X231005771Y-196014342D01*
X230934342Y-195871485D01*
X230862914Y-195800057D01*
X230720057Y-195728628D01*
X231648628Y-196442914D02*
X231720057Y-196514342D01*
X231648628Y-196585771D01*
X231577200Y-196514342D01*
X231648628Y-196442914D01*
X231648628Y-196585771D01*
X232648628Y-195085771D02*
X232791485Y-195085771D01*
X232934342Y-195157200D01*
X233005771Y-195228628D01*
X233077200Y-195371485D01*
X233148628Y-195657200D01*
X233148628Y-196014342D01*
X233077200Y-196300057D01*
X233005771Y-196442914D01*
X232934342Y-196514342D01*
X232791485Y-196585771D01*
X232648628Y-196585771D01*
X232505771Y-196514342D01*
X232434342Y-196442914D01*
X232362914Y-196300057D01*
X232291485Y-196014342D01*
X232291485Y-195657200D01*
X232362914Y-195371485D01*
X232434342Y-195228628D01*
X232505771Y-195157200D01*
X232648628Y-195085771D01*
X234434342Y-195585771D02*
X234434342Y-196585771D01*
X234077200Y-195014342D02*
X233720057Y-196085771D01*
X234648628Y-196085771D01*
X235220057Y-196442914D02*
X235291485Y-196514342D01*
X235220057Y-196585771D01*
X235148628Y-196514342D01*
X235220057Y-196442914D01*
X235220057Y-196585771D01*
X236720057Y-196585771D02*
X235862914Y-196585771D01*
X236291485Y-196585771D02*
X236291485Y-195085771D01*
X236148628Y-195300057D01*
X236005771Y-195442914D01*
X235862914Y-195514342D01*
D10*
D11*
X177002200Y-191507200D02*
X285002200Y-191507200D01*
D10*
D12*
X264411485Y-193785771D02*
X263911485Y-193071485D01*
X263554342Y-193785771D02*
X263554342Y-192285771D01*
X264125771Y-192285771D01*
X264268628Y-192357200D01*
X264340057Y-192428628D01*
X264411485Y-192571485D01*
X264411485Y-192785771D01*
X264340057Y-192928628D01*
X264268628Y-193000057D01*
X264125771Y-193071485D01*
X263554342Y-193071485D01*
X265625771Y-193714342D02*
X265482914Y-193785771D01*
X265197200Y-193785771D01*
X265054342Y-193714342D01*
X264982914Y-193571485D01*
X264982914Y-193000057D01*
X265054342Y-192857200D01*
X265197200Y-192785771D01*
X265482914Y-192785771D01*
X265625771Y-192857200D01*
X265697200Y-193000057D01*
X265697200Y-193142914D01*
X264982914Y-193285771D01*
X266197200Y-192785771D02*
X266554342Y-193785771D01*
X266911485Y-192785771D01*
X267482914Y-193642914D02*
X267554342Y-193714342D01*
X267482914Y-193785771D01*
X267411485Y-193714342D01*
X267482914Y-193642914D01*
X267482914Y-193785771D01*
X267482914Y-192857200D02*
X267554342Y-192928628D01*
X267482914Y-193000057D01*
X267411485Y-192928628D01*
X267482914Y-192857200D01*
X267482914Y-193000057D01*
X269268628Y-192428628D02*
X269340057Y-192357200D01*
X269482914Y-192285771D01*
X269840057Y-192285771D01*
X269982914Y-192357200D01*
X270054342Y-192428628D01*
X270125771Y-192571485D01*
X270125771Y-192714342D01*
X270054342Y-192928628D01*
X269197200Y-193785771D01*
X270125771Y-193785771D01*
X271054342Y-192285771D02*
X271197200Y-192285771D01*
X271340057Y-192357200D01*
X271411485Y-192428628D01*
X271482914Y-192571485D01*
X271554342Y-192857200D01*
X271554342Y-193214342D01*
X271482914Y-193500057D01*
X271411485Y-193642914D01*
X271340057Y-193714342D01*
X271197200Y-193785771D01*
X271054342Y-193785771D01*
X270911485Y-193714342D01*
X270840057Y-193642914D01*
X270768628Y-193500057D01*
X270697200Y-193214342D01*
X270697200Y-192857200D01*
X270768628Y-192571485D01*
X270840057Y-192428628D01*
X270911485Y-192357200D01*
X271054342Y-192285771D01*
X272125771Y-192428628D02*
X272197200Y-192357200D01*
X272340057Y-192285771D01*
X272697200Y-192285771D01*
X272840057Y-192357200D01*
X272911485Y-192428628D01*
X272982914Y-192571485D01*
X272982914Y-192714342D01*
X272911485Y-192928628D01*
X272054342Y-193785771D01*
X272982914Y-193785771D01*
X273911485Y-192285771D02*
X274054342Y-192285771D01*
X274197200Y-192357200D01*
X274268628Y-192428628D01*
X274340057Y-192571485D01*
X274411485Y-192857200D01*
X274411485Y-193214342D01*
X274340057Y-193500057D01*
X274268628Y-193642914D01*
X274197200Y-193714342D01*
X274054342Y-193785771D01*
X273911485Y-193785771D01*
X273768628Y-193714342D01*
X273697200Y-193642914D01*
X273625771Y-193500057D01*
X273554342Y-193214342D01*
X273554342Y-192857200D01*
X273625771Y-192571485D01*
X273697200Y-192428628D01*
X273768628Y-192357200D01*
X273911485Y-192285771D01*
X275054342Y-193642914D02*
X275125771Y-193714342D01*
X275054342Y-193785771D01*
X274982914Y-193714342D01*
X275054342Y-193642914D01*
X275054342Y-193785771D01*
X276554342Y-193785771D02*
X275697200Y-193785771D01*
X276125771Y-193785771D02*
X276125771Y-192285771D01*
X275982914Y-192500057D01*
X275840057Y-192642914D01*
X275697200Y-192714342D01*
X277482914Y-192285771D02*
X277625771Y-192285771D01*
X277768628Y-192357200D01*
X277840057Y-192428628D01*
X277911485Y-192571485D01*
X277982914Y-192857200D01*
X277982914Y-193214342D01*
X277911485Y-193500057D01*
X277840057Y-193642914D01*
X277768628Y-193714342D01*
X277625771Y-193785771D01*
X277482914Y-193785771D01*
X277340057Y-193714342D01*
X277268628Y-193642914D01*
X277197200Y-193500057D01*
X277125771Y-193214342D01*
X277125771Y-192857200D01*
X277197200Y-192571485D01*
X277268628Y-192428628D01*
X277340057Y-192357200D01*
X277482914Y-192285771D01*
X278625771Y-193214342D02*
X279768628Y-193214342D01*
X280768628Y-192285771D02*
X280911485Y-192285771D01*
X281054342Y-192357200D01*
X281125771Y-192428628D01*
X281197200Y-192571485D01*
X281268628Y-192857200D01*
X281268628Y-193214342D01*
X281197200Y-193500057D01*
X281125771Y-193642914D01*
X281054342Y-193714342D01*
X280911485Y-193785771D01*
X280768628Y-193785771D01*
X280625771Y-193714342D01*
X280554342Y-193642914D01*
X280482914Y-193500057D01*
X280411485Y-193214342D01*
X280411485Y-192857200D01*
X280482914Y-192571485D01*
X280554342Y-192428628D01*
X280625771Y-192357200D01*
X280768628Y-192285771D01*
X282697200Y-193785771D02*
X281840057Y-193785771D01*
X282268628Y-193785771D02*
X282268628Y-192285771D01*
X282125771Y-192500057D01*
X281982914Y-192642914D01*
X281840057Y-192714342D01*
D10*
D11*
X178362914Y-193714342D02*
X178577200Y-193785771D01*
X178934342Y-193785771D01*
X179077200Y-193714342D01*
X179148628Y-193642914D01*
X179220057Y-193500057D01*
X179220057Y-193357200D01*
X179148628Y-193214342D01*
X179077200Y-193142914D01*
X178934342Y-193071485D01*
X178648628Y-193000057D01*
X178505771Y-192928628D01*
X178434342Y-192857200D01*
X178362914Y-192714342D01*
X178362914Y-192571485D01*
X178434342Y-192428628D01*
X178505771Y-192357200D01*
X178648628Y-192285771D01*
X179005771Y-192285771D01*
X179220057Y-192357200D01*
X179862914Y-193785771D02*
X179862914Y-192785771D01*
X179862914Y-192285771D02*
X179791485Y-192357200D01*
X179862914Y-192428628D01*
X179934342Y-192357200D01*
X179862914Y-192285771D01*
X179862914Y-192428628D01*
X180434342Y-192785771D02*
X181220057Y-192785771D01*
X180434342Y-193785771D01*
X181220057Y-193785771D01*
X182362914Y-193714342D02*
X182220057Y-193785771D01*
X181934342Y-193785771D01*
X181791485Y-193714342D01*
X181720057Y-193571485D01*
X181720057Y-193000057D01*
X181791485Y-192857200D01*
X181934342Y-192785771D01*
X182220057Y-192785771D01*
X182362914Y-192857200D01*
X182434342Y-193000057D01*
X182434342Y-193142914D01*
X181720057Y-193285771D01*
X183077200Y-193642914D02*
X183148628Y-193714342D01*
X183077200Y-193785771D01*
X183005771Y-193714342D01*
X183077200Y-193642914D01*
X183077200Y-193785771D01*
X183077200Y-192857200D02*
X183148628Y-192928628D01*
X183077200Y-193000057D01*
X183005771Y-192928628D01*
X183077200Y-192857200D01*
X183077200Y-193000057D01*
X184862914Y-193357200D02*
X185577200Y-193357200D01*
X184720057Y-193785771D02*
X185220057Y-192285771D01*
X185720057Y-193785771D01*
X186862914Y-192785771D02*
X186862914Y-193785771D01*
X186505771Y-192214342D02*
X186148628Y-193285771D01*
X187077200Y-193285771D01*
D10*
D11*
X263434342Y-196585771D02*
X263434342Y-195085771D01*
X264791485Y-196585771D02*
X264791485Y-195085771D01*
X264791485Y-196514342D02*
X264648628Y-196585771D01*
X264362914Y-196585771D01*
X264220057Y-196514342D01*
X264148628Y-196442914D01*
X264077200Y-196300057D01*
X264077200Y-195871485D01*
X264148628Y-195728628D01*
X264220057Y-195657200D01*
X264362914Y-195585771D01*
X264648628Y-195585771D01*
X264791485Y-195657200D01*
X265505771Y-196442914D02*
X265577200Y-196514342D01*
X265505771Y-196585771D01*
X265434342Y-196514342D01*
X265505771Y-196442914D01*
X265505771Y-196585771D01*
X265505771Y-195657200D02*
X265577200Y-195728628D01*
X265505771Y-195800057D01*
X265434342Y-195728628D01*
X265505771Y-195657200D01*
X265505771Y-195800057D01*
X268148628Y-196585771D02*
X267291485Y-196585771D01*
X267720057Y-196585771D02*
X267720057Y-195085771D01*
X267577200Y-195300057D01*
X267434342Y-195442914D01*
X267291485Y-195514342D01*
X269862914Y-195014342D02*
X268577200Y-196942914D01*
X271148628Y-196585771D02*
X270291485Y-196585771D01*
X270720057Y-196585771D02*
X270720057Y-195085771D01*
X270577200Y-195300057D01*
X270434342Y-195442914D01*
X270291485Y-195514342D01*
D10*
D11*
X177002200Y-187507200D02*
X285002200Y-187507200D01*
D10*
D13*
X178714580Y-188211961D02*
X179857438Y-188211961D01*
X179036009Y-190211961D02*
X179286009Y-188211961D01*
X180274104Y-190211961D02*
X180440771Y-188878628D01*
X180524104Y-188211961D02*
X180416961Y-188307200D01*
X180500295Y-188402438D01*
X180607438Y-188307200D01*
X180524104Y-188211961D01*
X180500295Y-188402438D01*
X181107438Y-188878628D02*
X181869342Y-188878628D01*
X181476485Y-188211961D02*
X181262200Y-189926247D01*
X181333628Y-190116723D01*
X181512200Y-190211961D01*
X181702676Y-190211961D01*
X182655057Y-190211961D02*
X182476485Y-190116723D01*
X182405057Y-189926247D01*
X182619342Y-188211961D01*
X184190771Y-190116723D02*
X183988390Y-190211961D01*
X183607438Y-190211961D01*
X183428866Y-190116723D01*
X183357438Y-189926247D01*
X183452676Y-189164342D01*
X183571723Y-188973866D01*
X183774104Y-188878628D01*
X184155057Y-188878628D01*
X184333628Y-188973866D01*
X184405057Y-189164342D01*
X184381247Y-189354819D01*
X183405057Y-189545295D01*
X185155057Y-190021485D02*
X185238390Y-190116723D01*
X185131247Y-190211961D01*
X185047914Y-190116723D01*
X185155057Y-190021485D01*
X185131247Y-190211961D01*
X185286009Y-188973866D02*
X185369342Y-189069104D01*
X185262200Y-189164342D01*
X185178866Y-189069104D01*
X185286009Y-188973866D01*
X185262200Y-189164342D01*
X187607438Y-190211961D02*
X187774104Y-188878628D01*
X187750295Y-189069104D02*
X187857438Y-188973866D01*
X188059819Y-188878628D01*
X188345533Y-188878628D01*
X188524104Y-188973866D01*
X188595533Y-189164342D01*
X188464580Y-190211961D01*
X188595533Y-189164342D02*
X188714580Y-188973866D01*
X188916961Y-188878628D01*
X189202676Y-188878628D01*
X189381247Y-188973866D01*
X189452676Y-189164342D01*
X189321723Y-190211961D01*
X190274104Y-190211961D02*
X190440771Y-188878628D01*
X190524104Y-188211961D02*
X190416961Y-188307200D01*
X190500295Y-188402438D01*
X190607438Y-188307200D01*
X190524104Y-188211961D01*
X190500295Y-188402438D01*
X191393152Y-188878628D02*
X191226485Y-190211961D01*
X191369342Y-189069104D02*
X191476485Y-188973866D01*
X191678866Y-188878628D01*
X191964580Y-188878628D01*
X192143152Y-188973866D01*
X192214580Y-189164342D01*
X192083628Y-190211961D01*
X193036009Y-190211961D02*
X193202676Y-188878628D01*
X193286009Y-188211961D02*
X193178866Y-188307200D01*
X193262200Y-188402438D01*
X193369342Y-188307200D01*
X193286009Y-188211961D01*
X193262200Y-188402438D01*
X194083628Y-189450057D02*
X195607438Y-189450057D01*
X196464580Y-190211961D02*
X196714580Y-188211961D01*
X197190771Y-188211961D01*
X197464580Y-188307200D01*
X197631247Y-188497676D01*
X197702676Y-188688152D01*
X197750295Y-189069104D01*
X197714580Y-189354819D01*
X197571723Y-189735771D01*
X197452676Y-189926247D01*
X197238390Y-190116723D01*
X196940771Y-190211961D01*
X196464580Y-190211961D01*
X198464580Y-190211961D02*
X198714580Y-188211961D01*
X199416961Y-190211961D02*
X199666961Y-188211961D01*
X200155057Y-189640533D01*
X201000295Y-188211961D01*
X200750295Y-190211961D01*
X201702676Y-190211961D02*
X201952676Y-188211961D01*
X202440771Y-189640533D01*
X203286009Y-188211961D01*
X203036009Y-190211961D01*
X206309819Y-189164342D02*
X206583628Y-189259580D01*
X206666961Y-189354819D01*
X206738390Y-189545295D01*
X206702676Y-189831009D01*
X206583628Y-190021485D01*
X206476485Y-190116723D01*
X206274104Y-190211961D01*
X205512200Y-190211961D01*
X205762200Y-188211961D01*
X206428866Y-188211961D01*
X206607438Y-188307200D01*
X206690771Y-188402438D01*
X206762200Y-188592914D01*
X206738390Y-188783390D01*
X206619342Y-188973866D01*
X206512200Y-189069104D01*
X206309819Y-189164342D01*
X205643152Y-189164342D01*
X207512200Y-190211961D02*
X207678866Y-188878628D01*
X207631247Y-189259580D02*
X207750295Y-189069104D01*
X207857438Y-188973866D01*
X208059819Y-188878628D01*
X208250295Y-188878628D01*
X209524104Y-190116723D02*
X209321723Y-190211961D01*
X208940771Y-190211961D01*
X208762200Y-190116723D01*
X208690771Y-189926247D01*
X208786009Y-189164342D01*
X208905057Y-188973866D01*
X209107438Y-188878628D01*
X209488390Y-188878628D01*
X209666961Y-188973866D01*
X209738390Y-189164342D01*
X209714580Y-189354819D01*
X208738390Y-189545295D01*
X211321723Y-190211961D02*
X211452676Y-189164342D01*
X211381247Y-188973866D01*
X211202676Y-188878628D01*
X210821723Y-188878628D01*
X210619342Y-188973866D01*
X211333628Y-190116723D02*
X211131247Y-190211961D01*
X210655057Y-190211961D01*
X210476485Y-190116723D01*
X210405057Y-189926247D01*
X210428866Y-189735771D01*
X210547914Y-189545295D01*
X210750295Y-189450057D01*
X211226485Y-189450057D01*
X211428866Y-189354819D01*
X212274104Y-190211961D02*
X212524104Y-188211961D01*
X212559819Y-189450057D02*
X213036009Y-190211961D01*
X213202676Y-188878628D02*
X212345533Y-189640533D01*
X214178866Y-190211961D02*
X214000295Y-190116723D01*
X213916961Y-190021485D01*
X213845533Y-189831009D01*
X213916961Y-189259580D01*
X214036009Y-189069104D01*
X214143152Y-188973866D01*
X214345533Y-188878628D01*
X214631247Y-188878628D01*
X214809819Y-188973866D01*
X214893152Y-189069104D01*
X214964580Y-189259580D01*
X214893152Y-189831009D01*
X214774104Y-190021485D01*
X214666961Y-190116723D01*
X214464580Y-190211961D01*
X214178866Y-190211961D01*
X216726485Y-188878628D02*
X216559819Y-190211961D01*
X215869342Y-188878628D02*
X215738390Y-189926247D01*
X215809819Y-190116723D01*
X215988390Y-190211961D01*
X216274104Y-190211961D01*
X216476485Y-190116723D01*
X216583628Y-190021485D01*
X217393152Y-188878628D02*
X218155057Y-188878628D01*
X217762200Y-188211961D02*
X217547914Y-189926247D01*
X217619342Y-190116723D01*
X217797914Y-190211961D01*
X217988390Y-190211961D01*
X220976485Y-189164342D02*
X221250295Y-189259580D01*
X221333628Y-189354819D01*
X221405057Y-189545295D01*
X221369342Y-189831009D01*
X221250295Y-190021485D01*
X221143152Y-190116723D01*
X220940771Y-190211961D01*
X220178866Y-190211961D01*
X220428866Y-188211961D01*
X221095533Y-188211961D01*
X221274104Y-188307200D01*
X221357438Y-188402438D01*
X221428866Y-188592914D01*
X221405057Y-188783390D01*
X221286009Y-188973866D01*
X221178866Y-189069104D01*
X220976485Y-189164342D01*
X220309819Y-189164342D01*
X222464580Y-190211961D02*
X222286009Y-190116723D01*
X222202676Y-190021485D01*
X222131247Y-189831009D01*
X222202676Y-189259580D01*
X222321723Y-189069104D01*
X222428866Y-188973866D01*
X222631247Y-188878628D01*
X222916961Y-188878628D01*
X223095533Y-188973866D01*
X223178866Y-189069104D01*
X223250295Y-189259580D01*
X223178866Y-189831009D01*
X223059819Y-190021485D01*
X222952676Y-190116723D01*
X222750295Y-190211961D01*
X222464580Y-190211961D01*
X224845533Y-190211961D02*
X224976485Y-189164342D01*
X224905057Y-188973866D01*
X224726485Y-188878628D01*
X224345533Y-188878628D01*
X224143152Y-188973866D01*
X224857438Y-190116723D02*
X224655057Y-190211961D01*
X224178866Y-190211961D01*
X224000295Y-190116723D01*
X223928866Y-189926247D01*
X223952676Y-189735771D01*
X224071723Y-189545295D01*
X224274104Y-189450057D01*
X224750295Y-189450057D01*
X224952676Y-189354819D01*
X225797914Y-190211961D02*
X225964580Y-188878628D01*
X225916961Y-189259580D02*
X226036009Y-189069104D01*
X226143152Y-188973866D01*
X226345533Y-188878628D01*
X226536009Y-188878628D01*
X227893152Y-190211961D02*
X228143152Y-188211961D01*
X227905057Y-190116723D02*
X227702676Y-190211961D01*
X227321723Y-190211961D01*
X227143152Y-190116723D01*
X227059819Y-190021485D01*
X226988390Y-189831009D01*
X227059819Y-189259580D01*
X227178866Y-189069104D01*
X227286009Y-188973866D01*
X227488390Y-188878628D01*
X227869342Y-188878628D01*
X228047914Y-188973866D01*
D10*
D11*
X178934342Y-185600057D02*
X178434342Y-185600057D01*
X178434342Y-186385771D02*
X178434342Y-184885771D01*
X179148628Y-184885771D01*
X179720057Y-186385771D02*
X179720057Y-185385771D01*
X179720057Y-184885771D02*
X179648628Y-184957200D01*
X179720057Y-185028628D01*
X179791485Y-184957200D01*
X179720057Y-184885771D01*
X179720057Y-185028628D01*
X180648628Y-186385771D02*
X180505771Y-186314342D01*
X180434342Y-186171485D01*
X180434342Y-184885771D01*
X181791485Y-186314342D02*
X181648628Y-186385771D01*
X181362914Y-186385771D01*
X181220057Y-186314342D01*
X181148628Y-186171485D01*
X181148628Y-185600057D01*
X181220057Y-185457200D01*
X181362914Y-185385771D01*
X181648628Y-185385771D01*
X181791485Y-185457200D01*
X181862914Y-185600057D01*
X181862914Y-185742914D01*
X181148628Y-185885771D01*
X182505771Y-186242914D02*
X182577200Y-186314342D01*
X182505771Y-186385771D01*
X182434342Y-186314342D01*
X182505771Y-186242914D01*
X182505771Y-186385771D01*
X182505771Y-185457200D02*
X182577200Y-185528628D01*
X182505771Y-185600057D01*
X182434342Y-185528628D01*
X182505771Y-185457200D01*
X182505771Y-185600057D01*
X185005771Y-186385771D02*
X185005771Y-184885771D01*
X185005771Y-186314342D02*
X184862914Y-186385771D01*
X184577200Y-186385771D01*
X184434342Y-186314342D01*
X184362914Y-186242914D01*
X184291485Y-186100057D01*
X184291485Y-185671485D01*
X184362914Y-185528628D01*
X184434342Y-185457200D01*
X184577200Y-185385771D01*
X184862914Y-185385771D01*
X185005771Y-185457200D01*
X185720057Y-186385771D02*
X185720057Y-185385771D01*
X185720057Y-184885771D02*
X185648628Y-184957200D01*
X185720057Y-185028628D01*
X185791485Y-184957200D01*
X185720057Y-184885771D01*
X185720057Y-185028628D01*
X186434342Y-186385771D02*
X186434342Y-185385771D01*
X186434342Y-185528628D02*
X186505771Y-185457200D01*
X186648628Y-185385771D01*
X186862914Y-185385771D01*
X187005771Y-185457200D01*
X187077200Y-185600057D01*
X187077200Y-186385771D01*
X187077200Y-185600057D02*
X187148628Y-185457200D01*
X187291485Y-185385771D01*
X187505771Y-185385771D01*
X187648628Y-185457200D01*
X187720057Y-185600057D01*
X187720057Y-186385771D01*
X188434342Y-186385771D02*
X188434342Y-185385771D01*
X188434342Y-185528628D02*
X188505771Y-185457200D01*
X188648628Y-185385771D01*
X188862914Y-185385771D01*
X189005771Y-185457200D01*
X189077200Y-185600057D01*
X189077200Y-186385771D01*
X189077200Y-185600057D02*
X189148628Y-185457200D01*
X189291485Y-185385771D01*
X189505771Y-185385771D01*
X189648628Y-185457200D01*
X189720057Y-185600057D01*
X189720057Y-186385771D01*
X190077200Y-186528628D02*
X191220057Y-186528628D01*
X191577200Y-186385771D02*
X191577200Y-184885771D01*
X191577200Y-185457200D02*
X191720057Y-185385771D01*
X192005771Y-185385771D01*
X192148628Y-185457200D01*
X192220057Y-185528628D01*
X192291485Y-185671485D01*
X192291485Y-186100057D01*
X192220057Y-186242914D01*
X192148628Y-186314342D01*
X192005771Y-186385771D01*
X191720057Y-186385771D01*
X191577200Y-186314342D01*
X192934342Y-186385771D02*
X192934342Y-185385771D01*
X192934342Y-185671485D02*
X193005771Y-185528628D01*
X193077200Y-185457200D01*
X193220057Y-185385771D01*
X193362914Y-185385771D01*
X194434342Y-186314342D02*
X194291485Y-186385771D01*
X194005771Y-186385771D01*
X193862914Y-186314342D01*
X193791485Y-186171485D01*
X193791485Y-185600057D01*
X193862914Y-185457200D01*
X194005771Y-185385771D01*
X194291485Y-185385771D01*
X194434342Y-185457200D01*
X194505771Y-185600057D01*
X194505771Y-185742914D01*
X193791485Y-185885771D01*
X195791485Y-186385771D02*
X195791485Y-185600057D01*
X195720057Y-185457200D01*
X195577200Y-185385771D01*
X195291485Y-185385771D01*
X195148628Y-185457200D01*
X195791485Y-186314342D02*
X195648628Y-186385771D01*
X195291485Y-186385771D01*
X195148628Y-186314342D01*
X195077200Y-186171485D01*
X195077200Y-186028628D01*
X195148628Y-185885771D01*
X195291485Y-185814342D01*
X195648628Y-185814342D01*
X195791485Y-185742914D01*
X196505771Y-186385771D02*
X196505771Y-184885771D01*
X196648628Y-185814342D02*
X197077200Y-186385771D01*
X197077200Y-185385771D02*
X196505771Y-185957200D01*
X197934342Y-186385771D02*
X197791485Y-186314342D01*
X197720057Y-186242914D01*
X197648628Y-186100057D01*
X197648628Y-185671485D01*
X197720057Y-185528628D01*
X197791485Y-185457200D01*
X197934342Y-185385771D01*
X198148628Y-185385771D01*
X198291485Y-185457200D01*
X198362914Y-185528628D01*
X198434342Y-185671485D01*
X198434342Y-186100057D01*
X198362914Y-186242914D01*
X198291485Y-186314342D01*
X198148628Y-186385771D01*
X197934342Y-186385771D01*
X199720057Y-185385771D02*
X199720057Y-186385771D01*
X199077200Y-185385771D02*
X199077200Y-186171485D01*
X199148628Y-186314342D01*
X199291485Y-186385771D01*
X199505771Y-186385771D01*
X199648628Y-186314342D01*
X199720057Y-186242914D01*
X200220057Y-185385771D02*
X200791485Y-185385771D01*
X200434342Y-184885771D02*
X200434342Y-186171485D01*
X200505771Y-186314342D01*
X200648628Y-186385771D01*
X200791485Y-186385771D01*
X201291485Y-186242914D02*
X201362914Y-186314342D01*
X201291485Y-186385771D01*
X201220057Y-186314342D01*
X201291485Y-186242914D01*
X201291485Y-186385771D01*
X202005771Y-186385771D02*
X202005771Y-184885771D01*
X202148628Y-185814342D02*
X202577200Y-186385771D01*
X202577200Y-185385771D02*
X202005771Y-185957200D01*
X203220057Y-186385771D02*
X203220057Y-185385771D01*
X203220057Y-184885771D02*
X203148628Y-184957200D01*
X203220057Y-185028628D01*
X203291485Y-184957200D01*
X203220057Y-184885771D01*
X203220057Y-185028628D01*
X204577200Y-186314342D02*
X204434342Y-186385771D01*
X204148628Y-186385771D01*
X204005771Y-186314342D01*
X203934342Y-186242914D01*
X203862914Y-186100057D01*
X203862914Y-185671485D01*
X203934342Y-185528628D01*
X204005771Y-185457200D01*
X204148628Y-185385771D01*
X204434342Y-185385771D01*
X204577200Y-185457200D01*
X205862914Y-186385771D02*
X205862914Y-185600057D01*
X205791485Y-185457200D01*
X205648628Y-185385771D01*
X205362914Y-185385771D01*
X205220057Y-185457200D01*
X205862914Y-186314342D02*
X205720057Y-186385771D01*
X205362914Y-186385771D01*
X205220057Y-186314342D01*
X205148628Y-186171485D01*
X205148628Y-186028628D01*
X205220057Y-185885771D01*
X205362914Y-185814342D01*
X205720057Y-185814342D01*
X205862914Y-185742914D01*
X207220057Y-186385771D02*
X207220057Y-184885771D01*
X207220057Y-186314342D02*
X207077200Y-186385771D01*
X206791485Y-186385771D01*
X206648628Y-186314342D01*
X206577200Y-186242914D01*
X206505771Y-186100057D01*
X206505771Y-185671485D01*
X206577200Y-185528628D01*
X206648628Y-185457200D01*
X206791485Y-185385771D01*
X207077200Y-185385771D01*
X207220057Y-185457200D01*
X207577200Y-186528628D02*
X208720057Y-186528628D01*
X209077200Y-185385771D02*
X209077200Y-186885771D01*
X209077200Y-185457200D02*
X209220057Y-185385771D01*
X209505771Y-185385771D01*
X209648628Y-185457200D01*
X209720057Y-185528628D01*
X209791485Y-185671485D01*
X209791485Y-186100057D01*
X209720057Y-186242914D01*
X209648628Y-186314342D01*
X209505771Y-186385771D01*
X209220057Y-186385771D01*
X209077200Y-186314342D01*
X211077200Y-186314342D02*
X210934342Y-186385771D01*
X210648628Y-186385771D01*
X210505771Y-186314342D01*
X210434342Y-186242914D01*
X210362914Y-186100057D01*
X210362914Y-185671485D01*
X210434342Y-185528628D01*
X210505771Y-185457200D01*
X210648628Y-185385771D01*
X210934342Y-185385771D01*
X211077200Y-185457200D01*
X211720057Y-186385771D02*
X211720057Y-184885771D01*
X211720057Y-185457200D02*
X211862914Y-185385771D01*
X212148628Y-185385771D01*
X212291485Y-185457200D01*
X212362914Y-185528628D01*
X212434342Y-185671485D01*
X212434342Y-186100057D01*
X212362914Y-186242914D01*
X212291485Y-186314342D01*
X212148628Y-186385771D01*
X211862914Y-186385771D01*
X211720057Y-186314342D01*
D10*
D11*
X177002200Y-181507200D02*
X285002200Y-181507200D01*
D10*
D11*
X178362914Y-183614342D02*
X178577200Y-183685771D01*
X178934342Y-183685771D01*
X179077200Y-183614342D01*
X179148628Y-183542914D01*
X179220057Y-183400057D01*
X179220057Y-183257200D01*
X179148628Y-183114342D01*
X179077200Y-183042914D01*
X178934342Y-182971485D01*
X178648628Y-182900057D01*
X178505771Y-182828628D01*
X178434342Y-182757200D01*
X178362914Y-182614342D01*
X178362914Y-182471485D01*
X178434342Y-182328628D01*
X178505771Y-182257200D01*
X178648628Y-182185771D01*
X179005771Y-182185771D01*
X179220057Y-182257200D01*
X179862914Y-183685771D02*
X179862914Y-182185771D01*
X180505771Y-183685771D02*
X180505771Y-182900057D01*
X180434342Y-182757200D01*
X180291485Y-182685771D01*
X180077200Y-182685771D01*
X179934342Y-182757200D01*
X179862914Y-182828628D01*
X181791485Y-183614342D02*
X181648628Y-183685771D01*
X181362914Y-183685771D01*
X181220057Y-183614342D01*
X181148628Y-183471485D01*
X181148628Y-182900057D01*
X181220057Y-182757200D01*
X181362914Y-182685771D01*
X181648628Y-182685771D01*
X181791485Y-182757200D01*
X181862914Y-182900057D01*
X181862914Y-183042914D01*
X181148628Y-183185771D01*
X183077200Y-183614342D02*
X182934342Y-183685771D01*
X182648628Y-183685771D01*
X182505771Y-183614342D01*
X182434342Y-183471485D01*
X182434342Y-182900057D01*
X182505771Y-182757200D01*
X182648628Y-182685771D01*
X182934342Y-182685771D01*
X183077200Y-182757200D01*
X183148628Y-182900057D01*
X183148628Y-183042914D01*
X182434342Y-183185771D01*
X183577200Y-182685771D02*
X184148628Y-182685771D01*
X183791485Y-182185771D02*
X183791485Y-183471485D01*
X183862914Y-183614342D01*
X184005771Y-183685771D01*
X184148628Y-183685771D01*
X184648628Y-183542914D02*
X184720057Y-183614342D01*
X184648628Y-183685771D01*
X184577200Y-183614342D01*
X184648628Y-183542914D01*
X184648628Y-183685771D01*
X184648628Y-182757200D02*
X184720057Y-182828628D01*
X184648628Y-182900057D01*
X184577200Y-182828628D01*
X184648628Y-182757200D01*
X184648628Y-182900057D01*
D10*
D11*
X178220057Y-176185771D02*
X179077200Y-176185771D01*
X178648628Y-177685771D02*
X178648628Y-176185771D01*
X179577200Y-177685771D02*
X179577200Y-176185771D01*
X180220057Y-177685771D02*
X180220057Y-176900057D01*
X180148628Y-176757200D01*
X180005771Y-176685771D01*
X179791485Y-176685771D01*
X179648628Y-176757200D01*
X179577200Y-176828628D01*
X180934342Y-177685771D02*
X180934342Y-176685771D01*
X180934342Y-176185771D02*
X180862914Y-176257200D01*
X180934342Y-176328628D01*
X181005771Y-176257200D01*
X180934342Y-176185771D01*
X180934342Y-176328628D01*
X181577200Y-177614342D02*
X181720057Y-177685771D01*
X182005771Y-177685771D01*
X182148628Y-177614342D01*
X182220057Y-177471485D01*
X182220057Y-177400057D01*
X182148628Y-177257200D01*
X182005771Y-177185771D01*
X181791485Y-177185771D01*
X181648628Y-177114342D01*
X181577200Y-176971485D01*
X181577200Y-176900057D01*
X181648628Y-176757200D01*
X181791485Y-176685771D01*
X182005771Y-176685771D01*
X182148628Y-176757200D01*
X184005771Y-176685771D02*
X184005771Y-178185771D01*
X184005771Y-176757200D02*
X184148628Y-176685771D01*
X184434342Y-176685771D01*
X184577200Y-176757200D01*
X184648628Y-176828628D01*
X184720057Y-176971485D01*
X184720057Y-177400057D01*
X184648628Y-177542914D01*
X184577200Y-177614342D01*
X184434342Y-177685771D01*
X184148628Y-177685771D01*
X184005771Y-177614342D01*
X185362914Y-177685771D02*
X185362914Y-176685771D01*
X185362914Y-176971485D02*
X185434342Y-176828628D01*
X185505771Y-176757200D01*
X185648628Y-176685771D01*
X185791485Y-176685771D01*
X186505771Y-177685771D02*
X186362914Y-177614342D01*
X186291485Y-177542914D01*
X186220057Y-177400057D01*
X186220057Y-176971485D01*
X186291485Y-176828628D01*
X186362914Y-176757200D01*
X186505771Y-176685771D01*
X186720057Y-176685771D01*
X186862914Y-176757200D01*
X186934342Y-176828628D01*
X187005771Y-176971485D01*
X187005771Y-177400057D01*
X186934342Y-177542914D01*
X186862914Y-177614342D01*
X186720057Y-177685771D01*
X186505771Y-177685771D01*
X187648628Y-176685771D02*
X187648628Y-177971485D01*
X187577200Y-178114342D01*
X187434342Y-178185771D01*
X187362914Y-178185771D01*
X187648628Y-176185771D02*
X187577200Y-176257200D01*
X187648628Y-176328628D01*
X187720057Y-176257200D01*
X187648628Y-176185771D01*
X187648628Y-176328628D01*
X188934342Y-177614342D02*
X188791485Y-177685771D01*
X188505771Y-177685771D01*
X188362914Y-177614342D01*
X188291485Y-177471485D01*
X188291485Y-176900057D01*
X188362914Y-176757200D01*
X188505771Y-176685771D01*
X188791485Y-176685771D01*
X188934342Y-176757200D01*
X189005771Y-176900057D01*
X189005771Y-177042914D01*
X188291485Y-177185771D01*
X190291485Y-177614342D02*
X190148628Y-177685771D01*
X189862914Y-177685771D01*
X189720057Y-177614342D01*
X189648628Y-177542914D01*
X189577200Y-177400057D01*
X189577200Y-176971485D01*
X189648628Y-176828628D01*
X189720057Y-176757200D01*
X189862914Y-176685771D01*
X190148628Y-176685771D01*
X190291485Y-176757200D01*
X190720057Y-176685771D02*
X191291485Y-176685771D01*
X190934342Y-176185771D02*
X190934342Y-177471485D01*
X191005771Y-177614342D01*
X191148628Y-177685771D01*
X191291485Y-177685771D01*
X192934342Y-177685771D02*
X192934342Y-176685771D01*
X192934342Y-176185771D02*
X192862914Y-176257200D01*
X192934342Y-176328628D01*
X193005771Y-176257200D01*
X192934342Y-176185771D01*
X192934342Y-176328628D01*
X193577200Y-177614342D02*
X193720057Y-177685771D01*
X194005771Y-177685771D01*
X194148628Y-177614342D01*
X194220057Y-177471485D01*
X194220057Y-177400057D01*
X194148628Y-177257200D01*
X194005771Y-177185771D01*
X193791485Y-177185771D01*
X193648628Y-177114342D01*
X193577200Y-176971485D01*
X193577200Y-176900057D01*
X193648628Y-176757200D01*
X193791485Y-176685771D01*
X194005771Y-176685771D01*
X194148628Y-176757200D01*
X196648628Y-177685771D02*
X196648628Y-176900057D01*
X196577200Y-176757200D01*
X196434342Y-176685771D01*
X196148628Y-176685771D01*
X196005771Y-176757200D01*
X196648628Y-177614342D02*
X196505771Y-177685771D01*
X196148628Y-177685771D01*
X196005771Y-177614342D01*
X195934342Y-177471485D01*
X195934342Y-177328628D01*
X196005771Y-177185771D01*
X196148628Y-177114342D01*
X196505771Y-177114342D01*
X196648628Y-177042914D01*
X198505771Y-177685771D02*
X198505771Y-176185771D01*
X199148628Y-177685771D02*
X199148628Y-176900057D01*
X199077200Y-176757200D01*
X198934342Y-176685771D01*
X198720057Y-176685771D01*
X198577200Y-176757200D01*
X198505771Y-176828628D01*
X200505771Y-177685771D02*
X200505771Y-176900057D01*
X200434342Y-176757200D01*
X200291485Y-176685771D01*
X200005771Y-176685771D01*
X199862914Y-176757200D01*
X200505771Y-177614342D02*
X200362914Y-177685771D01*
X200005771Y-177685771D01*
X199862914Y-177614342D01*
X199791485Y-177471485D01*
X199791485Y-177328628D01*
X199862914Y-177185771D01*
X200005771Y-177114342D01*
X200362914Y-177114342D01*
X200505771Y-177042914D01*
X201220057Y-177685771D02*
X201220057Y-176685771D01*
X201220057Y-176971485D02*
X201291485Y-176828628D01*
X201362914Y-176757200D01*
X201505771Y-176685771D01*
X201648628Y-176685771D01*
X202791485Y-177685771D02*
X202791485Y-176185771D01*
X202791485Y-177614342D02*
X202648628Y-177685771D01*
X202362914Y-177685771D01*
X202220057Y-177614342D01*
X202148628Y-177542914D01*
X202077200Y-177400057D01*
X202077200Y-176971485D01*
X202148628Y-176828628D01*
X202220057Y-176757200D01*
X202362914Y-176685771D01*
X202648628Y-176685771D01*
X202791485Y-176757200D01*
X203362914Y-176685771D02*
X203648628Y-177685771D01*
X203934342Y-176971485D01*
X204220057Y-177685771D01*
X204505771Y-176685771D01*
X205720057Y-177685771D02*
X205720057Y-176900057D01*
X205648628Y-176757200D01*
X205505771Y-176685771D01*
X205220057Y-176685771D01*
X205077200Y-176757200D01*
X205720057Y-177614342D02*
X205577200Y-177685771D01*
X205220057Y-177685771D01*
X205077200Y-177614342D01*
X205005771Y-177471485D01*
X205005771Y-177328628D01*
X205077200Y-177185771D01*
X205220057Y-177114342D01*
X205577200Y-177114342D01*
X205720057Y-177042914D01*
X206434342Y-177685771D02*
X206434342Y-176685771D01*
X206434342Y-176971485D02*
X206505771Y-176828628D01*
X206577200Y-176757200D01*
X206720057Y-176685771D01*
X206862914Y-176685771D01*
X207934342Y-177614342D02*
X207791485Y-177685771D01*
X207505771Y-177685771D01*
X207362914Y-177614342D01*
X207291485Y-177471485D01*
X207291485Y-176900057D01*
X207362914Y-176757200D01*
X207505771Y-176685771D01*
X207791485Y-176685771D01*
X207934342Y-176757200D01*
X208005771Y-176900057D01*
X208005771Y-177042914D01*
X207291485Y-177185771D01*
X209720057Y-177614342D02*
X209862914Y-177685771D01*
X210148628Y-177685771D01*
X210291485Y-177614342D01*
X210362914Y-177471485D01*
X210362914Y-177400057D01*
X210291485Y-177257200D01*
X210148628Y-177185771D01*
X209934342Y-177185771D01*
X209791485Y-177114342D01*
X209720057Y-176971485D01*
X209720057Y-176900057D01*
X209791485Y-176757200D01*
X209934342Y-176685771D01*
X210148628Y-176685771D01*
X210291485Y-176757200D01*
X211648628Y-176685771D02*
X211648628Y-177685771D01*
X211005771Y-176685771D02*
X211005771Y-177471485D01*
X211077200Y-177614342D01*
X211220057Y-177685771D01*
X211434342Y-177685771D01*
X211577200Y-177614342D01*
X211648628Y-177542914D01*
X212362914Y-176685771D02*
X212362914Y-178185771D01*
X212362914Y-176757200D02*
X212505771Y-176685771D01*
X212791485Y-176685771D01*
X212934342Y-176757200D01*
X213005771Y-176828628D01*
X213077200Y-176971485D01*
X213077200Y-177400057D01*
X213005771Y-177542914D01*
X212934342Y-177614342D01*
X212791485Y-177685771D01*
X212505771Y-177685771D01*
X212362914Y-177614342D01*
X213720057Y-176685771D02*
X213720057Y-178185771D01*
X213720057Y-176757200D02*
X213862914Y-176685771D01*
X214148628Y-176685771D01*
X214291485Y-176757200D01*
X214362914Y-176828628D01*
X214434342Y-176971485D01*
X214434342Y-177400057D01*
X214362914Y-177542914D01*
X214291485Y-177614342D01*
X214148628Y-177685771D01*
X213862914Y-177685771D01*
X213720057Y-177614342D01*
X215291485Y-177685771D02*
X215148628Y-177614342D01*
X215077200Y-177542914D01*
X215005771Y-177400057D01*
X215005771Y-176971485D01*
X215077200Y-176828628D01*
X215148628Y-176757200D01*
X215291485Y-176685771D01*
X215505771Y-176685771D01*
X215648628Y-176757200D01*
X215720057Y-176828628D01*
X215791485Y-176971485D01*
X215791485Y-177400057D01*
X215720057Y-177542914D01*
X215648628Y-177614342D01*
X215505771Y-177685771D01*
X215291485Y-177685771D01*
X216434342Y-177685771D02*
X216434342Y-176685771D01*
X216434342Y-176971485D02*
X216505771Y-176828628D01*
X216577200Y-176757200D01*
X216720057Y-176685771D01*
X216862914Y-176685771D01*
X217148628Y-176685771D02*
X217720057Y-176685771D01*
X217362914Y-176185771D02*
X217362914Y-177471485D01*
X217434342Y-177614342D01*
X217577200Y-177685771D01*
X217720057Y-177685771D01*
X219148628Y-176685771D02*
X219720057Y-176685771D01*
X219362914Y-177685771D02*
X219362914Y-176400057D01*
X219434342Y-176257200D01*
X219577200Y-176185771D01*
X219720057Y-176185771D01*
X220434342Y-177685771D02*
X220291485Y-177614342D01*
X220220057Y-177542914D01*
X220148628Y-177400057D01*
X220148628Y-176971485D01*
X220220057Y-176828628D01*
X220291485Y-176757200D01*
X220434342Y-176685771D01*
X220648628Y-176685771D01*
X220791485Y-176757200D01*
X220862914Y-176828628D01*
X220934342Y-176971485D01*
X220934342Y-177400057D01*
X220862914Y-177542914D01*
X220791485Y-177614342D01*
X220648628Y-177685771D01*
X220434342Y-177685771D01*
X221577200Y-177685771D02*
X221577200Y-176685771D01*
X221577200Y-176971485D02*
X221648628Y-176828628D01*
X221720057Y-176757200D01*
X221862914Y-176685771D01*
X222005771Y-176685771D01*
X223934342Y-176185771D02*
X224220057Y-176185771D01*
X224362914Y-176257200D01*
X224505771Y-176400057D01*
X224577200Y-176685771D01*
X224577200Y-177185771D01*
X224505771Y-177471485D01*
X224362914Y-177614342D01*
X224220057Y-177685771D01*
X223934342Y-177685771D01*
X223791485Y-177614342D01*
X223648628Y-177471485D01*
X223577200Y-177185771D01*
X223577200Y-176685771D01*
X223648628Y-176400057D01*
X223791485Y-176257200D01*
X223934342Y-176185771D01*
X225220057Y-176685771D02*
X225220057Y-178185771D01*
X225220057Y-176757200D02*
X225362914Y-176685771D01*
X225648628Y-176685771D01*
X225791485Y-176757200D01*
X225862914Y-176828628D01*
X225934342Y-176971485D01*
X225934342Y-177400057D01*
X225862914Y-177542914D01*
X225791485Y-177614342D01*
X225648628Y-177685771D01*
X225362914Y-177685771D01*
X225220057Y-177614342D01*
X227148628Y-177614342D02*
X227005771Y-177685771D01*
X226720057Y-177685771D01*
X226577200Y-177614342D01*
X226505771Y-177471485D01*
X226505771Y-176900057D01*
X226577200Y-176757200D01*
X226720057Y-176685771D01*
X227005771Y-176685771D01*
X227148628Y-176757200D01*
X227220057Y-176900057D01*
X227220057Y-177042914D01*
X226505771Y-177185771D01*
X227862914Y-176685771D02*
X227862914Y-177685771D01*
X227862914Y-176828628D02*
X227934342Y-176757200D01*
X228077200Y-176685771D01*
X228291485Y-176685771D01*
X228434342Y-176757200D01*
X228505771Y-176900057D01*
X228505771Y-177685771D01*
X229220057Y-177685771D02*
X229220057Y-176185771D01*
X229934342Y-177685771D02*
X229934342Y-176185771D01*
X230505771Y-176185771D01*
X230648628Y-176257200D01*
X230720057Y-176328628D01*
X230791485Y-176471485D01*
X230791485Y-176685771D01*
X230720057Y-176828628D01*
X230648628Y-176900057D01*
X230505771Y-176971485D01*
X229934342Y-176971485D01*
X231434342Y-177685771D02*
X231434342Y-176185771D01*
X231934342Y-177257200D01*
X232434342Y-176185771D01*
X232434342Y-177685771D01*
X234005771Y-177542914D02*
X233934342Y-177614342D01*
X233720057Y-177685771D01*
X233577200Y-177685771D01*
X233362914Y-177614342D01*
X233220057Y-177471485D01*
X233148628Y-177328628D01*
X233077200Y-177042914D01*
X233077200Y-176828628D01*
X233148628Y-176542914D01*
X233220057Y-176400057D01*
X233362914Y-176257200D01*
X233577200Y-176185771D01*
X233720057Y-176185771D01*
X233934342Y-176257200D01*
X234005771Y-176328628D01*
X234648628Y-177114342D02*
X235791485Y-177114342D01*
X236505771Y-177685771D02*
X236505771Y-176185771D01*
X236505771Y-176900057D02*
X237362914Y-176900057D01*
X237362914Y-177685771D02*
X237362914Y-176185771D01*
X237934342Y-176185771D02*
X238291485Y-177685771D01*
X238577200Y-176614342D01*
X238862914Y-177685771D01*
X239220057Y-176185771D01*
X241577200Y-177685771D02*
X241577200Y-176185771D01*
X241577200Y-177614342D02*
X241434342Y-177685771D01*
X241148628Y-177685771D01*
X241005771Y-177614342D01*
X240934342Y-177542914D01*
X240862914Y-177400057D01*
X240862914Y-176971485D01*
X240934342Y-176828628D01*
X241005771Y-176757200D01*
X241148628Y-176685771D01*
X241434342Y-176685771D01*
X241577200Y-176757200D01*
X242862914Y-177614342D02*
X242720057Y-177685771D01*
X242434342Y-177685771D01*
X242291485Y-177614342D01*
X242220057Y-177471485D01*
X242220057Y-176900057D01*
X242291485Y-176757200D01*
X242434342Y-176685771D01*
X242720057Y-176685771D01*
X242862914Y-176757200D01*
X242934342Y-176900057D01*
X242934342Y-177042914D01*
X242220057Y-177185771D01*
X243434342Y-176685771D02*
X243791485Y-177685771D01*
X244148628Y-176685771D01*
X245291485Y-177614342D02*
X245148628Y-177685771D01*
X244862914Y-177685771D01*
X244720057Y-177614342D01*
X244648628Y-177471485D01*
X244648628Y-176900057D01*
X244720057Y-176757200D01*
X244862914Y-176685771D01*
X245148628Y-176685771D01*
X245291485Y-176757200D01*
X245362914Y-176900057D01*
X245362914Y-177042914D01*
X244648628Y-177185771D01*
X246220057Y-177685771D02*
X246077200Y-177614342D01*
X246005771Y-177471485D01*
X246005771Y-176185771D01*
X247005771Y-177685771D02*
X246862914Y-177614342D01*
X246791485Y-177542914D01*
X246720057Y-177400057D01*
X246720057Y-176971485D01*
X246791485Y-176828628D01*
X246862914Y-176757200D01*
X247005771Y-176685771D01*
X247220057Y-176685771D01*
X247362914Y-176757200D01*
X247434342Y-176828628D01*
X247505771Y-176971485D01*
X247505771Y-177400057D01*
X247434342Y-177542914D01*
X247362914Y-177614342D01*
X247220057Y-177685771D01*
X247005771Y-177685771D01*
X248148628Y-176685771D02*
X248148628Y-178185771D01*
X248148628Y-176757200D02*
X248291485Y-176685771D01*
X248577200Y-176685771D01*
X248720057Y-176757200D01*
X248791485Y-176828628D01*
X248862914Y-176971485D01*
X248862914Y-177400057D01*
X248791485Y-177542914D01*
X248720057Y-177614342D01*
X248577200Y-177685771D01*
X248291485Y-177685771D01*
X248148628Y-177614342D01*
X249505771Y-177685771D02*
X249505771Y-176685771D01*
X249505771Y-176828628D02*
X249577200Y-176757200D01*
X249720057Y-176685771D01*
X249934342Y-176685771D01*
X250077200Y-176757200D01*
X250148628Y-176900057D01*
X250148628Y-177685771D01*
X250148628Y-176900057D02*
X250220057Y-176757200D01*
X250362914Y-176685771D01*
X250577200Y-176685771D01*
X250720057Y-176757200D01*
X250791485Y-176900057D01*
X250791485Y-177685771D01*
X252077200Y-177614342D02*
X251934342Y-177685771D01*
X251648628Y-177685771D01*
X251505771Y-177614342D01*
X251434342Y-177471485D01*
X251434342Y-176900057D01*
X251505771Y-176757200D01*
X251648628Y-176685771D01*
X251934342Y-176685771D01*
X252077200Y-176757200D01*
X252148628Y-176900057D01*
X252148628Y-177042914D01*
X251434342Y-177185771D01*
X252791485Y-176685771D02*
X252791485Y-177685771D01*
X252791485Y-176828628D02*
X252862914Y-176757200D01*
X253005771Y-176685771D01*
X253220057Y-176685771D01*
X253362914Y-176757200D01*
X253434342Y-176900057D01*
X253434342Y-177685771D01*
X253934342Y-176685771D02*
X254505771Y-176685771D01*
X254148628Y-176185771D02*
X254148628Y-177471485D01*
X254220057Y-177614342D01*
X254362914Y-177685771D01*
X254505771Y-177685771D01*
D10*
D11*
X197002200Y-191507200D02*
X197002200Y-194507200D01*
D10*
D11*
X261002200Y-191507200D02*
X261002200Y-198007200D01*
D14*
%TO.C,J20*%
X147660000Y-35310000D03*
X147660000Y-37850000D03*
X145120000Y-35310000D03*
X145120000Y-37850000D03*
X142580000Y-35310000D03*
X142580000Y-37850000D03*
X140040000Y-35310000D03*
X140040000Y-37850000D03*
X137500000Y-35310000D03*
D15*
X137500000Y-37850000D03*
%TD*%
D16*
%TO.C,SW1*%
X174400000Y-117800000D03*
D17*
X174400000Y-120340000D03*
X174400000Y-122880000D03*
X179480000Y-117800000D03*
X179480000Y-120340000D03*
X179480000Y-122880000D03*
%TD*%
%TO.C,C5*%
G36*
G01*
X169240000Y-111497500D02*
X169240000Y-111102500D01*
G75*
G02*
X169412500Y-110930000I172500J0D01*
G01*
X169757500Y-110930000D01*
G75*
G02*
X169930000Y-111102500I0J-172500D01*
G01*
X169930000Y-111497500D01*
G75*
G02*
X169757500Y-111670000I-172500J0D01*
G01*
X169412500Y-111670000D01*
G75*
G02*
X169240000Y-111497500I0J172500D01*
G01*
G37*
G36*
G01*
X168270000Y-111497500D02*
X168270000Y-111102500D01*
G75*
G02*
X168442500Y-110930000I172500J0D01*
G01*
X168787500Y-110930000D01*
G75*
G02*
X168960000Y-111102500I0J-172500D01*
G01*
X168960000Y-111497500D01*
G75*
G02*
X168787500Y-111670000I-172500J0D01*
G01*
X168442500Y-111670000D01*
G75*
G02*
X168270000Y-111497500I0J172500D01*
G01*
G37*
%TD*%
%TO.C,R11*%
G36*
G01*
X170240000Y-120597500D02*
X170240000Y-120202500D01*
G75*
G02*
X170412500Y-120030000I172500J0D01*
G01*
X170757500Y-120030000D01*
G75*
G02*
X170930000Y-120202500I0J-172500D01*
G01*
X170930000Y-120597500D01*
G75*
G02*
X170757500Y-120770000I-172500J0D01*
G01*
X170412500Y-120770000D01*
G75*
G02*
X170240000Y-120597500I0J172500D01*
G01*
G37*
G36*
G01*
X169270000Y-120597500D02*
X169270000Y-120202500D01*
G75*
G02*
X169442500Y-120030000I172500J0D01*
G01*
X169787500Y-120030000D01*
G75*
G02*
X169960000Y-120202500I0J-172500D01*
G01*
X169960000Y-120597500D01*
G75*
G02*
X169787500Y-120770000I-172500J0D01*
G01*
X169442500Y-120770000D01*
G75*
G02*
X169270000Y-120597500I0J172500D01*
G01*
G37*
%TD*%
%TO.C,R10*%
G36*
G01*
X170240000Y-119497500D02*
X170240000Y-119102500D01*
G75*
G02*
X170412500Y-118930000I172500J0D01*
G01*
X170757500Y-118930000D01*
G75*
G02*
X170930000Y-119102500I0J-172500D01*
G01*
X170930000Y-119497500D01*
G75*
G02*
X170757500Y-119670000I-172500J0D01*
G01*
X170412500Y-119670000D01*
G75*
G02*
X170240000Y-119497500I0J172500D01*
G01*
G37*
G36*
G01*
X169270000Y-119497500D02*
X169270000Y-119102500D01*
G75*
G02*
X169442500Y-118930000I172500J0D01*
G01*
X169787500Y-118930000D01*
G75*
G02*
X169960000Y-119102500I0J-172500D01*
G01*
X169960000Y-119497500D01*
G75*
G02*
X169787500Y-119670000I-172500J0D01*
G01*
X169442500Y-119670000D01*
G75*
G02*
X169270000Y-119497500I0J172500D01*
G01*
G37*
%TD*%
%TO.C,R9*%
G36*
G01*
X168960000Y-113502500D02*
X168960000Y-113897500D01*
G75*
G02*
X168787500Y-114070000I-172500J0D01*
G01*
X168442500Y-114070000D01*
G75*
G02*
X168270000Y-113897500I0J172500D01*
G01*
X168270000Y-113502500D01*
G75*
G02*
X168442500Y-113330000I172500J0D01*
G01*
X168787500Y-113330000D01*
G75*
G02*
X168960000Y-113502500I0J-172500D01*
G01*
G37*
G36*
G01*
X169930000Y-113502500D02*
X169930000Y-113897500D01*
G75*
G02*
X169757500Y-114070000I-172500J0D01*
G01*
X169412500Y-114070000D01*
G75*
G02*
X169240000Y-113897500I0J172500D01*
G01*
X169240000Y-113502500D01*
G75*
G02*
X169412500Y-113330000I172500J0D01*
G01*
X169757500Y-113330000D01*
G75*
G02*
X169930000Y-113502500I0J-172500D01*
G01*
G37*
%TD*%
%TO.C,R8*%
G36*
G01*
X191102500Y-101040000D02*
X191497500Y-101040000D01*
G75*
G02*
X191670000Y-101212500I0J-172500D01*
G01*
X191670000Y-101557500D01*
G75*
G02*
X191497500Y-101730000I-172500J0D01*
G01*
X191102500Y-101730000D01*
G75*
G02*
X190930000Y-101557500I0J172500D01*
G01*
X190930000Y-101212500D01*
G75*
G02*
X191102500Y-101040000I172500J0D01*
G01*
G37*
G36*
G01*
X191102500Y-100070000D02*
X191497500Y-100070000D01*
G75*
G02*
X191670000Y-100242500I0J-172500D01*
G01*
X191670000Y-100587500D01*
G75*
G02*
X191497500Y-100760000I-172500J0D01*
G01*
X191102500Y-100760000D01*
G75*
G02*
X190930000Y-100587500I0J172500D01*
G01*
X190930000Y-100242500D01*
G75*
G02*
X191102500Y-100070000I172500J0D01*
G01*
G37*
%TD*%
%TO.C,R7*%
G36*
G01*
X191102500Y-111740000D02*
X191497500Y-111740000D01*
G75*
G02*
X191670000Y-111912500I0J-172500D01*
G01*
X191670000Y-112257500D01*
G75*
G02*
X191497500Y-112430000I-172500J0D01*
G01*
X191102500Y-112430000D01*
G75*
G02*
X190930000Y-112257500I0J172500D01*
G01*
X190930000Y-111912500D01*
G75*
G02*
X191102500Y-111740000I172500J0D01*
G01*
G37*
G36*
G01*
X191102500Y-110770000D02*
X191497500Y-110770000D01*
G75*
G02*
X191670000Y-110942500I0J-172500D01*
G01*
X191670000Y-111287500D01*
G75*
G02*
X191497500Y-111460000I-172500J0D01*
G01*
X191102500Y-111460000D01*
G75*
G02*
X190930000Y-111287500I0J172500D01*
G01*
X190930000Y-110942500D01*
G75*
G02*
X191102500Y-110770000I172500J0D01*
G01*
G37*
%TD*%
%TO.C,R6*%
G36*
G01*
X180092500Y-91600000D02*
X180487500Y-91600000D01*
G75*
G02*
X180660000Y-91772500I0J-172500D01*
G01*
X180660000Y-92117500D01*
G75*
G02*
X180487500Y-92290000I-172500J0D01*
G01*
X180092500Y-92290000D01*
G75*
G02*
X179920000Y-92117500I0J172500D01*
G01*
X179920000Y-91772500D01*
G75*
G02*
X180092500Y-91600000I172500J0D01*
G01*
G37*
G36*
G01*
X180092500Y-90630000D02*
X180487500Y-90630000D01*
G75*
G02*
X180660000Y-90802500I0J-172500D01*
G01*
X180660000Y-91147500D01*
G75*
G02*
X180487500Y-91320000I-172500J0D01*
G01*
X180092500Y-91320000D01*
G75*
G02*
X179920000Y-91147500I0J172500D01*
G01*
X179920000Y-90802500D01*
G75*
G02*
X180092500Y-90630000I172500J0D01*
G01*
G37*
%TD*%
%TO.C,R5*%
G36*
G01*
X177092500Y-91600000D02*
X177487500Y-91600000D01*
G75*
G02*
X177660000Y-91772500I0J-172500D01*
G01*
X177660000Y-92117500D01*
G75*
G02*
X177487500Y-92290000I-172500J0D01*
G01*
X177092500Y-92290000D01*
G75*
G02*
X176920000Y-92117500I0J172500D01*
G01*
X176920000Y-91772500D01*
G75*
G02*
X177092500Y-91600000I172500J0D01*
G01*
G37*
G36*
G01*
X177092500Y-90630000D02*
X177487500Y-90630000D01*
G75*
G02*
X177660000Y-90802500I0J-172500D01*
G01*
X177660000Y-91147500D01*
G75*
G02*
X177487500Y-91320000I-172500J0D01*
G01*
X177092500Y-91320000D01*
G75*
G02*
X176920000Y-91147500I0J172500D01*
G01*
X176920000Y-90802500D01*
G75*
G02*
X177092500Y-90630000I172500J0D01*
G01*
G37*
%TD*%
%TO.C,R4*%
G36*
G01*
X174092500Y-91600000D02*
X174487500Y-91600000D01*
G75*
G02*
X174660000Y-91772500I0J-172500D01*
G01*
X174660000Y-92117500D01*
G75*
G02*
X174487500Y-92290000I-172500J0D01*
G01*
X174092500Y-92290000D01*
G75*
G02*
X173920000Y-92117500I0J172500D01*
G01*
X173920000Y-91772500D01*
G75*
G02*
X174092500Y-91600000I172500J0D01*
G01*
G37*
G36*
G01*
X174092500Y-90630000D02*
X174487500Y-90630000D01*
G75*
G02*
X174660000Y-90802500I0J-172500D01*
G01*
X174660000Y-91147500D01*
G75*
G02*
X174487500Y-91320000I-172500J0D01*
G01*
X174092500Y-91320000D01*
G75*
G02*
X173920000Y-91147500I0J172500D01*
G01*
X173920000Y-90802500D01*
G75*
G02*
X174092500Y-90630000I172500J0D01*
G01*
G37*
%TD*%
%TO.C,R3*%
G36*
G01*
X171092500Y-91600000D02*
X171487500Y-91600000D01*
G75*
G02*
X171660000Y-91772500I0J-172500D01*
G01*
X171660000Y-92117500D01*
G75*
G02*
X171487500Y-92290000I-172500J0D01*
G01*
X171092500Y-92290000D01*
G75*
G02*
X170920000Y-92117500I0J172500D01*
G01*
X170920000Y-91772500D01*
G75*
G02*
X171092500Y-91600000I172500J0D01*
G01*
G37*
G36*
G01*
X171092500Y-90630000D02*
X171487500Y-90630000D01*
G75*
G02*
X171660000Y-90802500I0J-172500D01*
G01*
X171660000Y-91147500D01*
G75*
G02*
X171487500Y-91320000I-172500J0D01*
G01*
X171092500Y-91320000D01*
G75*
G02*
X170920000Y-91147500I0J172500D01*
G01*
X170920000Y-90802500D01*
G75*
G02*
X171092500Y-90630000I172500J0D01*
G01*
G37*
%TD*%
%TO.C,R2*%
G36*
G01*
X168092500Y-91600000D02*
X168487500Y-91600000D01*
G75*
G02*
X168660000Y-91772500I0J-172500D01*
G01*
X168660000Y-92117500D01*
G75*
G02*
X168487500Y-92290000I-172500J0D01*
G01*
X168092500Y-92290000D01*
G75*
G02*
X167920000Y-92117500I0J172500D01*
G01*
X167920000Y-91772500D01*
G75*
G02*
X168092500Y-91600000I172500J0D01*
G01*
G37*
G36*
G01*
X168092500Y-90630000D02*
X168487500Y-90630000D01*
G75*
G02*
X168660000Y-90802500I0J-172500D01*
G01*
X168660000Y-91147500D01*
G75*
G02*
X168487500Y-91320000I-172500J0D01*
G01*
X168092500Y-91320000D01*
G75*
G02*
X167920000Y-91147500I0J172500D01*
G01*
X167920000Y-90802500D01*
G75*
G02*
X168092500Y-90630000I172500J0D01*
G01*
G37*
%TD*%
%TO.C,R1*%
G36*
G01*
X159860000Y-43302500D02*
X159860000Y-43697500D01*
G75*
G02*
X159687500Y-43870000I-172500J0D01*
G01*
X159342500Y-43870000D01*
G75*
G02*
X159170000Y-43697500I0J172500D01*
G01*
X159170000Y-43302500D01*
G75*
G02*
X159342500Y-43130000I172500J0D01*
G01*
X159687500Y-43130000D01*
G75*
G02*
X159860000Y-43302500I0J-172500D01*
G01*
G37*
G36*
G01*
X160830000Y-43302500D02*
X160830000Y-43697500D01*
G75*
G02*
X160657500Y-43870000I-172500J0D01*
G01*
X160312500Y-43870000D01*
G75*
G02*
X160140000Y-43697500I0J172500D01*
G01*
X160140000Y-43302500D01*
G75*
G02*
X160312500Y-43130000I172500J0D01*
G01*
X160657500Y-43130000D01*
G75*
G02*
X160830000Y-43302500I0J-172500D01*
G01*
G37*
%TD*%
D18*
%TO.C,J12*%
X110600000Y-82000000D03*
D17*
X152000000Y-82000000D03*
D19*
X111800000Y-83380000D03*
X112400000Y-83380000D03*
X113000000Y-83380000D03*
X113600000Y-83380000D03*
X114200000Y-83380000D03*
X114800000Y-83380000D03*
X115400000Y-83380000D03*
X116000000Y-83380000D03*
X116600000Y-83380000D03*
X117200000Y-83380000D03*
X117800000Y-83380000D03*
X118400000Y-83380000D03*
X119000000Y-83380000D03*
X119600000Y-83380000D03*
X120200000Y-83380000D03*
X120800000Y-83380000D03*
X121400000Y-83380000D03*
X122000000Y-83380000D03*
X122600000Y-83380000D03*
X123200000Y-83380000D03*
X123800000Y-83380000D03*
X124400000Y-83380000D03*
X125000000Y-83380000D03*
X125600000Y-83380000D03*
X126200000Y-83380000D03*
X126800000Y-83380000D03*
X127400000Y-83380000D03*
X128000000Y-83380000D03*
X128600000Y-83380000D03*
X129200000Y-83380000D03*
X129800000Y-83380000D03*
X130400000Y-83380000D03*
X131000000Y-83380000D03*
X131600000Y-83380000D03*
X132200000Y-83380000D03*
X132800000Y-83380000D03*
X133400000Y-83380000D03*
X134000000Y-83380000D03*
X134600000Y-83380000D03*
X135200000Y-83380000D03*
X135800000Y-83380000D03*
X136400000Y-83380000D03*
X137000000Y-83380000D03*
X137600000Y-83380000D03*
X138200000Y-83380000D03*
X138800000Y-83380000D03*
X139400000Y-83380000D03*
X140000000Y-83380000D03*
X140600000Y-83380000D03*
X141200000Y-83380000D03*
X141800000Y-83380000D03*
X142400000Y-83380000D03*
X143000000Y-83380000D03*
X143600000Y-83380000D03*
X144200000Y-83380000D03*
X144800000Y-83380000D03*
X145400000Y-83380000D03*
X146000000Y-83380000D03*
X146600000Y-83380000D03*
X147200000Y-83380000D03*
X147800000Y-83380000D03*
X148400000Y-83380000D03*
X149000000Y-83380000D03*
X149600000Y-83380000D03*
X150200000Y-83380000D03*
X153800000Y-83380000D03*
X111800000Y-80620000D03*
X112400000Y-80620000D03*
X113000000Y-80620000D03*
X113600000Y-80620000D03*
X114200000Y-80620000D03*
X114800000Y-80620000D03*
X115400000Y-80620000D03*
X116000000Y-80620000D03*
X116600000Y-80620000D03*
X117200000Y-80620000D03*
X117800000Y-80620000D03*
X118400000Y-80620000D03*
X119000000Y-80620000D03*
X119600000Y-80620000D03*
X120200000Y-80620000D03*
X120800000Y-80620000D03*
X121400000Y-80620000D03*
X122000000Y-80620000D03*
X122600000Y-80620000D03*
X123200000Y-80620000D03*
X123800000Y-80620000D03*
X124400000Y-80620000D03*
X125000000Y-80620000D03*
X125600000Y-80620000D03*
X126200000Y-80620000D03*
X126800000Y-80620000D03*
X127400000Y-80620000D03*
X128000000Y-80620000D03*
X128600000Y-80620000D03*
X129200000Y-80620000D03*
X129800000Y-80620000D03*
X130400000Y-80620000D03*
X131000000Y-80620000D03*
X131600000Y-80620000D03*
X132200000Y-80620000D03*
X132800000Y-80620000D03*
X133400000Y-80620000D03*
X134000000Y-80620000D03*
X134600000Y-80620000D03*
X135200000Y-80620000D03*
X135800000Y-80620000D03*
X136400000Y-80620000D03*
X137000000Y-80620000D03*
X137600000Y-80620000D03*
X138200000Y-80620000D03*
X138800000Y-80620000D03*
X139400000Y-80620000D03*
X140000000Y-80620000D03*
X140600000Y-80620000D03*
X141200000Y-80620000D03*
X141800000Y-80620000D03*
X142400000Y-80620000D03*
X143000000Y-80620000D03*
X143600000Y-80620000D03*
X144200000Y-80620000D03*
X144800000Y-80620000D03*
X145400000Y-80620000D03*
X146000000Y-80620000D03*
X146600000Y-80620000D03*
X147200000Y-80620000D03*
X147800000Y-80620000D03*
X148400000Y-80620000D03*
X149000000Y-80620000D03*
X149600000Y-80620000D03*
X150200000Y-80620000D03*
X153800000Y-80620000D03*
X154400000Y-83380000D03*
X155000000Y-83380000D03*
X155600000Y-83380000D03*
X156200000Y-83380000D03*
X156800000Y-83380000D03*
X157400000Y-83380000D03*
X158000000Y-83380000D03*
X158600000Y-83380000D03*
X159200000Y-83380000D03*
X159800000Y-83380000D03*
X160400000Y-83380000D03*
X161000000Y-83380000D03*
X161600000Y-83380000D03*
X162200000Y-83380000D03*
X162800000Y-83380000D03*
X163400000Y-83380000D03*
X164000000Y-83380000D03*
X164600000Y-83380000D03*
X165200000Y-83380000D03*
X165800000Y-83380000D03*
X166400000Y-83380000D03*
X167000000Y-83380000D03*
X167600000Y-83380000D03*
X168200000Y-83380000D03*
X168800000Y-83380000D03*
X169400000Y-83380000D03*
X170000000Y-83380000D03*
X170600000Y-83380000D03*
X171200000Y-83380000D03*
X171800000Y-83380000D03*
X172400000Y-83380000D03*
X173000000Y-83380000D03*
X173600000Y-83380000D03*
X174200000Y-83380000D03*
X174800000Y-83380000D03*
X175400000Y-83380000D03*
X176000000Y-83380000D03*
X176600000Y-83380000D03*
X177200000Y-83380000D03*
X177800000Y-83380000D03*
X178400000Y-83380000D03*
X179000000Y-83380000D03*
X179600000Y-83380000D03*
X180200000Y-83380000D03*
X180800000Y-83380000D03*
X181400000Y-83380000D03*
X182000000Y-83380000D03*
X182600000Y-83380000D03*
X183200000Y-83380000D03*
X183800000Y-83380000D03*
X184400000Y-83380000D03*
X185000000Y-83380000D03*
X185600000Y-83380000D03*
X186200000Y-83380000D03*
X186800000Y-83380000D03*
X187400000Y-83380000D03*
X154400000Y-80620000D03*
X155000000Y-80620000D03*
X155600000Y-80620000D03*
X156200000Y-80620000D03*
X156800000Y-80620000D03*
X157400000Y-80620000D03*
X158000000Y-80620000D03*
X158600000Y-80620000D03*
X159200000Y-80620000D03*
X159800000Y-80620000D03*
X160400000Y-80620000D03*
X161000000Y-80620000D03*
X161600000Y-80620000D03*
X162200000Y-80620000D03*
X162800000Y-80620000D03*
X163400000Y-80620000D03*
X164000000Y-80620000D03*
X164600000Y-80620000D03*
X165200000Y-80620000D03*
X165800000Y-80620000D03*
X166400000Y-80620000D03*
X167000000Y-80620000D03*
X167600000Y-80620000D03*
X168200000Y-80620000D03*
X168800000Y-80620000D03*
X169400000Y-80620000D03*
X170000000Y-80620000D03*
X170600000Y-80620000D03*
X171200000Y-80620000D03*
X171800000Y-80620000D03*
X172400000Y-80620000D03*
X173000000Y-80620000D03*
X173600000Y-80620000D03*
X174200000Y-80620000D03*
X174800000Y-80620000D03*
X175400000Y-80620000D03*
X176000000Y-80620000D03*
X176600000Y-80620000D03*
X177200000Y-80620000D03*
X177800000Y-80620000D03*
X178400000Y-80620000D03*
X179000000Y-80620000D03*
X179600000Y-80620000D03*
X180200000Y-80620000D03*
X180800000Y-80620000D03*
X181400000Y-80620000D03*
X182000000Y-80620000D03*
X182600000Y-80620000D03*
X183200000Y-80620000D03*
X183800000Y-80620000D03*
X184400000Y-80620000D03*
X185000000Y-80620000D03*
X185600000Y-80620000D03*
X186200000Y-80620000D03*
X186800000Y-80620000D03*
X187400000Y-80620000D03*
D20*
X152000000Y-85080000D03*
X152000000Y-78920000D03*
D21*
X104400000Y-82000000D03*
X194750000Y-82000000D03*
D18*
X188600000Y-82000000D03*
%TD*%
%TO.C,C4*%
G36*
G01*
X174560000Y-59602500D02*
X174560000Y-59997500D01*
G75*
G02*
X174387500Y-60170000I-172500J0D01*
G01*
X174042500Y-60170000D01*
G75*
G02*
X173870000Y-59997500I0J172500D01*
G01*
X173870000Y-59602500D01*
G75*
G02*
X174042500Y-59430000I172500J0D01*
G01*
X174387500Y-59430000D01*
G75*
G02*
X174560000Y-59602500I0J-172500D01*
G01*
G37*
G36*
G01*
X175530000Y-59602500D02*
X175530000Y-59997500D01*
G75*
G02*
X175357500Y-60170000I-172500J0D01*
G01*
X175012500Y-60170000D01*
G75*
G02*
X174840000Y-59997500I0J172500D01*
G01*
X174840000Y-59602500D01*
G75*
G02*
X175012500Y-59430000I172500J0D01*
G01*
X175357500Y-59430000D01*
G75*
G02*
X175530000Y-59602500I0J-172500D01*
G01*
G37*
%TD*%
%TO.C,C3*%
G36*
G01*
X174560000Y-60802500D02*
X174560000Y-61197500D01*
G75*
G02*
X174387500Y-61370000I-172500J0D01*
G01*
X174042500Y-61370000D01*
G75*
G02*
X173870000Y-61197500I0J172500D01*
G01*
X173870000Y-60802500D01*
G75*
G02*
X174042500Y-60630000I172500J0D01*
G01*
X174387500Y-60630000D01*
G75*
G02*
X174560000Y-60802500I0J-172500D01*
G01*
G37*
G36*
G01*
X175530000Y-60802500D02*
X175530000Y-61197500D01*
G75*
G02*
X175357500Y-61370000I-172500J0D01*
G01*
X175012500Y-61370000D01*
G75*
G02*
X174840000Y-61197500I0J172500D01*
G01*
X174840000Y-60802500D01*
G75*
G02*
X175012500Y-60630000I172500J0D01*
G01*
X175357500Y-60630000D01*
G75*
G02*
X175530000Y-60802500I0J-172500D01*
G01*
G37*
%TD*%
%TO.C,C2*%
G36*
G01*
X159700000Y-45218750D02*
X159700000Y-45781250D01*
G75*
G02*
X159456250Y-46025000I-243750J0D01*
G01*
X158968750Y-46025000D01*
G75*
G02*
X158725000Y-45781250I0J243750D01*
G01*
X158725000Y-45218750D01*
G75*
G02*
X158968750Y-44975000I243750J0D01*
G01*
X159456250Y-44975000D01*
G75*
G02*
X159700000Y-45218750I0J-243750D01*
G01*
G37*
G36*
G01*
X161275000Y-45218750D02*
X161275000Y-45781250D01*
G75*
G02*
X161031250Y-46025000I-243750J0D01*
G01*
X160543750Y-46025000D01*
G75*
G02*
X160300000Y-45781250I0J243750D01*
G01*
X160300000Y-45218750D01*
G75*
G02*
X160543750Y-44975000I243750J0D01*
G01*
X161031250Y-44975000D01*
G75*
G02*
X161275000Y-45218750I0J-243750D01*
G01*
G37*
%TD*%
%TO.C,C1*%
G36*
G01*
X180718750Y-41300000D02*
X181281250Y-41300000D01*
G75*
G02*
X181525000Y-41543750I0J-243750D01*
G01*
X181525000Y-42031250D01*
G75*
G02*
X181281250Y-42275000I-243750J0D01*
G01*
X180718750Y-42275000D01*
G75*
G02*
X180475000Y-42031250I0J243750D01*
G01*
X180475000Y-41543750D01*
G75*
G02*
X180718750Y-41300000I243750J0D01*
G01*
G37*
G36*
G01*
X180718750Y-39725000D02*
X181281250Y-39725000D01*
G75*
G02*
X181525000Y-39968750I0J-243750D01*
G01*
X181525000Y-40456250D01*
G75*
G02*
X181281250Y-40700000I-243750J0D01*
G01*
X180718750Y-40700000D01*
G75*
G02*
X180475000Y-40456250I0J243750D01*
G01*
X180475000Y-39968750D01*
G75*
G02*
X180718750Y-39725000I243750J0D01*
G01*
G37*
%TD*%
D22*
%TO.C,U1*%
X178150000Y-44800000D03*
X178150000Y-40200000D03*
X178150000Y-42500000D03*
D23*
X171850000Y-42500000D03*
%TD*%
D24*
%TO.C,J14*%
X197500000Y-90950000D03*
D25*
X197500000Y-93650000D03*
D26*
X197500000Y-89125000D03*
X197500000Y-95875000D03*
D27*
X194925000Y-90012500D03*
X194925000Y-94987500D03*
D28*
X194840000Y-91200000D03*
X194840000Y-91850000D03*
X194840000Y-92500000D03*
X194840000Y-93150000D03*
X194840000Y-93800000D03*
%TD*%
D29*
%TO.C,J18*%
X196100000Y-110100000D03*
D30*
X194830000Y-110100000D03*
X196100000Y-108830000D03*
X194830000Y-108830000D03*
X196100000Y-107560000D03*
X194830000Y-107560000D03*
X196100000Y-106290000D03*
X194830000Y-106290000D03*
X196100000Y-105020000D03*
X194830000Y-105020000D03*
X196100000Y-103750000D03*
X194830000Y-103750000D03*
X196100000Y-102480000D03*
X194830000Y-102480000D03*
%TD*%
D31*
%TO.C,J15*%
X193250000Y-67180000D03*
X193250000Y-64640000D03*
X193250000Y-56460000D03*
D16*
X182000000Y-65000000D03*
D17*
X182000000Y-62460000D03*
X182000000Y-59920000D03*
X182000000Y-57380000D03*
X179460000Y-63730000D03*
X179460000Y-61190000D03*
X179460000Y-58650000D03*
X179460000Y-56110000D03*
D32*
X185300000Y-68300000D03*
D33*
X188350000Y-66270000D03*
X188350000Y-54840000D03*
D32*
X185300000Y-52810000D03*
D31*
X193250000Y-53920000D03*
%TD*%
D34*
%TO.C,J13*%
X187000000Y-35200000D03*
D35*
X189800000Y-40000000D03*
D36*
X184000000Y-40000000D03*
%TD*%
D14*
%TO.C,J23*%
X149720000Y-44400000D03*
X147180000Y-44400000D03*
X144640000Y-44400000D03*
D15*
X142100000Y-44400000D03*
%TD*%
D14*
%TO.C,J22*%
X160120000Y-102670000D03*
X160120000Y-100130000D03*
X160120000Y-97590000D03*
D15*
X160120000Y-95050000D03*
%TD*%
D14*
%TO.C,J21*%
X155470000Y-102670000D03*
X155470000Y-100130000D03*
X155470000Y-97590000D03*
D15*
X155470000Y-95050000D03*
%TD*%
D37*
%TO.C,U2*%
X192270000Y-92322500D03*
X192270000Y-93397500D03*
D38*
X190495000Y-92860000D03*
X192345000Y-92860000D03*
D37*
X190570000Y-93397500D03*
X190570000Y-92322500D03*
%TD*%
D14*
%TO.C,JP1*%
X158860000Y-36200000D03*
D15*
X161400000Y-36200000D03*
%TD*%
D14*
%TO.C,J10*%
X141940000Y-115320000D03*
X139400000Y-115320000D03*
X141940000Y-112780000D03*
X139400000Y-112780000D03*
X141940000Y-110240000D03*
X139400000Y-110240000D03*
X141940000Y-107700000D03*
X139400000Y-107700000D03*
X141940000Y-105160000D03*
X139400000Y-105160000D03*
X141940000Y-102620000D03*
X139400000Y-102620000D03*
X141940000Y-100080000D03*
X139400000Y-100080000D03*
X141940000Y-97540000D03*
X139400000Y-97540000D03*
X141940000Y-95000000D03*
D15*
X139400000Y-95000000D03*
%TD*%
D14*
%TO.C,J11*%
X147180000Y-125460000D03*
X147180000Y-128000000D03*
X144640000Y-125460000D03*
X144640000Y-128000000D03*
X142100000Y-125460000D03*
X142100000Y-128000000D03*
X139560000Y-125460000D03*
X139560000Y-128000000D03*
X137020000Y-125460000D03*
X137020000Y-128000000D03*
X134480000Y-125460000D03*
X134480000Y-128000000D03*
X131940000Y-125460000D03*
X131940000Y-128000000D03*
X129400000Y-125460000D03*
X129400000Y-128000000D03*
X126860000Y-125460000D03*
X126860000Y-128000000D03*
X124320000Y-125460000D03*
X124320000Y-128000000D03*
X121780000Y-125460000D03*
X121780000Y-128000000D03*
X119240000Y-125460000D03*
X119240000Y-128000000D03*
X116700000Y-125460000D03*
X116700000Y-128000000D03*
X114160000Y-125460000D03*
X114160000Y-128000000D03*
X111620000Y-125460000D03*
X111620000Y-128000000D03*
X109080000Y-125460000D03*
X109080000Y-128000000D03*
X106540000Y-125460000D03*
X106540000Y-128000000D03*
X104000000Y-125460000D03*
D15*
X104000000Y-128000000D03*
%TD*%
D14*
%TO.C,J9*%
X128540000Y-51700000D03*
X126000000Y-51700000D03*
X128540000Y-49160000D03*
X126000000Y-49160000D03*
X128540000Y-46620000D03*
X126000000Y-46620000D03*
X128540000Y-44080000D03*
X126000000Y-44080000D03*
X128540000Y-41540000D03*
X126000000Y-41540000D03*
X128540000Y-39000000D03*
D15*
X126000000Y-39000000D03*
%TD*%
D14*
%TO.C,J8*%
X128540000Y-72700000D03*
X126000000Y-72700000D03*
X128540000Y-70160000D03*
X126000000Y-70160000D03*
X128540000Y-67620000D03*
X126000000Y-67620000D03*
X128540000Y-65080000D03*
X126000000Y-65080000D03*
X128540000Y-62540000D03*
X126000000Y-62540000D03*
X128540000Y-60000000D03*
D15*
X126000000Y-60000000D03*
%TD*%
D14*
%TO.C,J7*%
X128540000Y-107700000D03*
X126000000Y-107700000D03*
X128540000Y-105160000D03*
X126000000Y-105160000D03*
X128540000Y-102620000D03*
X126000000Y-102620000D03*
X128540000Y-100080000D03*
X126000000Y-100080000D03*
X128540000Y-97540000D03*
X126000000Y-97540000D03*
X128540000Y-95000000D03*
D15*
X126000000Y-95000000D03*
%TD*%
D14*
%TO.C,J6*%
X119540000Y-51700000D03*
X117000000Y-51700000D03*
X119540000Y-49160000D03*
X117000000Y-49160000D03*
X119540000Y-46620000D03*
X117000000Y-46620000D03*
X119540000Y-44080000D03*
X117000000Y-44080000D03*
X119540000Y-41540000D03*
X117000000Y-41540000D03*
X119540000Y-39000000D03*
D15*
X117000000Y-39000000D03*
%TD*%
D14*
%TO.C,J5*%
X119540000Y-72600000D03*
X117000000Y-72600000D03*
X119540000Y-70060000D03*
X117000000Y-70060000D03*
X119540000Y-67520000D03*
X117000000Y-67520000D03*
X119540000Y-64980000D03*
X117000000Y-64980000D03*
X119540000Y-62440000D03*
X117000000Y-62440000D03*
X119540000Y-59900000D03*
D15*
X117000000Y-59900000D03*
%TD*%
D14*
%TO.C,J4*%
X119540000Y-107700000D03*
X117000000Y-107700000D03*
X119540000Y-105160000D03*
X117000000Y-105160000D03*
X119540000Y-102620000D03*
X117000000Y-102620000D03*
X119540000Y-100080000D03*
X117000000Y-100080000D03*
X119540000Y-97540000D03*
X117000000Y-97540000D03*
X119540000Y-95000000D03*
D15*
X117000000Y-95000000D03*
%TD*%
D14*
%TO.C,J3*%
X110540000Y-51700000D03*
X108000000Y-51700000D03*
X110540000Y-49160000D03*
X108000000Y-49160000D03*
X110540000Y-46620000D03*
X108000000Y-46620000D03*
X110540000Y-44080000D03*
X108000000Y-44080000D03*
X110540000Y-41540000D03*
X108000000Y-41540000D03*
X110540000Y-39000000D03*
D15*
X108000000Y-39000000D03*
%TD*%
D14*
%TO.C,J2*%
X110540000Y-72700000D03*
X108000000Y-72700000D03*
X110540000Y-70160000D03*
X108000000Y-70160000D03*
X110540000Y-67620000D03*
X108000000Y-67620000D03*
X110540000Y-65080000D03*
X108000000Y-65080000D03*
X110540000Y-62540000D03*
X108000000Y-62540000D03*
X110540000Y-60000000D03*
D15*
X108000000Y-60000000D03*
%TD*%
D14*
%TO.C,J1*%
X110540000Y-107700000D03*
X108000000Y-107700000D03*
X110540000Y-105160000D03*
X108000000Y-105160000D03*
X110540000Y-102620000D03*
X108000000Y-102620000D03*
X110540000Y-100080000D03*
X108000000Y-100080000D03*
X110540000Y-97540000D03*
X108000000Y-97540000D03*
X110540000Y-95000000D03*
D15*
X108000000Y-95000000D03*
%TD*%
D14*
%TO.C,J24*%
X161380000Y-64060000D03*
X161380000Y-66600000D03*
X158840000Y-64060000D03*
X158840000Y-66600000D03*
X156300000Y-64060000D03*
X156300000Y-66600000D03*
X153760000Y-64060000D03*
X153760000Y-66600000D03*
X151220000Y-64060000D03*
X151220000Y-66600000D03*
X148680000Y-64060000D03*
X148680000Y-66600000D03*
X146140000Y-64060000D03*
X146140000Y-66600000D03*
X143600000Y-64060000D03*
D15*
X143600000Y-66600000D03*
%TD*%
D14*
%TO.C,J19*%
X196900000Y-129900000D03*
X196900000Y-127360000D03*
X196900000Y-124820000D03*
X196900000Y-122280000D03*
X196900000Y-119740000D03*
D15*
X196900000Y-117200000D03*
%TD*%
D14*
%TO.C,J17*%
X150000000Y-54500000D03*
X147460000Y-54500000D03*
X144920000Y-54500000D03*
X142380000Y-54500000D03*
X139840000Y-54500000D03*
D15*
X137300000Y-54500000D03*
%TD*%
D14*
%TO.C,J16*%
X160100000Y-122600000D03*
X160100000Y-120060000D03*
X160100000Y-117520000D03*
X160100000Y-114980000D03*
X160100000Y-112440000D03*
D15*
X160100000Y-109900000D03*
%TD*%
%TO.C,D6*%
G36*
G01*
X180527500Y-95310000D02*
X180052500Y-95310000D01*
G75*
G02*
X179815000Y-95072500I0J237500D01*
G01*
X179815000Y-94222500D01*
G75*
G02*
X180052500Y-93985000I237500J0D01*
G01*
X180527500Y-93985000D01*
G75*
G02*
X180765000Y-94222500I0J-237500D01*
G01*
X180765000Y-95072500D01*
G75*
G02*
X180527500Y-95310000I-237500J0D01*
G01*
G37*
G36*
G01*
X180527500Y-96935000D02*
X180052500Y-96935000D01*
G75*
G02*
X179815000Y-96697500I0J237500D01*
G01*
X179815000Y-95847500D01*
G75*
G02*
X180052500Y-95610000I237500J0D01*
G01*
X180527500Y-95610000D01*
G75*
G02*
X180765000Y-95847500I0J-237500D01*
G01*
X180765000Y-96697500D01*
G75*
G02*
X180527500Y-96935000I-237500J0D01*
G01*
G37*
%TD*%
%TO.C,D5*%
G36*
G01*
X177527500Y-95310000D02*
X177052500Y-95310000D01*
G75*
G02*
X176815000Y-95072500I0J237500D01*
G01*
X176815000Y-94222500D01*
G75*
G02*
X177052500Y-93985000I237500J0D01*
G01*
X177527500Y-93985000D01*
G75*
G02*
X177765000Y-94222500I0J-237500D01*
G01*
X177765000Y-95072500D01*
G75*
G02*
X177527500Y-95310000I-237500J0D01*
G01*
G37*
G36*
G01*
X177527500Y-96935000D02*
X177052500Y-96935000D01*
G75*
G02*
X176815000Y-96697500I0J237500D01*
G01*
X176815000Y-95847500D01*
G75*
G02*
X177052500Y-95610000I237500J0D01*
G01*
X177527500Y-95610000D01*
G75*
G02*
X177765000Y-95847500I0J-237500D01*
G01*
X177765000Y-96697500D01*
G75*
G02*
X177527500Y-96935000I-237500J0D01*
G01*
G37*
%TD*%
%TO.C,D4*%
G36*
G01*
X174527500Y-95310000D02*
X174052500Y-95310000D01*
G75*
G02*
X173815000Y-95072500I0J237500D01*
G01*
X173815000Y-94222500D01*
G75*
G02*
X174052500Y-93985000I237500J0D01*
G01*
X174527500Y-93985000D01*
G75*
G02*
X174765000Y-94222500I0J-237500D01*
G01*
X174765000Y-95072500D01*
G75*
G02*
X174527500Y-95310000I-237500J0D01*
G01*
G37*
G36*
G01*
X174527500Y-96935000D02*
X174052500Y-96935000D01*
G75*
G02*
X173815000Y-96697500I0J237500D01*
G01*
X173815000Y-95847500D01*
G75*
G02*
X174052500Y-95610000I237500J0D01*
G01*
X174527500Y-95610000D01*
G75*
G02*
X174765000Y-95847500I0J-237500D01*
G01*
X174765000Y-96697500D01*
G75*
G02*
X174527500Y-96935000I-237500J0D01*
G01*
G37*
%TD*%
%TO.C,D3*%
G36*
G01*
X171527500Y-95310000D02*
X171052500Y-95310000D01*
G75*
G02*
X170815000Y-95072500I0J237500D01*
G01*
X170815000Y-94222500D01*
G75*
G02*
X171052500Y-93985000I237500J0D01*
G01*
X171527500Y-93985000D01*
G75*
G02*
X171765000Y-94222500I0J-237500D01*
G01*
X171765000Y-95072500D01*
G75*
G02*
X171527500Y-95310000I-237500J0D01*
G01*
G37*
G36*
G01*
X171527500Y-96935000D02*
X171052500Y-96935000D01*
G75*
G02*
X170815000Y-96697500I0J237500D01*
G01*
X170815000Y-95847500D01*
G75*
G02*
X171052500Y-95610000I237500J0D01*
G01*
X171527500Y-95610000D01*
G75*
G02*
X171765000Y-95847500I0J-237500D01*
G01*
X171765000Y-96697500D01*
G75*
G02*
X171527500Y-96935000I-237500J0D01*
G01*
G37*
%TD*%
%TO.C,D2*%
G36*
G01*
X168527500Y-95310000D02*
X168052500Y-95310000D01*
G75*
G02*
X167815000Y-95072500I0J237500D01*
G01*
X167815000Y-94222500D01*
G75*
G02*
X168052500Y-93985000I237500J0D01*
G01*
X168527500Y-93985000D01*
G75*
G02*
X168765000Y-94222500I0J-237500D01*
G01*
X168765000Y-95072500D01*
G75*
G02*
X168527500Y-95310000I-237500J0D01*
G01*
G37*
G36*
G01*
X168527500Y-96935000D02*
X168052500Y-96935000D01*
G75*
G02*
X167815000Y-96697500I0J237500D01*
G01*
X167815000Y-95847500D01*
G75*
G02*
X168052500Y-95610000I237500J0D01*
G01*
X168527500Y-95610000D01*
G75*
G02*
X168765000Y-95847500I0J-237500D01*
G01*
X168765000Y-96697500D01*
G75*
G02*
X168527500Y-96935000I-237500J0D01*
G01*
G37*
%TD*%
%TO.C,D1*%
G36*
G01*
X157150000Y-43737500D02*
X157150000Y-43262500D01*
G75*
G02*
X157387500Y-43025000I237500J0D01*
G01*
X158237500Y-43025000D01*
G75*
G02*
X158475000Y-43262500I0J-237500D01*
G01*
X158475000Y-43737500D01*
G75*
G02*
X158237500Y-43975000I-237500J0D01*
G01*
X157387500Y-43975000D01*
G75*
G02*
X157150000Y-43737500I0J237500D01*
G01*
G37*
G36*
G01*
X155525000Y-43737500D02*
X155525000Y-43262500D01*
G75*
G02*
X155762500Y-43025000I237500J0D01*
G01*
X156612500Y-43025000D01*
G75*
G02*
X156850000Y-43262500I0J-237500D01*
G01*
X156850000Y-43737500D01*
G75*
G02*
X156612500Y-43975000I-237500J0D01*
G01*
X155762500Y-43975000D01*
G75*
G02*
X155525000Y-43737500I0J237500D01*
G01*
G37*
%TD*%
M02*
