M48
; DRILL file {KiCad 5.1.6-c6e7f7d~87~ubuntu18.04.1} date Mon Oct 19 17:27:06 2020
; FORMAT={-:-/ absolute / metric / decimal}
; #@! TF.CreationDate,2020-10-19T17:27:06+02:00
; #@! TF.GenerationSoftware,Kicad,Pcbnew,5.1.6-c6e7f7d~87~ubuntu18.04.1
; #@! TF.FileFunction,Plated,1,4,PTH
FMAT,2
METRIC
T1C0.200
T2C0.300
T3C0.400
T4C0.650
T5C0.800
T6C0.900
T7C1.000
T8C1.020
T9C1.600
%
G90
G05
T1
X111.791Y-79.334
X111.8Y-84.7
X118.4Y-79.306
X118.4Y-84.7
X119.0Y-78.7
X119.0Y-85.3
X119.599Y-84.701
X119.6Y-79.3
X120.2Y-78.7
X120.2Y-85.3
X120.765Y-84.735
X120.8Y-79.3
X121.4Y-78.7
X121.4Y-85.3
X121.93Y-84.77
X122.0Y-79.3
X122.6Y-78.6
X122.6Y-85.3
X123.146Y-84.854
X123.2Y-79.3
X123.8Y-78.6
X123.8Y-85.3
X124.4Y-79.3
X124.4Y-84.8
X125.0Y-78.6
X125.0Y-85.3
X125.6Y-79.3
X125.6Y-84.8
X126.2Y-78.6
X126.2Y-85.3
X126.8Y-79.3
X126.8Y-84.8
X127.4Y-78.6
X127.4Y-85.3
X128.0Y-79.3
X128.0Y-84.8
X128.6Y-78.6
X128.6Y-85.3
X129.2Y-79.3
X129.2Y-84.8
X129.8Y-78.6
X129.8Y-85.3
X130.4Y-79.3
X130.4Y-84.8
X131.0Y-78.6
X131.0Y-85.3
X131.6Y-79.3
X131.6Y-84.8
X138.2Y-78.2
X138.2Y-85.3
X138.8Y-84.825
X139.4Y-85.3
X140.0Y-84.8
X140.01Y-78.49
X140.2Y-51.6
X140.6Y-85.3
X141.2Y-84.8
X141.8Y-85.3
X141.821Y-78.779
X142.4Y-84.8
X143.0Y-85.3
X143.579Y-79.021
X143.6Y-84.8
X144.2Y-85.3
X144.8Y-84.8
X144.9Y-94.2
X145.4Y-79.1
X145.4Y-85.3
X145.6Y-93.5
X146.0Y-84.8
X146.6Y-85.3
X147.2Y-78.6
X147.2Y-84.7
X147.8Y-79.3
X147.8Y-85.3
X148.4Y-78.6
X149.0Y-77.9
X149.6Y-79.3
X150.1Y-78.6
X153.9Y-79.2
X154.4Y-78.6
X155.0Y-79.0
X155.6Y-78.6
X156.2Y-79.0
X156.8Y-78.6
X157.406Y-78.875
X157.996Y-78.604
X158.6Y-78.875
X158.8Y-82.0
X159.2Y-85.3
X159.779Y-76.275
X159.8Y-84.8
X160.398Y-76.078
X160.4Y-78.875
X161.0Y-84.8
X161.012Y-76.8
X161.497Y-77.4
X161.6Y-85.3
X162.206Y-78.875
X162.8Y-85.3
X162.947Y-78.097
X163.383Y-84.786
X163.4Y-78.8
X164.017Y-78.594
X164.6Y-79.0
X164.6Y-84.8
X165.2Y-78.6
X165.2Y-85.3
X165.8Y-79.0
X166.4Y-78.6
X166.4Y-85.3
X167.0Y-79.3
X167.0Y-84.8
X167.6Y-78.6
X167.6Y-85.3
X168.2Y-79.3
X168.2Y-84.8
X168.8Y-78.6
X168.8Y-85.3
X169.4Y-79.3
X169.4Y-84.8
X169.8Y-90.7
X170.0Y-78.6
X170.0Y-85.3
X170.5Y-107.1
X170.6Y-79.3
X170.6Y-84.8
X171.2Y-78.6
X171.2Y-85.3
X171.8Y-79.3
X171.8Y-84.8
X172.4Y-78.6
X172.4Y-85.3
X172.8Y-89.5
X172.8Y-90.7
X173.0Y-79.3
X173.0Y-84.8
X173.6Y-78.6
X174.2Y-79.3
X174.8Y-78.6
X175.375Y-84.7
X175.4Y-79.3
X175.925Y-90.7
X176.0Y-78.6
X176.0Y-85.7
X176.6Y-79.3
X176.6Y-86.7
X177.2Y-78.6
X177.2Y-84.7
X177.8Y-79.3
X177.8Y-85.7
X178.4Y-78.5
X178.4Y-86.7
X178.8Y-90.7
X179.0Y-79.3
X179.0Y-84.75
X179.414Y-85.993
X179.6Y-78.5
X179.937Y-87.015
X180.1Y-72.0
X180.2Y-79.3
X180.3Y-65.7
X180.573Y-86.132
X180.8Y-78.5
X181.0Y-102.0
X181.462Y-84.935
X182.0Y-78.7
X182.25Y-85.25
X182.625Y-79.3
X182.775Y-84.7
X183.2Y-78.3
X183.2Y-85.7
X183.81Y-77.39
X183.825Y-84.7
X184.4Y-76.4
X184.4Y-85.7
X184.975Y-75.4
X185.0Y-84.7
X185.6Y-79.3
X185.6Y-85.7
X186.2Y-84.7
X186.8Y-77.4
X186.8Y-78.2
X186.8Y-85.7
X187.4Y-79.3
X187.4Y-84.7
X188.5Y-71.6
X188.9Y-91.7
X190.0Y-91.7
X190.6Y-82.8
X191.279Y-92.867
X192.975Y-92.853
X192.975Y-94.0
X194.1Y-100.1
T2
X151.0Y-83.0
X154.651Y-43.5
X154.782Y-82.02
X156.782Y-82.02
X158.25Y-45.5
X160.376Y-85.276
X162.2Y-84.8
X163.945Y-85.245
X165.8Y-84.8
X168.25Y-97.75
X170.0Y-110.4
X171.5Y-97.75
X171.5Y-114.5
X173.25Y-59.75
X173.25Y-61.0
X174.25Y-97.75
X177.25Y-97.75
X180.5Y-97.75
X186.75Y-89.45
X186.75Y-90.45
X187.75Y-89.45
X187.75Y-90.45
X187.75Y-108.75
X187.75Y-109.75
X188.75Y-108.75
X188.75Y-109.75
X191.3Y-113.1
X192.75Y-90.75
X192.75Y-91.5
X192.762Y-90.013
T3
X147.0Y-42.0
X149.5Y-42.0
X150.0Y-34.5
X152.0Y-42.0
X152.5Y-34.5
X155.0Y-34.5
X163.0Y-96.5
X163.0Y-98.5
X163.0Y-100.5
X165.0Y-96.5
X165.0Y-98.5
X165.0Y-100.5
X167.0Y-35.0
X167.0Y-37.0
X167.0Y-47.5
X167.0Y-49.5
X169.0Y-35.0
X169.0Y-37.0
X169.0Y-47.5
X169.0Y-49.5
X171.0Y-35.0
X171.0Y-37.0
X171.0Y-47.5
X171.0Y-49.5
X173.0Y-35.0
X173.0Y-37.0
X173.0Y-47.5
X173.0Y-49.5
X175.0Y-35.0
X175.0Y-37.0
X175.0Y-47.5
X175.0Y-49.5
X177.0Y-35.0
X177.0Y-37.0
X177.0Y-47.5
X177.0Y-49.5
X180.5Y-47.5
X180.5Y-49.5
X181.0Y-43.0
X182.5Y-47.5
X182.5Y-49.5
X184.5Y-47.5
X184.5Y-49.5
X186.5Y-47.5
X186.5Y-49.5
T4
X194.83Y-102.48
X194.83Y-103.75
X194.83Y-105.02
X194.83Y-106.29
X194.83Y-107.56
X194.83Y-108.83
X194.83Y-110.1
X196.1Y-102.48
X196.1Y-103.75
X196.1Y-105.02
X196.1Y-106.29
X196.1Y-107.56
X196.1Y-108.83
X196.1Y-110.1
T5
X174.4Y-117.8
X174.4Y-120.34
X174.4Y-122.88
X179.48Y-117.8
X179.48Y-120.34
X179.48Y-122.88
T6
X179.46Y-56.11
X179.46Y-58.65
X179.46Y-61.19
X179.46Y-63.73
X182.0Y-57.38
X182.0Y-59.92
X182.0Y-62.46
X182.0Y-65.0
T7
X137.3Y-54.5
X139.84Y-54.5
X142.38Y-54.5
X144.92Y-54.5
X147.46Y-54.5
X150.0Y-54.5
X142.1Y-44.4
X144.64Y-44.4
X147.18Y-44.4
X149.72Y-44.4
X117.0Y-39.0
X117.0Y-41.54
X117.0Y-44.08
X117.0Y-46.62
X117.0Y-49.16
X117.0Y-51.7
X119.54Y-39.0
X119.54Y-41.54
X119.54Y-44.08
X119.54Y-46.62
X119.54Y-49.16
X119.54Y-51.7
X143.6Y-64.06
X143.6Y-66.6
X146.14Y-64.06
X146.14Y-66.6
X148.68Y-64.06
X148.68Y-66.6
X151.22Y-64.06
X151.22Y-66.6
X153.76Y-64.06
X153.76Y-66.6
X156.3Y-64.06
X156.3Y-66.6
X158.84Y-64.06
X158.84Y-66.6
X161.38Y-64.06
X161.38Y-66.6
X160.12Y-95.05
X160.12Y-97.59
X160.12Y-100.13
X160.12Y-102.67
X108.0Y-39.0
X108.0Y-41.54
X108.0Y-44.08
X108.0Y-46.62
X108.0Y-49.16
X108.0Y-51.7
X110.54Y-39.0
X110.54Y-41.54
X110.54Y-44.08
X110.54Y-46.62
X110.54Y-49.16
X110.54Y-51.7
X155.47Y-95.05
X155.47Y-97.59
X155.47Y-100.13
X155.47Y-102.67
X160.1Y-109.9
X160.1Y-112.44
X160.1Y-114.98
X160.1Y-117.52
X160.1Y-120.06
X160.1Y-122.6
X108.0Y-60.0
X108.0Y-62.54
X108.0Y-65.08
X108.0Y-67.62
X108.0Y-70.16
X108.0Y-72.7
X110.54Y-60.0
X110.54Y-62.54
X110.54Y-65.08
X110.54Y-67.62
X110.54Y-70.16
X110.54Y-72.7
X117.0Y-95.0
X117.0Y-97.54
X117.0Y-100.08
X117.0Y-102.62
X117.0Y-105.16
X117.0Y-107.7
X119.54Y-95.0
X119.54Y-97.54
X119.54Y-100.08
X119.54Y-102.62
X119.54Y-105.16
X119.54Y-107.7
X108.0Y-95.0
X108.0Y-97.54
X108.0Y-100.08
X108.0Y-102.62
X108.0Y-105.16
X108.0Y-107.7
X110.54Y-95.0
X110.54Y-97.54
X110.54Y-100.08
X110.54Y-102.62
X110.54Y-105.16
X110.54Y-107.7
X196.9Y-117.2
X196.9Y-119.74
X196.9Y-122.28
X196.9Y-124.82
X196.9Y-127.36
X196.9Y-129.9
X137.5Y-35.31
X137.5Y-37.85
X140.04Y-35.31
X140.04Y-37.85
X142.58Y-35.31
X142.58Y-37.85
X145.12Y-35.31
X145.12Y-37.85
X147.66Y-35.31
X147.66Y-37.85
X139.4Y-95.0
X139.4Y-97.54
X139.4Y-100.08
X139.4Y-102.62
X139.4Y-105.16
X139.4Y-107.7
X139.4Y-110.24
X139.4Y-112.78
X139.4Y-115.32
X141.94Y-95.0
X141.94Y-97.54
X141.94Y-100.08
X141.94Y-102.62
X141.94Y-105.16
X141.94Y-107.7
X141.94Y-110.24
X141.94Y-112.78
X141.94Y-115.32
X158.86Y-36.2
X161.4Y-36.2
X126.0Y-95.0
X126.0Y-97.54
X126.0Y-100.08
X126.0Y-102.62
X126.0Y-105.16
X126.0Y-107.7
X128.54Y-95.0
X128.54Y-97.54
X128.54Y-100.08
X128.54Y-102.62
X128.54Y-105.16
X128.54Y-107.7
X117.0Y-59.9
X117.0Y-62.44
X117.0Y-64.98
X117.0Y-67.52
X117.0Y-70.06
X117.0Y-72.6
X119.54Y-59.9
X119.54Y-62.44
X119.54Y-64.98
X119.54Y-67.52
X119.54Y-70.06
X119.54Y-72.6
X126.0Y-39.0
X126.0Y-41.54
X126.0Y-44.08
X126.0Y-46.62
X126.0Y-49.16
X126.0Y-51.7
X128.54Y-39.0
X128.54Y-41.54
X128.54Y-44.08
X128.54Y-46.62
X128.54Y-49.16
X128.54Y-51.7
X104.0Y-125.46
X104.0Y-128.0
X106.54Y-125.46
X106.54Y-128.0
X109.08Y-125.46
X109.08Y-128.0
X111.62Y-125.46
X111.62Y-128.0
X114.16Y-125.46
X114.16Y-128.0
X116.7Y-125.46
X116.7Y-128.0
X119.24Y-125.46
X119.24Y-128.0
X121.78Y-125.46
X121.78Y-128.0
X124.32Y-125.46
X124.32Y-128.0
X126.86Y-125.46
X126.86Y-128.0
X129.4Y-125.46
X129.4Y-128.0
X131.94Y-125.46
X131.94Y-128.0
X134.48Y-125.46
X134.48Y-128.0
X137.02Y-125.46
X137.02Y-128.0
X139.56Y-125.46
X139.56Y-128.0
X142.1Y-125.46
X142.1Y-128.0
X144.64Y-125.46
X144.64Y-128.0
X147.18Y-125.46
X147.18Y-128.0
X126.0Y-60.0
X126.0Y-62.54
X126.0Y-65.08
X126.0Y-67.62
X126.0Y-70.16
X126.0Y-72.7
X128.54Y-60.0
X128.54Y-62.54
X128.54Y-65.08
X128.54Y-67.62
X128.54Y-70.16
X128.54Y-72.7
T8
X193.25Y-53.92
X193.25Y-56.46
X193.25Y-64.64
X193.25Y-67.18
T9
X185.3Y-52.81
X185.3Y-68.3
T5
G00X184.0Y-41.3
M15
G01X184.0Y-38.7
M16
G05
G00X188.1Y-35.2
M15
G01X185.9Y-35.2
M16
G05
G00X189.8Y-41.1
M15
G01X189.8Y-38.9
M16
G05
T0
M30
