%FSLAX45Y45*%
G04 Gerber Fmt 4.5, Leading zero omitted, Abs format (unit mm)*
G04 Created by KiCad (PCBNEW 5.1.6-c6e7f7d~87~ubuntu18.04.1) date 2020-10-19 17:27:05*
%MOMM*%
%LPD*%
G01*
G04 APERTURE LIST*
%TA.AperFunction,Profile*%
%ADD10C,0.050000*%
%TD*%
%ADD11C,0.200000*%
%ADD12C,0.300000*%
G04 APERTURE END LIST*
D10*
X10000000Y-13200000D02*
X10000000Y-3300000D01*
X19900000Y-13200000D02*
X10000000Y-13200000D01*
X19900000Y-3300000D02*
X19900000Y-13200000D01*
X10000000Y-3300000D02*
X19900000Y-3300000D01*
D11*
X10990000Y-8130000D02*
X11130000Y-8270000D01*
X11130000Y-8130000D02*
X10990000Y-8270000D01*
X18790000Y-8130000D02*
X18930000Y-8270000D01*
X18930000Y-8130000D02*
X18790000Y-8270000D01*
X15275000Y-8200000D02*
G75*
G03*
X15275000Y-8200000I-75000J0D01*
G01*
X18835000Y-5321500D02*
X18835000Y-5646500D01*
X18672500Y-5484000D02*
X18997500Y-5484000D01*
X18835000Y-6464500D02*
X18835000Y-6789500D01*
X18672500Y-6627000D02*
X18997500Y-6627000D01*
D12*
X10283928Y-13668214D02*
X10283928Y-13368214D01*
X10355357Y-13368214D01*
X10398214Y-13382500D01*
X10426786Y-13411071D01*
X10441071Y-13439643D01*
X10455357Y-13496786D01*
X10455357Y-13539643D01*
X10441071Y-13596786D01*
X10426786Y-13625357D01*
X10398214Y-13653929D01*
X10355357Y-13668214D01*
X10283928Y-13668214D01*
X10583928Y-13668214D02*
X10583928Y-13468214D01*
X10583928Y-13525357D02*
X10598214Y-13496786D01*
X10612500Y-13482500D01*
X10641071Y-13468214D01*
X10669643Y-13468214D01*
X10769643Y-13668214D02*
X10769643Y-13468214D01*
X10769643Y-13368214D02*
X10755357Y-13382500D01*
X10769643Y-13396786D01*
X10783928Y-13382500D01*
X10769643Y-13368214D01*
X10769643Y-13396786D01*
X10955357Y-13668214D02*
X10926786Y-13653929D01*
X10912500Y-13625357D01*
X10912500Y-13368214D01*
X11112500Y-13668214D02*
X11083928Y-13653929D01*
X11069643Y-13625357D01*
X11069643Y-13368214D01*
X11455357Y-13668214D02*
X11455357Y-13368214D01*
X11555357Y-13582500D01*
X11655357Y-13368214D01*
X11655357Y-13668214D01*
X11926786Y-13668214D02*
X11926786Y-13511071D01*
X11912500Y-13482500D01*
X11883928Y-13468214D01*
X11826786Y-13468214D01*
X11798214Y-13482500D01*
X11926786Y-13653929D02*
X11898214Y-13668214D01*
X11826786Y-13668214D01*
X11798214Y-13653929D01*
X11783928Y-13625357D01*
X11783928Y-13596786D01*
X11798214Y-13568214D01*
X11826786Y-13553929D01*
X11898214Y-13553929D01*
X11926786Y-13539643D01*
X12069643Y-13468214D02*
X12069643Y-13768214D01*
X12069643Y-13482500D02*
X12098214Y-13468214D01*
X12155357Y-13468214D01*
X12183928Y-13482500D01*
X12198214Y-13496786D01*
X12212500Y-13525357D01*
X12212500Y-13611071D01*
X12198214Y-13639643D01*
X12183928Y-13653929D01*
X12155357Y-13668214D01*
X12098214Y-13668214D01*
X12069643Y-13653929D01*
X12341071Y-13639643D02*
X12355357Y-13653929D01*
X12341071Y-13668214D01*
X12326786Y-13653929D01*
X12341071Y-13639643D01*
X12341071Y-13668214D01*
X12341071Y-13482500D02*
X12355357Y-13496786D01*
X12341071Y-13511071D01*
X12326786Y-13496786D01*
X12341071Y-13482500D01*
X12341071Y-13511071D01*
X9857500Y-14092500D02*
X9997500Y-14232500D01*
X9997500Y-14092500D02*
X9857500Y-14232500D01*
X10441071Y-14298214D02*
X10269643Y-14298214D01*
X10355357Y-14298214D02*
X10355357Y-13998214D01*
X10326786Y-14041071D01*
X10298214Y-14069643D01*
X10269643Y-14083929D01*
X10569643Y-14269643D02*
X10583928Y-14283929D01*
X10569643Y-14298214D01*
X10555357Y-14283929D01*
X10569643Y-14269643D01*
X10569643Y-14298214D01*
X10841071Y-14098214D02*
X10841071Y-14298214D01*
X10769643Y-13983929D02*
X10698214Y-14198214D01*
X10883928Y-14198214D01*
X11055357Y-13998214D02*
X11083928Y-13998214D01*
X11112500Y-14012500D01*
X11126786Y-14026786D01*
X11141071Y-14055357D01*
X11155357Y-14112500D01*
X11155357Y-14183929D01*
X11141071Y-14241071D01*
X11126786Y-14269643D01*
X11112500Y-14283929D01*
X11083928Y-14298214D01*
X11055357Y-14298214D01*
X11026786Y-14283929D01*
X11012500Y-14269643D01*
X10998214Y-14241071D01*
X10983928Y-14183929D01*
X10983928Y-14112500D01*
X10998214Y-14055357D01*
X11012500Y-14026786D01*
X11026786Y-14012500D01*
X11055357Y-13998214D01*
X11283928Y-14298214D02*
X11283928Y-14098214D01*
X11283928Y-14126786D02*
X11298214Y-14112500D01*
X11326786Y-14098214D01*
X11369643Y-14098214D01*
X11398214Y-14112500D01*
X11412500Y-14141071D01*
X11412500Y-14298214D01*
X11412500Y-14141071D02*
X11426786Y-14112500D01*
X11455357Y-14098214D01*
X11498214Y-14098214D01*
X11526786Y-14112500D01*
X11541071Y-14141071D01*
X11541071Y-14298214D01*
X11683928Y-14298214D02*
X11683928Y-14098214D01*
X11683928Y-14126786D02*
X11698214Y-14112500D01*
X11726786Y-14098214D01*
X11769643Y-14098214D01*
X11798214Y-14112500D01*
X11812500Y-14141071D01*
X11812500Y-14298214D01*
X11812500Y-14141071D02*
X11826786Y-14112500D01*
X11855357Y-14098214D01*
X11898214Y-14098214D01*
X11926786Y-14112500D01*
X11941071Y-14141071D01*
X11941071Y-14298214D01*
X12526786Y-13983929D02*
X12269643Y-14369643D01*
X12912500Y-13998214D02*
X12941071Y-13998214D01*
X12969643Y-14012500D01*
X12983928Y-14026786D01*
X12998214Y-14055357D01*
X13012500Y-14112500D01*
X13012500Y-14183929D01*
X12998214Y-14241071D01*
X12983928Y-14269643D01*
X12969643Y-14283929D01*
X12941071Y-14298214D01*
X12912500Y-14298214D01*
X12883928Y-14283929D01*
X12869643Y-14269643D01*
X12855357Y-14241071D01*
X12841071Y-14183929D01*
X12841071Y-14112500D01*
X12855357Y-14055357D01*
X12869643Y-14026786D01*
X12883928Y-14012500D01*
X12912500Y-13998214D01*
X13141071Y-14269643D02*
X13155357Y-14283929D01*
X13141071Y-14298214D01*
X13126786Y-14283929D01*
X13141071Y-14269643D01*
X13141071Y-14298214D01*
X13341071Y-13998214D02*
X13369643Y-13998214D01*
X13398214Y-14012500D01*
X13412500Y-14026786D01*
X13426786Y-14055357D01*
X13441071Y-14112500D01*
X13441071Y-14183929D01*
X13426786Y-14241071D01*
X13412500Y-14269643D01*
X13398214Y-14283929D01*
X13369643Y-14298214D01*
X13341071Y-14298214D01*
X13312500Y-14283929D01*
X13298214Y-14269643D01*
X13283928Y-14241071D01*
X13269643Y-14183929D01*
X13269643Y-14112500D01*
X13283928Y-14055357D01*
X13298214Y-14026786D01*
X13312500Y-14012500D01*
X13341071Y-13998214D01*
X13712500Y-13998214D02*
X13569643Y-13998214D01*
X13555357Y-14141071D01*
X13569643Y-14126786D01*
X13598214Y-14112500D01*
X13669643Y-14112500D01*
X13698214Y-14126786D01*
X13712500Y-14141071D01*
X13726786Y-14169643D01*
X13726786Y-14241071D01*
X13712500Y-14269643D01*
X13698214Y-14283929D01*
X13669643Y-14298214D01*
X13598214Y-14298214D01*
X13569643Y-14283929D01*
X13555357Y-14269643D01*
X13998214Y-13998214D02*
X13855357Y-13998214D01*
X13841071Y-14141071D01*
X13855357Y-14126786D01*
X13883928Y-14112500D01*
X13955357Y-14112500D01*
X13983928Y-14126786D01*
X13998214Y-14141071D01*
X14012500Y-14169643D01*
X14012500Y-14241071D01*
X13998214Y-14269643D01*
X13983928Y-14283929D01*
X13955357Y-14298214D01*
X13883928Y-14298214D01*
X13855357Y-14283929D01*
X13841071Y-14269643D01*
X14126786Y-13998214D02*
X14126786Y-14055357D01*
X14241071Y-13998214D02*
X14241071Y-14055357D01*
X14683928Y-14412500D02*
X14669643Y-14398214D01*
X14641071Y-14355357D01*
X14626786Y-14326786D01*
X14612500Y-14283929D01*
X14598214Y-14212500D01*
X14598214Y-14155357D01*
X14612500Y-14083929D01*
X14626786Y-14041071D01*
X14641071Y-14012500D01*
X14669643Y-13969643D01*
X14683928Y-13955357D01*
X14783928Y-14026786D02*
X14798214Y-14012500D01*
X14826786Y-13998214D01*
X14898214Y-13998214D01*
X14926786Y-14012500D01*
X14941071Y-14026786D01*
X14955357Y-14055357D01*
X14955357Y-14083929D01*
X14941071Y-14126786D01*
X14769643Y-14298214D01*
X14955357Y-14298214D01*
X15312500Y-14298214D02*
X15312500Y-13998214D01*
X15441071Y-14298214D02*
X15441071Y-14141071D01*
X15426786Y-14112500D01*
X15398214Y-14098214D01*
X15355357Y-14098214D01*
X15326786Y-14112500D01*
X15312500Y-14126786D01*
X15626786Y-14298214D02*
X15598214Y-14283929D01*
X15583928Y-14269643D01*
X15569643Y-14241071D01*
X15569643Y-14155357D01*
X15583928Y-14126786D01*
X15598214Y-14112500D01*
X15626786Y-14098214D01*
X15669643Y-14098214D01*
X15698214Y-14112500D01*
X15712500Y-14126786D01*
X15726786Y-14155357D01*
X15726786Y-14241071D01*
X15712500Y-14269643D01*
X15698214Y-14283929D01*
X15669643Y-14298214D01*
X15626786Y-14298214D01*
X15898214Y-14298214D02*
X15869643Y-14283929D01*
X15855357Y-14255357D01*
X15855357Y-13998214D01*
X16126786Y-14283929D02*
X16098214Y-14298214D01*
X16041071Y-14298214D01*
X16012500Y-14283929D01*
X15998214Y-14255357D01*
X15998214Y-14141071D01*
X16012500Y-14112500D01*
X16041071Y-14098214D01*
X16098214Y-14098214D01*
X16126786Y-14112500D01*
X16141071Y-14141071D01*
X16141071Y-14169643D01*
X15998214Y-14198214D01*
X16255357Y-14283929D02*
X16283928Y-14298214D01*
X16341071Y-14298214D01*
X16369643Y-14283929D01*
X16383928Y-14255357D01*
X16383928Y-14241071D01*
X16369643Y-14212500D01*
X16341071Y-14198214D01*
X16298214Y-14198214D01*
X16269643Y-14183929D01*
X16255357Y-14155357D01*
X16255357Y-14141071D01*
X16269643Y-14112500D01*
X16298214Y-14098214D01*
X16341071Y-14098214D01*
X16369643Y-14112500D01*
X16483928Y-14412500D02*
X16498214Y-14398214D01*
X16526786Y-14355357D01*
X16541071Y-14326786D01*
X16555357Y-14283929D01*
X16569643Y-14212500D01*
X16569643Y-14155357D01*
X16555357Y-14083929D01*
X16541071Y-14041071D01*
X16526786Y-14012500D01*
X16498214Y-13969643D01*
X16483928Y-13955357D01*
X17026786Y-14412500D02*
X17012500Y-14398214D01*
X16983928Y-14355357D01*
X16969643Y-14326786D01*
X16955357Y-14283929D01*
X16941071Y-14212500D01*
X16941071Y-14155357D01*
X16955357Y-14083929D01*
X16969643Y-14041071D01*
X16983928Y-14012500D01*
X17012500Y-13969643D01*
X17026786Y-13955357D01*
X17141071Y-14098214D02*
X17141071Y-14298214D01*
X17141071Y-14126786D02*
X17155357Y-14112500D01*
X17183928Y-14098214D01*
X17226786Y-14098214D01*
X17255357Y-14112500D01*
X17269643Y-14141071D01*
X17269643Y-14298214D01*
X17455357Y-14298214D02*
X17426786Y-14283929D01*
X17412500Y-14269643D01*
X17398214Y-14241071D01*
X17398214Y-14155357D01*
X17412500Y-14126786D01*
X17426786Y-14112500D01*
X17455357Y-14098214D01*
X17498214Y-14098214D01*
X17526786Y-14112500D01*
X17541071Y-14126786D01*
X17555357Y-14155357D01*
X17555357Y-14241071D01*
X17541071Y-14269643D01*
X17526786Y-14283929D01*
X17498214Y-14298214D01*
X17455357Y-14298214D01*
X17641071Y-14098214D02*
X17755357Y-14098214D01*
X17683928Y-13998214D02*
X17683928Y-14255357D01*
X17698214Y-14283929D01*
X17726786Y-14298214D01*
X17755357Y-14298214D01*
X18083928Y-14098214D02*
X18083928Y-14398214D01*
X18083928Y-14112500D02*
X18112500Y-14098214D01*
X18169643Y-14098214D01*
X18198214Y-14112500D01*
X18212500Y-14126786D01*
X18226786Y-14155357D01*
X18226786Y-14241071D01*
X18212500Y-14269643D01*
X18198214Y-14283929D01*
X18169643Y-14298214D01*
X18112500Y-14298214D01*
X18083928Y-14283929D01*
X18398214Y-14298214D02*
X18369643Y-14283929D01*
X18355357Y-14255357D01*
X18355357Y-13998214D01*
X18641071Y-14298214D02*
X18641071Y-14141071D01*
X18626786Y-14112500D01*
X18598214Y-14098214D01*
X18541071Y-14098214D01*
X18512500Y-14112500D01*
X18641071Y-14283929D02*
X18612500Y-14298214D01*
X18541071Y-14298214D01*
X18512500Y-14283929D01*
X18498214Y-14255357D01*
X18498214Y-14226786D01*
X18512500Y-14198214D01*
X18541071Y-14183929D01*
X18612500Y-14183929D01*
X18641071Y-14169643D01*
X18741071Y-14098214D02*
X18855357Y-14098214D01*
X18783928Y-13998214D02*
X18783928Y-14255357D01*
X18798214Y-14283929D01*
X18826786Y-14298214D01*
X18855357Y-14298214D01*
X19069643Y-14283929D02*
X19041071Y-14298214D01*
X18983928Y-14298214D01*
X18955357Y-14283929D01*
X18941071Y-14255357D01*
X18941071Y-14141071D01*
X18955357Y-14112500D01*
X18983928Y-14098214D01*
X19041071Y-14098214D01*
X19069643Y-14112500D01*
X19083928Y-14141071D01*
X19083928Y-14169643D01*
X18941071Y-14198214D01*
X19341071Y-14298214D02*
X19341071Y-13998214D01*
X19341071Y-14283929D02*
X19312500Y-14298214D01*
X19255357Y-14298214D01*
X19226786Y-14283929D01*
X19212500Y-14269643D01*
X19198214Y-14241071D01*
X19198214Y-14155357D01*
X19212500Y-14126786D01*
X19226786Y-14112500D01*
X19255357Y-14098214D01*
X19312500Y-14098214D01*
X19341071Y-14112500D01*
X19455357Y-14412500D02*
X19469643Y-14398214D01*
X19498214Y-14355357D01*
X19512500Y-14326786D01*
X19526786Y-14283929D01*
X19541071Y-14212500D01*
X19541071Y-14155357D01*
X19526786Y-14083929D01*
X19512500Y-14041071D01*
X19498214Y-14012500D01*
X19469643Y-13969643D01*
X19455357Y-13955357D01*
X9997500Y-14558500D02*
G75*
G03*
X9997500Y-14558500I-75000J0D01*
G01*
X10441071Y-14694214D02*
X10269643Y-14694214D01*
X10355357Y-14694214D02*
X10355357Y-14394214D01*
X10326786Y-14437071D01*
X10298214Y-14465643D01*
X10269643Y-14479929D01*
X10569643Y-14665643D02*
X10583928Y-14679929D01*
X10569643Y-14694214D01*
X10555357Y-14679929D01*
X10569643Y-14665643D01*
X10569643Y-14694214D01*
X10855357Y-14394214D02*
X10712500Y-14394214D01*
X10698214Y-14537071D01*
X10712500Y-14522786D01*
X10741071Y-14508500D01*
X10812500Y-14508500D01*
X10841071Y-14522786D01*
X10855357Y-14537071D01*
X10869643Y-14565643D01*
X10869643Y-14637071D01*
X10855357Y-14665643D01*
X10841071Y-14679929D01*
X10812500Y-14694214D01*
X10741071Y-14694214D01*
X10712500Y-14679929D01*
X10698214Y-14665643D01*
X11055357Y-14394214D02*
X11083928Y-14394214D01*
X11112500Y-14408500D01*
X11126786Y-14422786D01*
X11141071Y-14451357D01*
X11155357Y-14508500D01*
X11155357Y-14579929D01*
X11141071Y-14637071D01*
X11126786Y-14665643D01*
X11112500Y-14679929D01*
X11083928Y-14694214D01*
X11055357Y-14694214D01*
X11026786Y-14679929D01*
X11012500Y-14665643D01*
X10998214Y-14637071D01*
X10983928Y-14579929D01*
X10983928Y-14508500D01*
X10998214Y-14451357D01*
X11012500Y-14422786D01*
X11026786Y-14408500D01*
X11055357Y-14394214D01*
X11283928Y-14694214D02*
X11283928Y-14494214D01*
X11283928Y-14522786D02*
X11298214Y-14508500D01*
X11326786Y-14494214D01*
X11369643Y-14494214D01*
X11398214Y-14508500D01*
X11412500Y-14537071D01*
X11412500Y-14694214D01*
X11412500Y-14537071D02*
X11426786Y-14508500D01*
X11455357Y-14494214D01*
X11498214Y-14494214D01*
X11526786Y-14508500D01*
X11541071Y-14537071D01*
X11541071Y-14694214D01*
X11683928Y-14694214D02*
X11683928Y-14494214D01*
X11683928Y-14522786D02*
X11698214Y-14508500D01*
X11726786Y-14494214D01*
X11769643Y-14494214D01*
X11798214Y-14508500D01*
X11812500Y-14537071D01*
X11812500Y-14694214D01*
X11812500Y-14537071D02*
X11826786Y-14508500D01*
X11855357Y-14494214D01*
X11898214Y-14494214D01*
X11926786Y-14508500D01*
X11941071Y-14537071D01*
X11941071Y-14694214D01*
X12526786Y-14379929D02*
X12269643Y-14765643D01*
X12912500Y-14394214D02*
X12941071Y-14394214D01*
X12969643Y-14408500D01*
X12983928Y-14422786D01*
X12998214Y-14451357D01*
X13012500Y-14508500D01*
X13012500Y-14579929D01*
X12998214Y-14637071D01*
X12983928Y-14665643D01*
X12969643Y-14679929D01*
X12941071Y-14694214D01*
X12912500Y-14694214D01*
X12883928Y-14679929D01*
X12869643Y-14665643D01*
X12855357Y-14637071D01*
X12841071Y-14579929D01*
X12841071Y-14508500D01*
X12855357Y-14451357D01*
X12869643Y-14422786D01*
X12883928Y-14408500D01*
X12912500Y-14394214D01*
X13141071Y-14665643D02*
X13155357Y-14679929D01*
X13141071Y-14694214D01*
X13126786Y-14679929D01*
X13141071Y-14665643D01*
X13141071Y-14694214D01*
X13341071Y-14394214D02*
X13369643Y-14394214D01*
X13398214Y-14408500D01*
X13412500Y-14422786D01*
X13426786Y-14451357D01*
X13441071Y-14508500D01*
X13441071Y-14579929D01*
X13426786Y-14637071D01*
X13412500Y-14665643D01*
X13398214Y-14679929D01*
X13369643Y-14694214D01*
X13341071Y-14694214D01*
X13312500Y-14679929D01*
X13298214Y-14665643D01*
X13283928Y-14637071D01*
X13269643Y-14579929D01*
X13269643Y-14508500D01*
X13283928Y-14451357D01*
X13298214Y-14422786D01*
X13312500Y-14408500D01*
X13341071Y-14394214D01*
X13712500Y-14394214D02*
X13569643Y-14394214D01*
X13555357Y-14537071D01*
X13569643Y-14522786D01*
X13598214Y-14508500D01*
X13669643Y-14508500D01*
X13698214Y-14522786D01*
X13712500Y-14537071D01*
X13726786Y-14565643D01*
X13726786Y-14637071D01*
X13712500Y-14665643D01*
X13698214Y-14679929D01*
X13669643Y-14694214D01*
X13598214Y-14694214D01*
X13569643Y-14679929D01*
X13555357Y-14665643D01*
X13869643Y-14694214D02*
X13926786Y-14694214D01*
X13955357Y-14679929D01*
X13969643Y-14665643D01*
X13998214Y-14622786D01*
X14012500Y-14565643D01*
X14012500Y-14451357D01*
X13998214Y-14422786D01*
X13983928Y-14408500D01*
X13955357Y-14394214D01*
X13898214Y-14394214D01*
X13869643Y-14408500D01*
X13855357Y-14422786D01*
X13841071Y-14451357D01*
X13841071Y-14522786D01*
X13855357Y-14551357D01*
X13869643Y-14565643D01*
X13898214Y-14579929D01*
X13955357Y-14579929D01*
X13983928Y-14565643D01*
X13998214Y-14551357D01*
X14012500Y-14522786D01*
X14126786Y-14394214D02*
X14126786Y-14451357D01*
X14241071Y-14394214D02*
X14241071Y-14451357D01*
X14683928Y-14808500D02*
X14669643Y-14794214D01*
X14641071Y-14751357D01*
X14626786Y-14722786D01*
X14612500Y-14679929D01*
X14598214Y-14608500D01*
X14598214Y-14551357D01*
X14612500Y-14479929D01*
X14626786Y-14437071D01*
X14641071Y-14408500D01*
X14669643Y-14365643D01*
X14683928Y-14351357D01*
X14955357Y-14694214D02*
X14783928Y-14694214D01*
X14869643Y-14694214D02*
X14869643Y-14394214D01*
X14841071Y-14437071D01*
X14812500Y-14465643D01*
X14783928Y-14479929D01*
X15312500Y-14694214D02*
X15312500Y-14394214D01*
X15441071Y-14694214D02*
X15441071Y-14537071D01*
X15426786Y-14508500D01*
X15398214Y-14494214D01*
X15355357Y-14494214D01*
X15326786Y-14508500D01*
X15312500Y-14522786D01*
X15626786Y-14694214D02*
X15598214Y-14679929D01*
X15583928Y-14665643D01*
X15569643Y-14637071D01*
X15569643Y-14551357D01*
X15583928Y-14522786D01*
X15598214Y-14508500D01*
X15626786Y-14494214D01*
X15669643Y-14494214D01*
X15698214Y-14508500D01*
X15712500Y-14522786D01*
X15726786Y-14551357D01*
X15726786Y-14637071D01*
X15712500Y-14665643D01*
X15698214Y-14679929D01*
X15669643Y-14694214D01*
X15626786Y-14694214D01*
X15898214Y-14694214D02*
X15869643Y-14679929D01*
X15855357Y-14651357D01*
X15855357Y-14394214D01*
X16126786Y-14679929D02*
X16098214Y-14694214D01*
X16041071Y-14694214D01*
X16012500Y-14679929D01*
X15998214Y-14651357D01*
X15998214Y-14537071D01*
X16012500Y-14508500D01*
X16041071Y-14494214D01*
X16098214Y-14494214D01*
X16126786Y-14508500D01*
X16141071Y-14537071D01*
X16141071Y-14565643D01*
X15998214Y-14594214D01*
X16241071Y-14808500D02*
X16255357Y-14794214D01*
X16283928Y-14751357D01*
X16298214Y-14722786D01*
X16312500Y-14679929D01*
X16326786Y-14608500D01*
X16326786Y-14551357D01*
X16312500Y-14479929D01*
X16298214Y-14437071D01*
X16283928Y-14408500D01*
X16255357Y-14365643D01*
X16241071Y-14351357D01*
X16783928Y-14808500D02*
X16769643Y-14794214D01*
X16741071Y-14751357D01*
X16726786Y-14722786D01*
X16712500Y-14679929D01*
X16698214Y-14608500D01*
X16698214Y-14551357D01*
X16712500Y-14479929D01*
X16726786Y-14437071D01*
X16741071Y-14408500D01*
X16769643Y-14365643D01*
X16783928Y-14351357D01*
X16898214Y-14494214D02*
X16898214Y-14694214D01*
X16898214Y-14522786D02*
X16912500Y-14508500D01*
X16941071Y-14494214D01*
X16983928Y-14494214D01*
X17012500Y-14508500D01*
X17026786Y-14537071D01*
X17026786Y-14694214D01*
X17212500Y-14694214D02*
X17183928Y-14679929D01*
X17169643Y-14665643D01*
X17155357Y-14637071D01*
X17155357Y-14551357D01*
X17169643Y-14522786D01*
X17183928Y-14508500D01*
X17212500Y-14494214D01*
X17255357Y-14494214D01*
X17283928Y-14508500D01*
X17298214Y-14522786D01*
X17312500Y-14551357D01*
X17312500Y-14637071D01*
X17298214Y-14665643D01*
X17283928Y-14679929D01*
X17255357Y-14694214D01*
X17212500Y-14694214D01*
X17398214Y-14494214D02*
X17512500Y-14494214D01*
X17441071Y-14394214D02*
X17441071Y-14651357D01*
X17455357Y-14679929D01*
X17483928Y-14694214D01*
X17512500Y-14694214D01*
X17841071Y-14494214D02*
X17841071Y-14794214D01*
X17841071Y-14508500D02*
X17869643Y-14494214D01*
X17926786Y-14494214D01*
X17955357Y-14508500D01*
X17969643Y-14522786D01*
X17983928Y-14551357D01*
X17983928Y-14637071D01*
X17969643Y-14665643D01*
X17955357Y-14679929D01*
X17926786Y-14694214D01*
X17869643Y-14694214D01*
X17841071Y-14679929D01*
X18155357Y-14694214D02*
X18126786Y-14679929D01*
X18112500Y-14651357D01*
X18112500Y-14394214D01*
X18398214Y-14694214D02*
X18398214Y-14537071D01*
X18383928Y-14508500D01*
X18355357Y-14494214D01*
X18298214Y-14494214D01*
X18269643Y-14508500D01*
X18398214Y-14679929D02*
X18369643Y-14694214D01*
X18298214Y-14694214D01*
X18269643Y-14679929D01*
X18255357Y-14651357D01*
X18255357Y-14622786D01*
X18269643Y-14594214D01*
X18298214Y-14579929D01*
X18369643Y-14579929D01*
X18398214Y-14565643D01*
X18498214Y-14494214D02*
X18612500Y-14494214D01*
X18541071Y-14394214D02*
X18541071Y-14651357D01*
X18555357Y-14679929D01*
X18583928Y-14694214D01*
X18612500Y-14694214D01*
X18826786Y-14679929D02*
X18798214Y-14694214D01*
X18741071Y-14694214D01*
X18712500Y-14679929D01*
X18698214Y-14651357D01*
X18698214Y-14537071D01*
X18712500Y-14508500D01*
X18741071Y-14494214D01*
X18798214Y-14494214D01*
X18826786Y-14508500D01*
X18841071Y-14537071D01*
X18841071Y-14565643D01*
X18698214Y-14594214D01*
X19098214Y-14694214D02*
X19098214Y-14394214D01*
X19098214Y-14679929D02*
X19069643Y-14694214D01*
X19012500Y-14694214D01*
X18983928Y-14679929D01*
X18969643Y-14665643D01*
X18955357Y-14637071D01*
X18955357Y-14551357D01*
X18969643Y-14522786D01*
X18983928Y-14508500D01*
X19012500Y-14494214D01*
X19069643Y-14494214D01*
X19098214Y-14508500D01*
X19212500Y-14808500D02*
X19226786Y-14794214D01*
X19255357Y-14751357D01*
X19269643Y-14722786D01*
X19283928Y-14679929D01*
X19298214Y-14608500D01*
X19298214Y-14551357D01*
X19283928Y-14479929D01*
X19269643Y-14437071D01*
X19255357Y-14408500D01*
X19226786Y-14365643D01*
X19212500Y-14351357D01*
X9835000Y-14792000D02*
X9835000Y-15117000D01*
X9672500Y-14954500D02*
X9997500Y-14954500D01*
X10255357Y-14790214D02*
X10441071Y-14790214D01*
X10341071Y-14904500D01*
X10383928Y-14904500D01*
X10412500Y-14918786D01*
X10426786Y-14933071D01*
X10441071Y-14961643D01*
X10441071Y-15033071D01*
X10426786Y-15061643D01*
X10412500Y-15075929D01*
X10383928Y-15090214D01*
X10298214Y-15090214D01*
X10269643Y-15075929D01*
X10255357Y-15061643D01*
X10569643Y-15061643D02*
X10583928Y-15075929D01*
X10569643Y-15090214D01*
X10555357Y-15075929D01*
X10569643Y-15061643D01*
X10569643Y-15090214D01*
X10698214Y-14818786D02*
X10712500Y-14804500D01*
X10741071Y-14790214D01*
X10812500Y-14790214D01*
X10841071Y-14804500D01*
X10855357Y-14818786D01*
X10869643Y-14847357D01*
X10869643Y-14875929D01*
X10855357Y-14918786D01*
X10683928Y-15090214D01*
X10869643Y-15090214D01*
X11141071Y-14790214D02*
X10998214Y-14790214D01*
X10983928Y-14933071D01*
X10998214Y-14918786D01*
X11026786Y-14904500D01*
X11098214Y-14904500D01*
X11126786Y-14918786D01*
X11141071Y-14933071D01*
X11155357Y-14961643D01*
X11155357Y-15033071D01*
X11141071Y-15061643D01*
X11126786Y-15075929D01*
X11098214Y-15090214D01*
X11026786Y-15090214D01*
X10998214Y-15075929D01*
X10983928Y-15061643D01*
X11283928Y-15090214D02*
X11283928Y-14890214D01*
X11283928Y-14918786D02*
X11298214Y-14904500D01*
X11326786Y-14890214D01*
X11369643Y-14890214D01*
X11398214Y-14904500D01*
X11412500Y-14933071D01*
X11412500Y-15090214D01*
X11412500Y-14933071D02*
X11426786Y-14904500D01*
X11455357Y-14890214D01*
X11498214Y-14890214D01*
X11526786Y-14904500D01*
X11541071Y-14933071D01*
X11541071Y-15090214D01*
X11683928Y-15090214D02*
X11683928Y-14890214D01*
X11683928Y-14918786D02*
X11698214Y-14904500D01*
X11726786Y-14890214D01*
X11769643Y-14890214D01*
X11798214Y-14904500D01*
X11812500Y-14933071D01*
X11812500Y-15090214D01*
X11812500Y-14933071D02*
X11826786Y-14904500D01*
X11855357Y-14890214D01*
X11898214Y-14890214D01*
X11926786Y-14904500D01*
X11941071Y-14933071D01*
X11941071Y-15090214D01*
X12526786Y-14775929D02*
X12269643Y-15161643D01*
X12912500Y-14790214D02*
X12941071Y-14790214D01*
X12969643Y-14804500D01*
X12983928Y-14818786D01*
X12998214Y-14847357D01*
X13012500Y-14904500D01*
X13012500Y-14975929D01*
X12998214Y-15033071D01*
X12983928Y-15061643D01*
X12969643Y-15075929D01*
X12941071Y-15090214D01*
X12912500Y-15090214D01*
X12883928Y-15075929D01*
X12869643Y-15061643D01*
X12855357Y-15033071D01*
X12841071Y-14975929D01*
X12841071Y-14904500D01*
X12855357Y-14847357D01*
X12869643Y-14818786D01*
X12883928Y-14804500D01*
X12912500Y-14790214D01*
X13141071Y-15061643D02*
X13155357Y-15075929D01*
X13141071Y-15090214D01*
X13126786Y-15075929D01*
X13141071Y-15061643D01*
X13141071Y-15090214D01*
X13441071Y-15090214D02*
X13269643Y-15090214D01*
X13355357Y-15090214D02*
X13355357Y-14790214D01*
X13326786Y-14833071D01*
X13298214Y-14861643D01*
X13269643Y-14875929D01*
X13555357Y-14818786D02*
X13569643Y-14804500D01*
X13598214Y-14790214D01*
X13669643Y-14790214D01*
X13698214Y-14804500D01*
X13712500Y-14818786D01*
X13726786Y-14847357D01*
X13726786Y-14875929D01*
X13712500Y-14918786D01*
X13541071Y-15090214D01*
X13726786Y-15090214D01*
X13898214Y-14918786D02*
X13869643Y-14904500D01*
X13855357Y-14890214D01*
X13841071Y-14861643D01*
X13841071Y-14847357D01*
X13855357Y-14818786D01*
X13869643Y-14804500D01*
X13898214Y-14790214D01*
X13955357Y-14790214D01*
X13983928Y-14804500D01*
X13998214Y-14818786D01*
X14012500Y-14847357D01*
X14012500Y-14861643D01*
X13998214Y-14890214D01*
X13983928Y-14904500D01*
X13955357Y-14918786D01*
X13898214Y-14918786D01*
X13869643Y-14933071D01*
X13855357Y-14947357D01*
X13841071Y-14975929D01*
X13841071Y-15033071D01*
X13855357Y-15061643D01*
X13869643Y-15075929D01*
X13898214Y-15090214D01*
X13955357Y-15090214D01*
X13983928Y-15075929D01*
X13998214Y-15061643D01*
X14012500Y-15033071D01*
X14012500Y-14975929D01*
X13998214Y-14947357D01*
X13983928Y-14933071D01*
X13955357Y-14918786D01*
X14126786Y-14790214D02*
X14126786Y-14847357D01*
X14241071Y-14790214D02*
X14241071Y-14847357D01*
X14683928Y-15204500D02*
X14669643Y-15190214D01*
X14641071Y-15147357D01*
X14626786Y-15118786D01*
X14612500Y-15075929D01*
X14598214Y-15004500D01*
X14598214Y-14947357D01*
X14612500Y-14875929D01*
X14626786Y-14833071D01*
X14641071Y-14804500D01*
X14669643Y-14761643D01*
X14683928Y-14747357D01*
X14783928Y-14818786D02*
X14798214Y-14804500D01*
X14826786Y-14790214D01*
X14898214Y-14790214D01*
X14926786Y-14804500D01*
X14941071Y-14818786D01*
X14955357Y-14847357D01*
X14955357Y-14875929D01*
X14941071Y-14918786D01*
X14769643Y-15090214D01*
X14955357Y-15090214D01*
X15312500Y-15090214D02*
X15312500Y-14790214D01*
X15441071Y-15090214D02*
X15441071Y-14933071D01*
X15426786Y-14904500D01*
X15398214Y-14890214D01*
X15355357Y-14890214D01*
X15326786Y-14904500D01*
X15312500Y-14918786D01*
X15626786Y-15090214D02*
X15598214Y-15075929D01*
X15583928Y-15061643D01*
X15569643Y-15033071D01*
X15569643Y-14947357D01*
X15583928Y-14918786D01*
X15598214Y-14904500D01*
X15626786Y-14890214D01*
X15669643Y-14890214D01*
X15698214Y-14904500D01*
X15712500Y-14918786D01*
X15726786Y-14947357D01*
X15726786Y-15033071D01*
X15712500Y-15061643D01*
X15698214Y-15075929D01*
X15669643Y-15090214D01*
X15626786Y-15090214D01*
X15898214Y-15090214D02*
X15869643Y-15075929D01*
X15855357Y-15047357D01*
X15855357Y-14790214D01*
X16126786Y-15075929D02*
X16098214Y-15090214D01*
X16041071Y-15090214D01*
X16012500Y-15075929D01*
X15998214Y-15047357D01*
X15998214Y-14933071D01*
X16012500Y-14904500D01*
X16041071Y-14890214D01*
X16098214Y-14890214D01*
X16126786Y-14904500D01*
X16141071Y-14933071D01*
X16141071Y-14961643D01*
X15998214Y-14990214D01*
X16255357Y-15075929D02*
X16283928Y-15090214D01*
X16341071Y-15090214D01*
X16369643Y-15075929D01*
X16383928Y-15047357D01*
X16383928Y-15033071D01*
X16369643Y-15004500D01*
X16341071Y-14990214D01*
X16298214Y-14990214D01*
X16269643Y-14975929D01*
X16255357Y-14947357D01*
X16255357Y-14933071D01*
X16269643Y-14904500D01*
X16298214Y-14890214D01*
X16341071Y-14890214D01*
X16369643Y-14904500D01*
X16483928Y-15204500D02*
X16498214Y-15190214D01*
X16526786Y-15147357D01*
X16541071Y-15118786D01*
X16555357Y-15075929D01*
X16569643Y-15004500D01*
X16569643Y-14947357D01*
X16555357Y-14875929D01*
X16541071Y-14833071D01*
X16526786Y-14804500D01*
X16498214Y-14761643D01*
X16483928Y-14747357D01*
X17026786Y-15204500D02*
X17012500Y-15190214D01*
X16983928Y-15147357D01*
X16969643Y-15118786D01*
X16955357Y-15075929D01*
X16941071Y-15004500D01*
X16941071Y-14947357D01*
X16955357Y-14875929D01*
X16969643Y-14833071D01*
X16983928Y-14804500D01*
X17012500Y-14761643D01*
X17026786Y-14747357D01*
X17141071Y-14890214D02*
X17141071Y-15090214D01*
X17141071Y-14918786D02*
X17155357Y-14904500D01*
X17183928Y-14890214D01*
X17226786Y-14890214D01*
X17255357Y-14904500D01*
X17269643Y-14933071D01*
X17269643Y-15090214D01*
X17455357Y-15090214D02*
X17426786Y-15075929D01*
X17412500Y-15061643D01*
X17398214Y-15033071D01*
X17398214Y-14947357D01*
X17412500Y-14918786D01*
X17426786Y-14904500D01*
X17455357Y-14890214D01*
X17498214Y-14890214D01*
X17526786Y-14904500D01*
X17541071Y-14918786D01*
X17555357Y-14947357D01*
X17555357Y-15033071D01*
X17541071Y-15061643D01*
X17526786Y-15075929D01*
X17498214Y-15090214D01*
X17455357Y-15090214D01*
X17641071Y-14890214D02*
X17755357Y-14890214D01*
X17683928Y-14790214D02*
X17683928Y-15047357D01*
X17698214Y-15075929D01*
X17726786Y-15090214D01*
X17755357Y-15090214D01*
X18083928Y-14890214D02*
X18083928Y-15190214D01*
X18083928Y-14904500D02*
X18112500Y-14890214D01*
X18169643Y-14890214D01*
X18198214Y-14904500D01*
X18212500Y-14918786D01*
X18226786Y-14947357D01*
X18226786Y-15033071D01*
X18212500Y-15061643D01*
X18198214Y-15075929D01*
X18169643Y-15090214D01*
X18112500Y-15090214D01*
X18083928Y-15075929D01*
X18398214Y-15090214D02*
X18369643Y-15075929D01*
X18355357Y-15047357D01*
X18355357Y-14790214D01*
X18641071Y-15090214D02*
X18641071Y-14933071D01*
X18626786Y-14904500D01*
X18598214Y-14890214D01*
X18541071Y-14890214D01*
X18512500Y-14904500D01*
X18641071Y-15075929D02*
X18612500Y-15090214D01*
X18541071Y-15090214D01*
X18512500Y-15075929D01*
X18498214Y-15047357D01*
X18498214Y-15018786D01*
X18512500Y-14990214D01*
X18541071Y-14975929D01*
X18612500Y-14975929D01*
X18641071Y-14961643D01*
X18741071Y-14890214D02*
X18855357Y-14890214D01*
X18783928Y-14790214D02*
X18783928Y-15047357D01*
X18798214Y-15075929D01*
X18826786Y-15090214D01*
X18855357Y-15090214D01*
X19069643Y-15075929D02*
X19041071Y-15090214D01*
X18983928Y-15090214D01*
X18955357Y-15075929D01*
X18941071Y-15047357D01*
X18941071Y-14933071D01*
X18955357Y-14904500D01*
X18983928Y-14890214D01*
X19041071Y-14890214D01*
X19069643Y-14904500D01*
X19083928Y-14933071D01*
X19083928Y-14961643D01*
X18941071Y-14990214D01*
X19341071Y-15090214D02*
X19341071Y-14790214D01*
X19341071Y-15075929D02*
X19312500Y-15090214D01*
X19255357Y-15090214D01*
X19226786Y-15075929D01*
X19212500Y-15061643D01*
X19198214Y-15033071D01*
X19198214Y-14947357D01*
X19212500Y-14918786D01*
X19226786Y-14904500D01*
X19255357Y-14890214D01*
X19312500Y-14890214D01*
X19341071Y-14904500D01*
X19455357Y-15204500D02*
X19469643Y-15190214D01*
X19498214Y-15147357D01*
X19512500Y-15118786D01*
X19526786Y-15075929D01*
X19541071Y-15004500D01*
X19541071Y-14947357D01*
X19526786Y-14875929D01*
X19512500Y-14833071D01*
X19498214Y-14804500D01*
X19469643Y-14761643D01*
X19455357Y-14747357D01*
M02*
